AWSTATS DATA FILE 7.6 (build 20161204)
# If you remove this file, all statistics for date 201806 will be lost/reset.
# Last config file used to build this data file was /home2/fyfxamvcmvss/tmp/awstats/ssl/awstats.randholeeresort.freudenbergleisure.com.conf.

# Position (offset in bytes) in this file for beginning of each section for
# direct I/O access. If you made changes somewhere in this file, you should
# also remove completely the MAP section (AWStats will rewrite it at next
# update).
BEGIN_MAP 28
POS_GENERAL 2044                
POS_TIME 2702                
POS_VISITOR 5833                
POS_DAY 6527                
POS_DOMAIN 3204                
POS_LOGIN 3431                
POS_ROBOT 3586                
POS_WORMS 3718                
POS_EMAILSENDER 3849                
POS_EMAILRECEIVER 3992                
POS_SESSION 6693                
POS_SIDER 6839                
POS_FILETYPES 4127                
POS_DOWNLOADS 4277                
POS_OS 4325                
POS_BROWSER 4426                
POS_SCREENSIZE 4553                
POS_UNKNOWNREFERER 4627                
POS_UNKNOWNREFERERBROWSER 4714                
POS_ORIGIN 4796                
POS_SEREFERRALS 4927                
POS_PAGEREFS 5089                
POS_SEARCHWORDS 5237                
POS_KEYWORDS 5389                
POS_MISC 2366                
POS_ERRORS 5448                
POS_CLUSTER 3287                
POS_SIDER_404 5524                
END_MAP

# LastLine    = Date of last record processed - Last record line number in last log - Last record offset in last log - Last record signature value
# FirstTime   = Date of first visit for history file
# LastTime    = Date of last visit for history file
# LastUpdate  = Date of last update - Nb of parsed records - Nb of parsed old records - Nb of parsed new records - Nb of parsed corrupted - Nb of parsed dropped
# TotalVisits = Number of visits
# TotalUnique = Number of unique visitors
# MonthHostsKnown   = Number of hosts known
# MonthHostsUnKnown = Number of hosts unknown
BEGIN_GENERAL 8
LastLine 20180703214155 1 0 8522420549529
FirstTime 0
LastTime 20180608214410
LastUpdate 20180704174649 1 0 0 0 0
TotalVisits 1                   
TotalUnique 1                   
MonthHostsKnown 0                   
MonthHostsUnknown 24                  
END_GENERAL

# Misc ID - Pages - Hits - Bandwidth
BEGIN_MISC 10
DirectorSupport 0 0 0
RealPlayerSupport 0 0 0
WindowsMediaPlayerSupport 0 0 0
QuickTimeSupport 0 0 0
PDFSupport 0 0 0
JavascriptDisabled 0 0 0
FlashSupport 0 0 0
TotalMisc 0 0 0
AddToFavourites 0 1 0
JavaEnabled 0 0 0
END_MISC

# Hour - Pages - Hits - Bandwidth - Not viewed Pages - Not viewed Hits - Not viewed Bandwidth
BEGIN_TIME 24
0 0 0 0 0 0 0
1 0 0 0 0 0 0
2 0 22 1010408 0 0 0
3 0 0 0 0 0 0
4 0 0 0 0 0 0
5 0 0 0 0 0 0
6 0 0 0 0 0 0
7 0 0 0 0 0 0
8 0 0 0 0 0 0
9 0 0 0 0 0 0
10 0 5 237709 0 0 0
11 0 0 0 0 0 0
12 0 0 0 0 0 0
13 0 0 0 0 0 0
14 0 0 0 0 0 0
15 0 0 0 0 0 0
16 0 0 0 0 1 22340
17 0 9 301595 0 0 0
18 0 0 0 0 0 0
19 0 0 0 0 0 0
20 0 0 0 0 0 0
21 1 1 30611 0 0 0
22 0 0 0 0 0 0
23 0 0 0 0 0 0
END_TIME

# Domain - Pages - Hits - Bandwidth
# The 25 first Pages must be first (order not required for others)
BEGIN_DOMAIN 1
us 1 37 1580323
END_DOMAIN

# Cluster ID - Pages - Hits - Bandwidth
BEGIN_CLUSTER 0
END_CLUSTER

# Login - Pages - Hits - Bandwidth - Last visit
# The 10 first Pages must be first (order not required for others)
BEGIN_LOGIN 0
END_LOGIN

# Robot ID - Hits - Bandwidth - Last visit - Hits on robots.txt
# The 25 first Hits must be first (order not required for others)
BEGIN_ROBOT 0
END_ROBOT

# Worm ID - Hits - Bandwidth - Last visit
# The 5 first Hits must be first (order not required for others)
BEGIN_WORMS 0
END_WORMS

# EMail - Hits - Bandwidth - Last visit
# The 20 first Hits must be first (order not required for others)
BEGIN_EMAILSENDER 0
END_EMAILSENDER

# EMail - Hits - Bandwidth - Last visit
# The 20 first hits must be first (order not required for others)
BEGIN_EMAILRECEIVER 0
END_EMAILRECEIVER

# Files type - Hits - Bandwidth - Bandwidth without compression - Bandwidth after compression
BEGIN_FILETYPES 5
jpg 3 139305 0 0
html 1 30611 0 0
css 14 322414 0 0
png 5 283247 0 0
js 14 804746 0 0
END_FILETYPES

# Downloads - Hits - Bandwidth
BEGIN_DOWNLOADS 0
END_DOWNLOADS

# OS ID - Hits
BEGIN_OS ID - Hits - Pages 3
win7 2 0
ios_iphone 22 0
win10 13 1
END_OS

# Browser ID - Hits - Pages
BEGIN_BROWSER 4
safari11.0 22 0
chrome66.0.3359.181 12 0
chrome67.0.3396.79 1 1
msie11.0 2 0
END_BROWSER

# Screen size - Hits
BEGIN_SCREENSIZE 0
END_SCREENSIZE

# Unknown referer OS - Last visit date
BEGIN_UNKNOWNREFERER 0
END_UNKNOWNREFERER

# Unknown referer Browser - Last visit date
BEGIN_UNKNOWNREFERERBROWSER 0
END_UNKNOWNREFERERBROWSER

# Origin - Pages - Hits 
BEGIN_ORIGIN 6
From0 0 0
From1 0 0
From2 1 4
From3 0 0
From4 0 33
From5 0 0
END_ORIGIN

# Search engine referers ID - Pages - Hits
BEGIN_SEREFERRALS 1
www_google_lk 1 4
END_SEREFERRALS

# External page referers - Pages - Hits
# The 25 first Pages must be first (order not required for others)
BEGIN_PAGEREFS 0
END_PAGEREFS

# Search keyphrases - Number of search
# The 10 first number of search must be first (order not required for others)
BEGIN_SEARCHWORDS 0
END_SEARCHWORDS

# Search keywords - Number of search
# The 25 first number of search must be first (order not required for others)
BEGIN_KEYWORDS 0
END_KEYWORDS

# Errors - Hits - Bandwidth
BEGIN_ERRORS 0
END_ERRORS

# URL with 404 errors - Hits - Last URL referrer
BEGIN_SIDER_404 0
END_SIDER_404

# Host - Pages - Hits - Bandwidth - Last visit date - [Start date of last visit] - [Last page of last visit]
# [Start date of last visit] and [Last page of last visit] are saved only if session is not finished
# The 25 first Hits must be first (order not required for others)
BEGIN_VISITOR 24
172.68.202.15 1 1 30611 20180608214410
162.158.10.45 0 1 20215 
162.158.10.27 0 2 6415 
162.158.10.33 0 1 852 
162.158.22.99 0 2 187728 
162.158.22.213 0 1 23936 
162.158.10.15 0 4 242203 
162.158.22.153 0 1 29113 
162.158.22.129 0 1 13962 
162.158.22.69 0 1 35957 
162.158.238.201 0 1 95933 
162.158.22.39 0 3 17685 
162.158.22.51 0 2 559649 
162.158.22.15 0 1 20215 
162.158.10.21 0 1 31910 
162.158.22.81 0 2 4935 
162.158.22.225 0 1 852 
162.158.22.21 0 3 15596 
162.158.22.111 0 1 3327 
162.158.22.87 0 1 12409 
162.158.238.69 0 1 2471 
162.158.22.195 0 1 42157 
162.158.22.117 0 2 54349 
162.158.22.141 0 2 127843 
END_VISITOR

# Date - Pages - Hits - Bandwidth - Visits
BEGIN_DAY 5
20180603 0 22 1010408 0
20180605 0 9 301595 0
20180606 0 3 139305 0
20180608 1 1 30611 1
20180613 0 2 98404 0
END_DAY

# Session range - Number of visits
BEGIN_SESSION 1
0s-30s 1
END_SESSION

# URL - Pages - Bandwidth - Entry - Exit
# The 25 first Pages must be first (order not required for others)
BEGIN_SIDER 1
/ 1 30611 1 1
END_SIDER
