AWSTATS DATA FILE 7.7 (build 20180105)
# If you remove this file, all statistics for date 201810 will be lost/reset.
# Last config file used to build this data file was /home2/fyfxamvcmvss/tmp/awstats/ssl/awstats.randholeeresort.freudenbergleisure.com.conf.

# Position (offset in bytes) in this file for beginning of each section for
# direct I/O access. If you made changes somewhere in this file, you should
# also remove completely the MAP section (AWStats will rewrite it at next
# update).
BEGIN_MAP 28
POS_GENERAL 2044                
POS_TIME 2715                
POS_VISITOR 6116                
POS_DAY 6635                
POS_DOMAIN 3215                
POS_LOGIN 3442                
POS_ROBOT 3597                
POS_WORMS 3811                
POS_EMAILSENDER 3942                
POS_EMAILRECEIVER 4085                
POS_SESSION 6774                
POS_SIDER 6920                
POS_FILETYPES 4220                
POS_DOWNLOADS 4348                
POS_OS 4396                
POS_BROWSER 4497                
POS_SCREENSIZE 4601                
POS_UNKNOWNREFERER 4675                
POS_UNKNOWNREFERERBROWSER 5003                
POS_ORIGIN 5085                
POS_SEREFERRALS 5216                
POS_PAGEREFS 5360                
POS_SEARCHWORDS 5508                
POS_KEYWORDS 5660                
POS_MISC 2379                
POS_ERRORS 5719                
POS_CLUSTER 3298                
POS_SIDER_404 5807                
END_MAP

# LastLine    = Date of last record processed - Last record line number in last log - Last record offset in last log - Last record signature value
# FirstTime   = Date of first visit for history file
# LastTime    = Date of last visit for history file
# LastUpdate  = Date of last update - Nb of parsed records - Nb of parsed old records - Nb of parsed new records - Nb of parsed corrupted - Nb of parsed dropped
# TotalVisits = Number of visits
# TotalUnique = Number of unique visitors
# MonthHostsKnown   = Number of hosts known
# MonthHostsUnKnown = Number of hosts unknown
BEGIN_GENERAL 8
LastLine 20181205050919 1 0 9752896549745
FirstTime 20181002091201
LastTime 20181002091201
LastUpdate 20181205174706 1 0 0 0 0
TotalVisits 1                   
TotalUnique 1                   
MonthHostsKnown 0                   
MonthHostsUnknown 18                  
END_GENERAL

# Misc ID - Pages - Hits - Bandwidth
BEGIN_MISC 10
JavaEnabled 0 0 0
DirectorSupport 0 0 0
PDFSupport 0 0 0
QuickTimeSupport 0 0 0
JavascriptDisabled 0 0 0
FlashSupport 0 0 0
AddToFavourites 0 0 0
WindowsMediaPlayerSupport 0 0 0
RealPlayerSupport 0 0 0
TotalMisc 0 0 0
END_MISC

# Hour - Pages - Hits - Bandwidth - Not viewed Pages - Not viewed Hits - Not viewed Bandwidth
BEGIN_TIME 24
0 0 0 0 0 0 0
1 0 0 0 0 0 0
2 0 0 0 0 0 0
3 0 0 0 0 0 0
4 0 0 0 0 0 0
5 0 22 1021971 0 0 0
6 0 0 0 0 0 0
7 0 0 0 1 1 32461
8 0 0 0 0 0 0
9 1 1 0 0 0 0
10 0 0 0 0 0 0
11 0 0 0 0 0 0
12 0 0 0 0 0 0
13 0 0 0 0 0 0
14 0 0 0 0 0 0
15 0 0 0 0 0 0
16 0 0 0 0 0 0
17 0 0 0 0 0 0
18 0 0 0 1 2 64578
19 0 0 0 0 0 0
20 0 1 404213 0 0 0
21 0 0 0 0 0 0
22 0 1 3327 0 0 0
23 0 0 0 0 0 0
END_TIME

# Domain - Pages - Hits - Bandwidth
# The 25 first Pages must be first (order not required for others)
BEGIN_DOMAIN 1
us 1 25 1429511
END_DOMAIN

# Cluster ID - Pages - Hits - Bandwidth
BEGIN_CLUSTER 0
END_CLUSTER

# Login - Pages - Hits - Bandwidth - Last visit
# The 10 first Pages must be first (order not required for others)
BEGIN_LOGIN 0
END_LOGIN

# Robot ID - Hits - Bandwidth - Last visit - Hits on robots.txt
# The 25 first Hits must be first (order not required for others)
BEGIN_ROBOT 2
bot[\s_+:,\.\;\/\\-] 1 32461 20181029070820 0
Googlebot/ 1 41874 20181014180659 0
END_ROBOT

# Worm ID - Hits - Bandwidth - Last visit
# The 5 first Hits must be first (order not required for others)
BEGIN_WORMS 0
END_WORMS

# EMail - Hits - Bandwidth - Last visit
# The 20 first Hits must be first (order not required for others)
BEGIN_EMAILSENDER 0
END_EMAILSENDER

# EMail - Hits - Bandwidth - Last visit
# The 20 first hits must be first (order not required for others)
BEGIN_EMAILRECEIVER 0
END_EMAILRECEIVER

# Files type - Hits - Bandwidth - Bandwidth without compression - Bandwidth after compression
BEGIN_FILETYPES 4
js 12 693836 0 0
css 8 164534 0 0
html 1 0 0 0
png 4 571141 0 0
END_FILETYPES

# Downloads - Hits - Bandwidth
BEGIN_DOWNLOADS 0
END_DOWNLOADS

# OS ID - Hits
BEGIN_OS ID - Hits - Pages 3
Unknown 2 1
win10 1 0
ios_ipad 22 0
END_OS

# Browser ID - Hits - Pages
BEGIN_BROWSER 3
safari11.0 22 0
chrome67.0.3396.99 1 0
cloudflare 2 1
END_BROWSER

# Screen size - Hits
BEGIN_SCREENSIZE 0
END_SCREENSIZE

# Unknown referer OS - Last visit date
BEGIN_UNKNOWNREFERER 2
Mozilla/5.0_(compatible;_CloudFlare-AlwaysOnline/1.0;__http://www.cloudflare.com/always-online)_AppleWebKit/534.34 20181022203516
Mozilla/5.0_(compatible;_CloudFlare-AlwaysOnline/1.0;__http://www.cloudflare.com/always-online) 20181002091201
END_UNKNOWNREFERER

# Unknown referer Browser - Last visit date
BEGIN_UNKNOWNREFERERBROWSER 0
END_UNKNOWNREFERERBROWSER

# Origin - Pages - Hits 
BEGIN_ORIGIN 6
From0 1 1
From1 0 0
From2 0 0
From3 0 0
From4 0 24
From5 0 0
END_ORIGIN

# Search engine referers ID - Pages - Hits
BEGIN_SEREFERRALS 0
END_SEREFERRALS

# External page referers - Pages - Hits
# The 25 first Pages must be first (order not required for others)
BEGIN_PAGEREFS 0
END_PAGEREFS

# Search keyphrases - Number of search
# The 10 first number of search must be first (order not required for others)
BEGIN_SEARCHWORDS 0
END_SEARCHWORDS

# Search keywords - Number of search
# The 25 first number of search must be first (order not required for others)
BEGIN_KEYWORDS 0
END_KEYWORDS

# Errors - Hits - Bandwidth
BEGIN_ERRORS 1
302 1 22704
END_ERRORS

# URL with 404 errors - Hits - Last URL referrer
BEGIN_SIDER_404 0
END_SIDER_404

# Host - Pages - Hits - Bandwidth - Last visit date - [Start date of last visit] - [Last page of last visit]
# [Start date of last visit] and [Last page of last visit] are saved only if session is not finished
# The 25 first Hits must be first (order not required for others)
BEGIN_VISITOR 18
172.69.23.86 1 1 0 20181002091201
162.158.2.33 0 1 20215 
162.158.2.129 0 2 169210 
162.158.2.21 0 1 852 
162.158.2.93 0 2 465353 
172.69.23.68 0 1 404213 
162.158.2.81 0 3 58980 
162.158.2.123 0 1 3007 
162.158.10.27 0 1 3327 
162.158.2.99 0 2 37898 
162.158.2.189 0 1 1847 
162.158.2.141 0 2 12589 
162.158.2.57 0 1 94574 
162.158.2.63 0 1 35957 
162.158.2.171 0 1 7629 
162.158.2.75 0 1 2430 
162.158.2.135 0 1 3088 
162.158.2.177 0 2 108342 
END_VISITOR

# Date - Pages - Hits - Bandwidth - Visits
BEGIN_DAY 4
20181002 1 1 0 1
20181007 0 22 1021971 0
20181008 0 1 3327 0
20181022 0 1 404213 0
END_DAY

# Session range - Number of visits
BEGIN_SESSION 1
0s-30s 1
END_SESSION

# URL - Pages - Bandwidth - Entry - Exit
# The 25 first Pages must be first (order not required for others)
BEGIN_SIDER 1
/ 1 0 1 1
END_SIDER
