AWSTATS DATA FILE 7.7 (build 20180105)
# If you remove this file, all statistics for date 201904 will be lost/reset.
# Last config file used to build this data file was /home2/fyfxamvcmvss/tmp/awstats/awstats.firs.freudenbergleisure.lk.conf.

# Position (offset in bytes) in this file for beginning of each section for
# direct I/O access. If you made changes somewhere in this file, you should
# also remove completely the MAP section (AWStats will rewrite it at next
# update).
BEGIN_MAP 28
POS_GENERAL 2028                
POS_TIME 2706                
POS_VISITOR 8943                
POS_DAY 12735               
POS_DOMAIN 3480                
POS_LOGIN 3966                
POS_ROBOT 4121                
POS_WORMS 5033                
POS_EMAILSENDER 5164                
POS_EMAILRECEIVER 5307                
POS_SESSION 13427               
POS_SIDER 13596               
POS_FILETYPES 5442                
POS_DOWNLOADS 5597                
POS_OS 5645                
POS_BROWSER 5896                
POS_SCREENSIZE 6848                
POS_UNKNOWNREFERER 6922                
POS_UNKNOWNREFERERBROWSER 7577                
POS_ORIGIN 7902                
POS_SEREFERRALS 8038                
POS_PAGEREFS 8182                
POS_SEARCHWORDS 8330                
POS_KEYWORDS 8482                
POS_MISC 2370                
POS_ERRORS 8541                
POS_CLUSTER 3822                
POS_SIDER_404 8634                
END_MAP

# LastLine    = Date of last record processed - Last record line number in last log - Last record offset in last log - Last record signature value
# FirstTime   = Date of first visit for history file
# LastTime    = Date of last visit for history file
# LastUpdate  = Date of last update - Nb of parsed records - Nb of parsed old records - Nb of parsed new records - Nb of parsed corrupted - Nb of parsed dropped
# TotalVisits = Number of visits
# TotalUnique = Number of unique visitors
# MonthHostsKnown   = Number of hosts known
# MonthHostsUnKnown = Number of hosts unknown
BEGIN_GENERAL 8
LastLine 20190501013621 14 2164 14862815315783
FirstTime 20190401084318
LastTime 20190430201059
LastUpdate 20190501174756 14 0 13 0 0
TotalVisits 117                 
TotalUnique 87                  
MonthHostsKnown 0                   
MonthHostsUnknown 93                  
END_GENERAL

# Misc ID - Pages - Hits - Bandwidth
BEGIN_MISC 10
DirectorSupport 0 0 0
FlashSupport 0 0 0
AddToFavourites 0 7 0
WindowsMediaPlayerSupport 0 0 0
QuickTimeSupport 0 0 0
PDFSupport 0 0 0
JavaEnabled 0 0 0
TotalMisc 0 0 0
RealPlayerSupport 0 0 0
JavascriptDisabled 0 0 0
END_MISC

# Hour - Pages - Hits - Bandwidth - Not viewed Pages - Not viewed Hits - Not viewed Bandwidth
BEGIN_TIME 24
0 4 4 124276 25 51 1318791
1 6 7 188562 25 46 1071247
2 2 3 64272 13 20 565393
3 1 1 31072 14 28 704273
4 4 5 126414 17 34 865240
5 10 10 310712 88 99 2368939
6 7 8 219624 15 23 605388
7 6 7 159971 15 32 803104
8 6 6 186436 12 41 1307171
9 7 8 219646 50 59 1387054
10 7 7 218688 11 18 430164
11 3 3 93204 23 38 905892
12 5 5 155358 15 26 615002
13 7 8 219630 28 42 1030509
14 6 6 186444 14 27 617481
15 8 8 248572 10 42 1372811
16 7 8 219632 14 21 526883
17 5 5 155344 49 54 1532026
18 6 6 186418 34 44 1230574
19 3 3 93210 10 18 442787
20 7 8 219634 12 22 554267
21 2 2 62144 16 29 661728
22 10 12 314982 22 35 841570
23 4 4 124276 62 98 2359247
END_TIME

# Domain - Pages - Hits - Bandwidth
# The 25 first Pages must be first (order not required for others)
BEGIN_DOMAIN 20
us 71 79 2223140
ip 13 15 408208
cn 11 11 341776
fr 6 6 186420
eu 5 5 156546
ru 5 5 155352
gb 4 4 124272
ca 2 2 33547
se 2 2 62136
cl 2 2 62136
ua 2 2 62148
de 2 2 62136
lk 1 2 33210
au 1 1 31074
it 1 1 31068
id 1 1 31074
ar 1 1 31068
kr 1 1 31068
nl 1 1 31068
gr 1 1 31074
END_DOMAIN

# Cluster ID - Pages - Hits - Bandwidth
BEGIN_CLUSTER 0
END_CLUSTER

# Login - Pages - Hits - Bandwidth - Last visit
# The 10 first Pages must be first (order not required for others)
BEGIN_LOGIN 0
END_LOGIN

# Robot ID - Hits - Bandwidth - Last visit - Hits on robots.txt
# The 25 first Hits must be first (order not required for others)
BEGIN_ROBOT 19
Googlebot/ 103 3287347 20190430084649 0
(firefox/)([0-9]\.|[0-1][0]\.) 50 1553400 20190417180107 0
spider 46 1801676 20190429083943 0
bot[\s_+:,\.\;\/\\-] 32 994280 20190430223123 0
Sogou[\x20]web[\x20]spider/ 32 994324 20190430235156 0
Mail\.RU_Bot/ 24 390287 20190430181056 0
HubSpot[\x20]Webcrawler 21 598940 20190416052009 0
Uptimebot/ 16 497154 20190425171128 0
YandexBot/ 15 466104 20190429070809 0
bingbot/ 10 252836 20190430064327 0
Baiduspider/ 9 279666 20190428020458 0
no_user_agent 2 62148 20190426002747 0
YandexImages/ 1 2136 20190418122831 0
Applebot/ 1 31074 20190401042809 0
aiHitBot/ 1 31072 20190428002246 0
SemrushBot/ 1 31074 20190407060046 0
SafeDNSBot 1 31068 20190410150116 0
[\s_+:,\.\;\/\\-]bot 1 31074 20190409233134 0
DotBot/ 1 31068 20190418091405 0
END_ROBOT

# Worm ID - Hits - Bandwidth - Last visit
# The 5 first Hits must be first (order not required for others)
BEGIN_WORMS 0
END_WORMS

# EMail - Hits - Bandwidth - Last visit
# The 20 first Hits must be first (order not required for others)
BEGIN_EMAILSENDER 0
END_EMAILSENDER

# EMail - Hits - Bandwidth - Last visit
# The 20 first hits must be first (order not required for others)
BEGIN_EMAILRECEIVER 0
END_EMAILRECEIVER

# Files type - Hits - Bandwidth - Bandwidth without compression - Bandwidth after compression
BEGIN_FILETYPES 5
php 5 155364 0 0
Unknown 6 187618 0 0
xml 1 2475 0 0
png 11 23496 0 0
html 121 3759568 0 0
END_FILETYPES

# Downloads - Hits - Bandwidth
BEGIN_DOWNLOADS 0
END_DOWNLOADS

# OS ID - Hits
BEGIN_OS ID - Hits - Pages 15
macosx12 22 22
macosx 5 5
win10 27 24
winlong 6 6
macosx8 1 1
win7 18 18
win2003 1 1
linuxandroid 2 1
winxp 4 4
Unknown 34 30
macosx11 5 5
macosx9 1 1
macosx10 1 1
win8 4 4
linux 13 10
END_OS

# Browser ID - Hits - Pages
BEGIN_BROWSER 46
chrome58.0.3029.110 7 6
chrome66.0.3359.181 1 1
firefox62.0 5 5
safari11.1.2 2 2
chrome40.0.2214.85 2 2
chrome55.0.2883.87 2 2
chrome65.0.3325.181 1 1
chrome70.0.3538.110 1 1
firefox34.0 2 2
firefox47.0 3 3
firefox54.0 2 2
edge18 1 1
firefox65.0 1 1
chrome70.0.3538.102 1 0
chrome73.0.3683.86 2 1
chrome34.0.1847.116 5 5
opera36.0.2130.32 2 2
firefox37.0 1 1
chrome49.0.2623.75 1 1
opera56.0.3051.116 1 1
Unknown 13 13
mozilla 10 10
firefox63.0 4 3
chrome70.0.3538.77 2 1
safari 1 0
chrome62.0.3202.94 1 1
msie9.0 5 5
safari5.4.8 1 1
chrome73.0.3683.90 2 1
firefox59.0 1 1
chrome66.0.3359.117 5 5
firefox64.0 1 1
chrome55.0.2919.45 1 1
chrome27.0.1453.93 1 1
chrome63.0.3239.132 8 8
chrome60.0.3112.101 3 3
msie7.0 4 4
chrome41.0.2226.0 1 1
msie6.0 2 2
cloudflare 12 8
chrome53.0.2822.30 1 1
msie10.0 2 2
chrome72.0.3626.121 1 1
chrome35.0.1916.47 1 1
chrome71.0.3578.98 1 1
chrome61.0.3163.100 17 17
END_BROWSER

# Screen size - Hits
BEGIN_SCREENSIZE 0
END_SCREENSIZE

# Unknown referer OS - Last visit date
BEGIN_UNKNOWNREFERER 9
Mozilla/5.0_(compatible;_CloudFlare-AlwaysOnline/1.0;__http://www.cloudflare.com/always-online)_AppleWebKit/534.34 20190424222938
Mozilla/5.0_(compatible;_CloudFlare-AlwaysOnline/1.0;_http://www.cloudflare.com/always-online) 20190426130132
Mozilla/5.0_(compatible;_NetcraftSurveyAgent/1.0;__info@netcraft.com) 20190404152006
Go-http-client/1.1 20190426062355
Scrapy/1.5.1_(_https://scrapy.org) 20190403143638
Go-http-client/2.0 20190423101954
Mozilla/5.0_(compatible;_Dataprovider.com) 20190428074002
panscient.com 20190410031742
python-requests/2.21.0 20190415012053
END_UNKNOWNREFERER

# Unknown referer Browser - Last visit date
BEGIN_UNKNOWNREFERERBROWSER 6
python-requests/2.21.0 20190415012053
Surf/1.0_(Linux_4.4.0-116-generic;_go1.12) 20190419133122
panscient.com 20190410031742
Go-http-client/1.1 20190426062355
Scrapy/1.5.1_(_https://scrapy.org) 20190403143638
Go-http-client/2.0 20190423101954
END_UNKNOWNREFERERBROWSER

# Origin - Pages - Hits 
BEGIN_ORIGIN 6
From0 122 125
From1 1 1
From2 0 0
From3 0 0
From4 10 18
From5 0 0
END_ORIGIN

# Search engine referers ID - Pages - Hits
BEGIN_SEREFERRALS 0
END_SEREFERRALS

# External page referers - Pages - Hits
# The 25 first Pages must be first (order not required for others)
BEGIN_PAGEREFS 0
END_PAGEREFS

# Search keyphrases - Number of search
# The 10 first number of search must be first (order not required for others)
BEGIN_SEARCHWORDS 0
END_SEARCHWORDS

# Search keywords - Number of search
# The 25 first number of search must be first (order not required for others)
BEGIN_KEYWORDS 0
END_KEYWORDS

# Errors - Hits - Bandwidth
BEGIN_ERRORS 1
302 573 12597059
END_ERRORS

# URL with 404 errors - Hits - Last URL referrer
BEGIN_SIDER_404 0
END_SIDER_404

# Host - Pages - Hits - Bandwidth - Last visit date - [Start date of last visit] - [Last page of last visit]
# [Start date of last visit] and [Last page of last visit] are saved only if session is not finished
# The 25 first Hits must be first (order not required for others)
BEGIN_VISITOR 93
52.53.201.78 9 9 279654 20190425070220
52.70.146.155 8 8 248562 20190430190249
13.57.233.99 8 8 248582 20190423224518
178.62.82.141 5 5 156546 20190415101047
221.229.204.71 5 5 155360 20190424051551
62.210.83.78 4 4 124272 20190429184823
34.73.237.193 3 3 93204 20190411230907
60.191.38.77 3 3 93204 20190430195036
104.155.3.85 2 2 62148 20190403092918
51.68.91.9 2 2 62136 20190414172823
142.4.218.236 2 2 33547 20190428074002
54.89.74.138 2 2 62136 20190426010113
2001:4ca0:108:42::5 2 2 62136 20190426173712
88.198.39.184 2 2 62136 20190413020756
128.127.104.80 2 2 62136 20190412004825
193.106.30.98 2 2 62148 20190402140148
2604:9980:0:12a:225:90ff:fe7c:41cc 2 2 62148 20190401092439
179.61.181.249 1 1 31068 20190425115238
5.188.62.5 1 1 31068 20190422050347
38.100.21.63 1 1 31072 20190415214631
54.94.242.49 1 1 31068 20190418042506
5.61.36.87 1 1 31068 20190417121330
34.214.104.230 1 1 31068 20190410064131
191.96.41.30 1 1 31068 20190418131934
209.97.144.42 1 1 31074 20190404151854
162.158.70.142 0 1 2136 
104.192.74.201 1 2 33204 20190424130243
34.222.212.236 1 1 31068 20190421062821
162.158.65.55 0 1 2136 
2400:cb00:36:1039::a29e:4719 1 1 31068 20190416072711
129.213.91.213 1 1 31068 20190416224135
212.103.50.69 1 1 31074 20190404124020
72.80.29.181 1 1 31068 20190426200813
2400:cb00:36:1010::a29e:412c 1 1 31074 20190407200858
182.161.14.142 1 2 33210 20190405095951
134.209.170.44 1 1 31074 20190404151846
184.154.189.90 1 1 31068 20190410051456
3.86.49.216 1 1 31068 20190417043545
174.138.50.171 1 1 31074 20190402075506
2400:cb00:36:1010::a29e:4129 1 1 31074 20190402061342
162.158.71.25 0 1 2136 
110.137.64.245 1 1 31074 20190407081703
5.8.10.202 1 1 31068 20190419133122
54.218.147.148 1 1 31068 20190419062652
34.210.233.136 1 1 31074 20190402093151
54.37.78.0 1 1 31068 20190415012053
34.212.139.198 1 1 31068 20190415095113
106.45.0.72 1 1 31072 20190430002215
2400:cb00:36:1043::a29e:4316 1 1 31074 20190417220946
138.197.96.89 1 1 31074 20190404145106
159.65.246.141 1 1 31074 20190404143032
18.144.17.237 1 1 31074 20190420063527
51.158.25.61 1 1 31068 20190427223444
100.35.75.170 1 1 31072 20190410031742
199.30.228.129 0 1 2136 
52.13.116.152 1 1 31068 20190426062355
144.217.171.229 1 2 33204 20190415043243
64.202.160.250 1 1 31074 20190402135048
2400:cb00:36:1018::a29e:421a 1 2 33210 20190407200806
2400:cb00:36:1011::a29e:468e 1 1 31068 20190424222936
64.246.165.160 1 1 31072 20190413174621
54.187.135.216 1 1 31068 20190423101954
2402:4000:1080:f010:2:2:d521:eeb4 1 2 33210 20190419014449
118.127.15.83 1 1 31074 20190402045843
23.229.56.132 1 1 31074 20190407164309
144.217.99.65 0 1 2136 
66.102.6.168 1 1 31074 20190420131254
159.65.254.135 1 1 31074 20190404152006
190.195.229.75 1 1 31068 20190424053801
198.143.155.138 1 1 31068 20190427201331
159.65.171.182 1 1 31074 20190404143212
208.110.66.34 1 1 31074 20190403143638
52.53.149.236 1 1 31068 20190419180217
134.209.168.89 1 1 31074 20190404140917
2400:cb00:36:1003::a29e:404c 1 1 31074 20190426130132
54.218.235.217 1 1 31068 20190413082419
2400:cb00:36:1010::a29e:4137 1 1 31072 20190424222936
222.129.45.180 1 1 31072 20190416224914
198.143.158.82 1 1 31074 20190402012513
164.132.188.204 1 1 31068 20190422123754
211.176.125.70 1 1 31068 20190414021005
50.116.35.113 1 1 31074 20190402154454
178.171.0.13 1 1 31068 20190411163248
54.218.204.31 1 1 31068 20190417062552
159.65.164.58 1 1 31074 20190406125848
185.153.196.157 1 1 31074 20190403102033
85.17.12.74 1 1 31068 20190420112713
178.128.225.180 1 1 31074 20190404015544
206.180.165.147 1 1 31068 20190415113936
34.229.196.84 0 1 2136 
185.217.61.231 1 1 31074 20190404071640
195.154.191.98 1 1 31074 20190407193031
112.112.86.83 1 1 31068 20190430201059
END_VISITOR

# Date - Pages - Hits - Bandwidth - Visits
BEGIN_DAY 29
20190401 5 5 155370 4
20190402 8 8 248592 8
20190403 4 4 124296 3
20190404 11 11 341814 11
20190405 2 3 64284 2
20190406 2 2 62148 2
20190407 5 6 157506 5
20190408 1 1 31074 1
20190410 3 3 93208 3
20190411 7 7 217484 5
20190412 2 2 62136 1
20190413 4 4 124280 4
20190414 4 4 124276 3
20190415 10 11 314026 6
20190416 4 6 128548 4
20190417 5 6 157486 5
20190418 5 5 155344 5
20190419 4 5 126414 4
20190420 6 7 188564 6
20190421 2 2 62142 2
20190422 4 4 124276 4
20190423 6 6 186424 6
20190424 10 13 317112 6
20190425 2 2 62140 2
20190426 7 7 217482 6
20190427 2 2 62136 2
20190428 3 3 64615 2
20190429 1 1 31068 1
20190430 4 4 124276 4
END_DAY

# Session range - Number of visits
BEGIN_SESSION 3
5mn-15mn 1
30mn-1h 1
0s-30s 115
END_SESSION

# URL - Pages - Bandwidth - Entry - Exit
# The 25 first Pages must be first (order not required for others)
BEGIN_SIDER 10
/ 120 3728500 112 112
/index.php 5 155364 2 3
/about-us 1 24017 0 1
/index.php/Home/AppUpload/commentUpload 1 31072 0 0
/accommodation 1 28564 0 0
/gallery 1 37674 0 0
/index.php/admin/ 1 31068 1 1
/contact-us 1 38371 1 0
/sitemap.xml 1 2475 1 0
/facilities 1 27920 0 0
END_SIDER
