AWSTATS DATA FILE 7.7 (build 20180105)
# If you remove this file, all statistics for date 201810 will be lost/reset.
# Last config file used to build this data file was /home2/fyfxamvcmvss/tmp/awstats/awstats.firs.freudenbergleisure.lk.conf.

# Position (offset in bytes) in this file for beginning of each section for
# direct I/O access. If you made changes somewhere in this file, you should
# also remove completely the MAP section (AWStats will rewrite it at next
# update).
BEGIN_MAP 28
POS_GENERAL 2028                
POS_TIME 2702                
POS_VISITOR 8129                
POS_DAY 11166               
POS_DOMAIN 3430                
POS_LOGIN 3674                
POS_ROBOT 3829                
POS_WORMS 4457                
POS_EMAILSENDER 4588                
POS_EMAILRECEIVER 4731                
POS_SESSION 11882               
POS_SIDER 12030               
POS_FILETYPES 4866                
POS_DOWNLOADS 5002                
POS_OS 5050                
POS_BROWSER 5253                
POS_SCREENSIZE 5869                
POS_UNKNOWNREFERER 5943                
POS_UNKNOWNREFERERBROWSER 6863                
POS_ORIGIN 7043                
POS_SEREFERRALS 7176                
POS_PAGEREFS 7333                
POS_SEARCHWORDS 7517                
POS_KEYWORDS 7669                
POS_MISC 2366                
POS_ERRORS 7728                
POS_CLUSTER 3530                
POS_SIDER_404 7820                
END_MAP

# LastLine    = Date of last record processed - Last record line number in last log - Last record offset in last log - Last record signature value
# FirstTime   = Date of first visit for history file
# LastTime    = Date of last visit for history file
# LastUpdate  = Date of last update - Nb of parsed records - Nb of parsed old records - Nb of parsed new records - Nb of parsed corrupted - Nb of parsed dropped
# TotalVisits = Number of visits
# TotalUnique = Number of unique visitors
# MonthHostsKnown   = Number of hosts known
# MonthHostsUnKnown = Number of hosts unknown
BEGIN_GENERAL 8
LastLine 20181101013426 8 1055 9110636674590
FirstTime 20181001050337
LastTime 20181031210551
LastUpdate 20181101174107 8 0 7 0 0
TotalVisits 102                 
TotalUnique 74                  
MonthHostsKnown 0                   
MonthHostsUnknown 77                  
END_GENERAL

# Misc ID - Pages - Hits - Bandwidth
BEGIN_MISC 10
JavascriptDisabled 0 0 0
AddToFavourites 0 0 0
WindowsMediaPlayerSupport 0 0 0
QuickTimeSupport 0 0 0
PDFSupport 0 0 0
TotalMisc 0 0 0
JavaEnabled 0 0 0
RealPlayerSupport 0 0 0
DirectorSupport 0 0 0
FlashSupport 0 0 0
END_MISC

# Hour - Pages - Hits - Bandwidth - Not viewed Pages - Not viewed Hits - Not viewed Bandwidth
BEGIN_TIME 24
0 5 5 113475 23 29 585919
1 10 13 204988 5 9 209788
2 7 7 144315 7 11 257417
3 4 4 113473 6 10 238156
4 0 0 0 13 25 519411
5 3 3 85106 7 30 614829
6 11 12 200715 12 15 334465
7 5 5 85106 13 18 401360
8 6 6 170212 4 7 143944
9 4 4 113474 8 9 200677
10 0 0 0 13 18 410467
11 3 3 85106 10 14 314151
12 9 9 170210 11 37 733726
13 2 3 58873 10 15 319104
14 3 3 85105 8 16 340660
15 8 9 216199 10 15 317159
16 4 4 123482 6 12 276684
17 2 3 58873 4 9 192661
18 1 1 28369 16 22 496624
19 2 2 56736 3 5 123631
20 4 4 28369 11 13 268622
21 2 2 28368 8 29 1005186
22 7 7 170209 8 10 229049
23 1 1 0 17 25 618145
END_TIME

# Domain - Pages - Hits - Bandwidth
# The 25 first Pages must be first (order not required for others)
BEGIN_DOMAIN 2
us 100 107 2237669
eu 3 3 103094
END_DOMAIN

# Cluster ID - Pages - Hits - Bandwidth
BEGIN_CLUSTER 0
END_CLUSTER

# Login - Pages - Hits - Bandwidth - Last visit
# The 10 first Pages must be first (order not required for others)
BEGIN_LOGIN 0
END_LOGIN

# Robot ID - Hits - Bandwidth - Last visit - Hits on robots.txt
# The 25 first Hits must be first (order not required for others)
BEGIN_ROBOT 13
Googlebot/ 90 2562919 20181031142459 0
bingbot/ 34 964545 20181031212459 0
YandexBot/ 14 397166 20181031185713 0
Sogou[\x20]web[\x20]spider/ 10 283680 20181031234854 0
BLEXBot/ 3 33318 20181030132510 0
Baiduspider/ 3 85107 20181021183532 0
bot[\s_+:,\.\;\/\\-] 3 85105 20181030135629 0
no_user_agent 2 30843 20181023173456 0
Uptimebot/ 2 28368 20181031112011 0
DotBot/ 2 56738 20181028211450 0
bingpreview 1 2136 20181002174147 0
curl 1 28368 20181016234359 0
Applebot/ 1 28369 20181011161642 0
END_ROBOT

# Worm ID - Hits - Bandwidth - Last visit
# The 5 first Hits must be first (order not required for others)
BEGIN_WORMS 0
END_WORMS

# EMail - Hits - Bandwidth - Last visit
# The 20 first Hits must be first (order not required for others)
BEGIN_EMAILSENDER 0
END_EMAILSENDER

# EMail - Hits - Bandwidth - Last visit
# The 20 first hits must be first (order not required for others)
BEGIN_EMAILRECEIVER 0
END_EMAILRECEIVER

# Files type - Hits - Bandwidth - Bandwidth without compression - Bandwidth after compression
BEGIN_FILETYPES 4
xml 1 2475 0 0
Unknown 4 138967 0 0
html 98 2184369 0 0
png 7 14952 0 0
END_FILETYPES

# Downloads - Hits - Bandwidth
BEGIN_DOWNLOADS 0
END_DOWNLOADS

# OS ID - Hits
BEGIN_OS ID - Hits - Pages 11
macosx12 19 19
win10 7 7
winlong 5 5
macosx10 2 2
linux 7 7
macosx11 1 1
win7 14 14
winnt 2 2
Unknown 51 44
win2003 1 1
linuxandroid 1 1
END_OS

# Browser ID - Hits - Pages
BEGIN_BROWSER 28
chrome41.0.2228.0 2 2
Unknown 2 2
chrome65.0.3325.181 1 1
chrome58.0.3029.96 1 1
firefox59.0 2 2
opera54.0.2952.51 1 1
chrome1.0.154.50 1 1
chrome60.0.3112.101 4 4
msie7.0 2 2
chrome45.0.2454.94 1 1
firefox53.0 1 1
chrome69.0.3497.100 1 1
msie5.0 1 1
chrome61.0.3163.100 15 15
opera53.0.2907.68 1 1
chrome34.0.1847.116 4 4
safari10.1 1 1
mozilla 20 20
firefox61.0 1 1
chrome34.0.1847.131 1 1
chrome40.0.2214.85 6 6
chrome58.0.3029.110 3 3
chrome68.0.3440.106 1 1
chrome6.0.458.0 1 1
chrome66.0.3359.117 4 4
firefox27.0 1 1
chrome53.5.0551.5389 1 1
cloudflare 30 23
END_BROWSER

# Screen size - Hits
BEGIN_SCREENSIZE 0
END_SCREENSIZE

# Unknown referer OS - Last visit date
BEGIN_UNKNOWNREFERER 9
Mozilla/5.0_(compatible;_CloudFlare-AlwaysOnline/1.0;__http://www.cloudflare.com/always-online) 20181031120703
Mozilla/5.0_zgrab/0.x_(compatible;_Researchscan/t12ca;__http://researchscan.comsys.rwth-aachen.de) 20181031053755
Mozilla/5.0_zgrab/0.x_(compatible;_Researchscan/t13rl;__http://researchscan.comsys.rwth-aachen.de) 20181029080236
Mozilla/4.0_(compatible;_Netcraft_Web_Server_Survey) 20181031210551
Mozilla/5.0_zgrab/0.x_(compatible;_Researchscan/t12sns;__http://researchscan.comsys.rwth-aachen.de) 20181029121609
Mozilla/5.0_(compatible;_NetcraftSurveyAgent/1.0;__info@netcraft.com) 20181009091413
Mozilla/5.0_(compatible;_CloudFlare-AlwaysOnline/1.0;__http://www.cloudflare.com/always-online)_AppleWebKit/534.34 20181031120704
Mozilla/5.0_(compatible;_Dataprovider.com) 20181019020303
python-requests/2.19.1 20181028125221
END_UNKNOWNREFERER

# Unknown referer Browser - Last visit date
BEGIN_UNKNOWNREFERERBROWSER 2
Surf/1.0_(Linux_4.10.0-32-generic;_go1.10.4) 20181031180451
python-requests/2.19.1 20181028125221
END_UNKNOWNREFERERBROWSER

# Origin - Pages - Hits 
BEGIN_ORIGIN 6
From0 96 96
From1 0 0
From2 1 1
From3 2 2
From4 4 11
From5 0 0
END_ORIGIN

# Search engine referers ID - Pages - Hits
BEGIN_SEREFERRALS 1
yandexru 1 1
END_SEREFERRALS

# External page referers - Pages - Hits
# The 25 first Pages must be first (order not required for others)
BEGIN_PAGEREFS 1
http://www.netcraft.com/survey/ 2 2
END_PAGEREFS

# Search keyphrases - Number of search
# The 10 first number of search must be first (order not required for others)
BEGIN_SEARCHWORDS 0
END_SEARCHWORDS

# Search keywords - Number of search
# The 25 first number of search must be first (order not required for others)
BEGIN_KEYWORDS 0
END_KEYWORDS

# Errors - Hits - Bandwidth
BEGIN_ERRORS 1
302 237 4565173
END_ERRORS

# URL with 404 errors - Hits - Last URL referrer
BEGIN_SIDER_404 0
END_SIDER_404

# Host - Pages - Hits - Bandwidth - Last visit date - [Start date of last visit] - [Last page of last visit]
# [Start date of last visit] and [Last page of last visit] are saved only if session is not finished
# The 25 first Hits must be first (order not required for others)
BEGIN_VISITOR 77
162.158.255.147 5 5 141841 20181031061137
172.68.65.239 4 4 113474 20181024062557
162.158.79.214 4 4 113475 20181031120704
172.68.65.47 4 4 113476 20181025170819
162.158.90.221 3 3 28369 20181031180451
162.158.90.131 3 3 85107 20181022115126
162.158.142.87 3 3 85104 20181028125221
108.162.246.106 2 2 28368 20181030002349
172.68.143.107 2 2 56737 20181017125251
172.68.142.214 2 2 56737 20181027082224
172.68.133.155 2 2 56737 20181019193334
172.68.65.119 2 2 28369 20181009084126
172.69.22.193 2 2 28369 20181024062556
108.162.245.195 2 2 28368 20181030123708
162.158.92.219 2 2 56738 20181031053755
172.68.133.239 2 2 28369 20181030064155
172.69.62.27 2 2 56736 20181019224828
172.69.62.33 1 1 2475 20181019020303
108.162.219.147 1 1 28369 20181009084119
162.158.106.83 1 1 28368 20181023165843
108.162.241.153 1 1 28368 20181012195604
162.158.107.30 1 1 0 20181002200522
162.158.155.19 1 1 28368 20181030154716
172.69.22.187 1 1 0 20181010010403
162.158.78.231 1 1 0 20181007074641
162.158.155.181 1 1 25864 20181030154719
162.158.93.62 1 1 0 20181017154537
172.68.133.113 1 1 0 20181031120703
108.162.219.27 1 1 28369 20181009091413
173.245.54.30 1 1 28368 20181029070348
172.68.246.145 1 1 28368 20181006224407
162.158.93.242 1 1 28369 20181029121609
108.162.229.201 1 1 28368 20181031150621
162.158.155.121 1 1 28368 20181009054440
162.158.106.227 1 1 0 20181010010328
172.68.239.184 1 1 28368 20181018032808
162.158.92.81 1 1 0 20181019020052
162.158.78.21 1 1 28368 20181003124117
162.158.92.141 1 1 28369 20181029080236
162.158.79.28 1 1 0 20181031210551
141.101.107.83 1 1 36349 20181030154720
162.158.106.143 0 2 4272 
172.69.62.45 1 1 28368 20181014221545
172.68.65.131 1 1 0 20181007074641
162.158.93.152 1 1 0 20181011122854
172.69.226.16 1 1 28368 20181022033952
172.69.90.9 1 1 28368 20181007011009
162.158.39.22 1 1 28368 20181007061421
162.158.89.144 1 1 28369 20181024030213
172.68.65.77 1 1 28368 20181023133536
141.101.69.254 1 1 28368 20181027215104
172.68.143.131 1 1 28368 20181010175825
162.158.78.219 0 4 8544 
162.158.88.187 1 1 0 20181027001117
162.158.255.141 1 1 28369 20181004162105
162.158.126.39 1 1 28368 20181022033906
172.69.33.244 1 1 28368 20181013021402
162.158.154.234 1 1 28368 20181004141116
162.158.62.134 1 1 28369 20181002224651
172.68.143.209 1 1 0 20181024062556
172.68.141.219 1 1 28368 20181024084738
172.68.246.97 1 1 28369 20181004001219
172.68.46.124 1 1 28368 20181013025257
172.68.189.168 1 1 28369 20181007001513
172.68.226.39 1 1 28368 20181003022828
172.68.65.95 1 1 28368 20181019020306
172.68.211.129 1 1 28368 20181011110838
172.69.68.37 1 1 28368 20181025085502
162.158.89.6 1 1 28369 20181016093315
141.101.107.179 1 1 38377 20181030154717
172.68.189.198 0 1 2136 
162.158.89.240 1 1 28369 20181022204534
108.162.210.195 1 1 28368 20181020012551
162.158.106.251 1 1 28368 20181009145826
172.68.141.135 1 1 0 20181024062556
108.162.246.124 1 1 0 20181024062556
162.158.114.105 1 1 38377 20181023165951
END_VISITOR

# Date - Pages - Hits - Bandwidth - Visits
BEGIN_DAY 31
20181001 2 2 28369 2
20181002 4 4 28369 4
20181003 2 2 56736 2
20181004 4 5 115611 4
20181005 2 2 28368 2
20181006 1 1 28368 1
20181007 5 5 85105 5
20181008 1 1 28368 1
20181009 5 5 141843 5
20181010 6 7 115611 6
20181011 4 5 87242 4
20181012 1 1 28368 1
20181013 3 3 85105 3
20181014 2 2 56736 2
20181015 1 1 28368 1
20181016 2 2 56738 2
20181017 6 8 117746 5
20181018 3 4 87242 3
20181019 5 5 87579 5
20181020 1 1 28368 1
20181021 1 1 28369 1
20181022 5 5 141842 5
20181023 3 3 95113 3
20181024 8 8 113473 8
20181025 3 4 58873 3
20181026 1 1 28368 1
20181027 4 4 85105 4
20181028 1 1 28368 1
20181029 3 3 85106 3
20181030 7 7 214063 7
20181031 7 7 141843 7
END_DAY

# Session range - Number of visits
BEGIN_SESSION 1
0s-30s 102
END_SESSION

# URL - Pages - Bandwidth - Entry - Exit
# The 25 first Pages must be first (order not required for others)
BEGIN_SIDER 5
/ 98 2184369 97 97
/contact-us 2 76754 2 2
/sitemap.xml 1 2475 1 1
/accommodation 1 25864 1 1
/gallery 1 36349 1 1
END_SIDER
