AWSTATS DATA FILE 7.7 (build 20180105)
# If you remove this file, all statistics for date 201902 will be lost/reset.
# Last config file used to build this data file was /home2/fyfxamvcmvss/tmp/awstats/awstats.cms.freudenbergleisure.com.conf.

# Position (offset in bytes) in this file for beginning of each section for
# direct I/O access. If you made changes somewhere in this file, you should
# also remove completely the MAP section (AWStats will rewrite it at next
# update).
BEGIN_MAP 28
POS_GENERAL 2028                
POS_TIME 2704                
POS_VISITOR 6072                
POS_DAY 6763                
POS_DOMAIN 3208                
POS_LOGIN 3445                
POS_ROBOT 3600                
POS_WORMS 3732                
POS_EMAILSENDER 3863                
POS_EMAILRECEIVER 4006                
POS_SESSION 6908                
POS_SIDER 7055                
POS_FILETYPES 4141                
POS_DOWNLOADS 4277                
POS_OS 4325                
POS_BROWSER 4404                
POS_SCREENSIZE 4483                
POS_UNKNOWNREFERER 4557                
POS_UNKNOWNREFERERBROWSER 4969                
POS_ORIGIN 5051                
POS_SEREFERRALS 5184                
POS_PAGEREFS 5328                
POS_SEARCHWORDS 5476                
POS_KEYWORDS 5628                
POS_MISC 2368                
POS_ERRORS 5687                
POS_CLUSTER 3301                
POS_SIDER_404 5763                
END_MAP

# LastLine    = Date of last record processed - Last record line number in last log - Last record offset in last log - Last record signature value
# FirstTime   = Date of first visit for history file
# LastTime    = Date of last visit for history file
# LastUpdate  = Date of last update - Nb of parsed records - Nb of parsed old records - Nb of parsed new records - Nb of parsed corrupted - Nb of parsed dropped
# TotalVisits = Number of visits
# TotalUnique = Number of unique visitors
# MonthHostsKnown   = Number of hosts known
# MonthHostsUnKnown = Number of hosts unknown
BEGIN_GENERAL 8
LastLine 20190301194417 19 4641 11700010822683
FirstTime 20190201031244
LastTime 20190221221525
LastUpdate 20190302175658 1 0 0 0 0
TotalVisits 14                  
TotalUnique 14                  
MonthHostsKnown 0                   
MonthHostsUnknown 14                  
END_GENERAL

# Misc ID - Pages - Hits - Bandwidth
BEGIN_MISC 10
AddToFavourites 0 0 0
RealPlayerSupport 0 0 0
DirectorSupport 0 0 0
PDFSupport 0 0 0
JavascriptDisabled 0 0 0
QuickTimeSupport 0 0 0
FlashSupport 0 0 0
WindowsMediaPlayerSupport 0 0 0
TotalMisc 0 0 0
JavaEnabled 0 0 0
END_MISC

# Hour - Pages - Hits - Bandwidth - Not viewed Pages - Not viewed Hits - Not viewed Bandwidth
BEGIN_TIME 24
0 0 0 0 0 0 0
1 0 0 0 0 0 0
2 0 0 0 0 0 0
3 1 1 3747 0 0 0
4 0 0 0 0 0 0
5 1 1 3747 0 0 0
6 1 1 3747 0 0 0
7 4 10 368529 0 0 0
8 0 0 0 0 0 0
9 0 0 0 0 0 0
10 0 0 0 0 0 0
11 0 0 0 0 0 0
12 0 0 0 0 0 0
13 0 0 0 0 0 0
14 0 0 0 0 0 0
15 0 0 0 0 0 0
16 0 0 0 0 0 0
17 0 0 0 0 0 0
18 0 0 0 0 0 0
19 0 0 0 0 0 0
20 6 18 737058 0 0 0
21 0 0 0 0 0 0
22 6 18 737058 0 0 0
23 0 0 0 0 0 0
END_TIME

# Domain - Pages - Hits - Bandwidth
# The 25 first Pages must be first (order not required for others)
BEGIN_DOMAIN 2
us 13 43 1853886
ip 6 6 0
END_DOMAIN

# Cluster ID - Pages - Hits - Bandwidth
BEGIN_CLUSTER 0
END_CLUSTER

# Login - Pages - Hits - Bandwidth - Last visit
# The 10 first Pages must be first (order not required for others)
BEGIN_LOGIN 0
END_LOGIN

# Robot ID - Hits - Bandwidth - Last visit - Hits on robots.txt
# The 25 first Hits must be first (order not required for others)
BEGIN_ROBOT 0
END_ROBOT

# Worm ID - Hits - Bandwidth - Last visit
# The 5 first Hits must be first (order not required for others)
BEGIN_WORMS 0
END_WORMS

# EMail - Hits - Bandwidth - Last visit
# The 20 first Hits must be first (order not required for others)
BEGIN_EMAILSENDER 0
END_EMAILSENDER

# EMail - Hits - Bandwidth - Last visit
# The 20 first hits must be first (order not required for others)
BEGIN_EMAILRECEIVER 0
END_EMAILRECEIVER

# Files type - Hits - Bandwidth - Bandwidth without compression - Bandwidth after compression
BEGIN_FILETYPES 4
woff 5 117120 0 0
html 14 29976 0 0
js 15 640785 0 0
css 15 1066005 0 0
END_FILETYPES

# Downloads - Hits - Bandwidth
BEGIN_DOWNLOADS 0
END_DOWNLOADS

# OS ID - Hits
BEGIN_OS ID - Hits - Pages 1
Unknown 49 19
END_OS

# Browser ID - Hits - Pages
BEGIN_BROWSER 2
mozilla 3 3
cloudflare 46 16
END_BROWSER

# Screen size - Hits
BEGIN_SCREENSIZE 0
END_SCREENSIZE

# Unknown referer OS - Last visit date
BEGIN_UNKNOWNREFERER 3
Mozilla/5.0_(compatible;_CloudFlare-AlwaysOnline/1.0;__http://www.cloudflare.com/always-online)_AppleWebKit/534.34 20190221221525
Mozilla/5.0_(compatible;_CloudFlare-AlwaysOnline/1.0;_http://www.cloudflare.com/always-online) 20190221221523
Mozilla/5.0_(compatible;_NetcraftSurveyAgent/1.0;__info@netcraft.com) 20190205062153
END_UNKNOWNREFERER

# Unknown referer Browser - Last visit date
BEGIN_UNKNOWNREFERERBROWSER 0
END_UNKNOWNREFERERBROWSER

# Origin - Pages - Hits 
BEGIN_ORIGIN 6
From0 14 14
From1 0 0
From2 0 0
From3 0 0
From4 5 35
From5 0 0
END_ORIGIN

# Search engine referers ID - Pages - Hits
BEGIN_SEREFERRALS 0
END_SEREFERRALS

# External page referers - Pages - Hits
# The 25 first Pages must be first (order not required for others)
BEGIN_PAGEREFS 0
END_PAGEREFS

# Search keyphrases - Number of search
# The 10 first number of search must be first (order not required for others)
BEGIN_SEARCHWORDS 0
END_SEARCHWORDS

# Search keywords - Number of search
# The 25 first number of search must be first (order not required for others)
BEGIN_KEYWORDS 0
END_KEYWORDS

# Errors - Hits - Bandwidth
BEGIN_ERRORS 0
END_ERRORS

# URL with 404 errors - Hits - Last URL referrer
BEGIN_SIDER_404 0
END_SIDER_404

# Host - Pages - Hits - Bandwidth - Last visit date - [Start date of last visit] - [Last page of last visit]
# [Start date of last visit] and [Last page of last visit] are saved only if session is not finished
# The 25 first Hits must be first (order not required for others)
BEGIN_VISITOR 14
162.158.64.245 2 8 368529 20190213201251
162.158.68.24 2 8 368529 20190205071236
162.158.64.249 2 8 368529 20190213201251
162.158.64.84 2 8 368529 20190221221449
162.158.67.91 2 8 368529 20190221221525
2400:cb00:36:1008::a29e:40f9 1 1 0 20190213201249
2400:cb00:36:1008::a29e:40f5 1 1 0 20190213201249
68.183.150.204 1 1 3747 20190205062153
2400:cb00:36:1028::a29e:435b 1 1 0 20190221221523
165.227.79.62 1 1 3747 20190205053144
68.183.154.153 1 1 3747 20190201031244
2400:cb00:36:1003::a29e:4054 1 1 0 20190221221447
2400:cb00:36:1031::a29e:4418 1 1 0 20190205071233
2400:cb00:36:1003::a29e:404d 1 1 0 20190205071233
END_VISITOR

# Date - Pages - Hits - Bandwidth - Visits
BEGIN_DAY 4
20190201 1 1 3747 1
20190205 6 12 376023 5
20190213 6 18 737058 4
20190221 6 18 737058 4
END_DAY

# Session range - Number of visits
BEGIN_SESSION 1
0s-30s 14
END_SESSION

# URL - Pages - Bandwidth - Entry - Exit
# The 25 first Pages must be first (order not required for others)
BEGIN_SIDER 2
/ 14 29976 14 9
/assets/bootstrap-3.3.7-dist/fonts/glyphicons-halflings-regular.woff 5 117120 0 5
END_SIDER
