AWSTATS DATA FILE 7.6 (build 20161204)
# If you remove this file, all statistics for date 201805 will be lost/reset.
# Last config file used to build this data file was /home2/fyfxamvcmvss/tmp/awstats/awstats.ellensplace.freudenbergleisure.com.conf.

# Position (offset in bytes) in this file for beginning of each section for
# direct I/O access. If you made changes somewhere in this file, you should
# also remove completely the MAP section (AWStats will rewrite it at next
# update).
BEGIN_MAP 28
POS_GENERAL 2036                
POS_TIME 2717                
POS_VISITOR 13791               
POS_DAY 72438               
POS_DOMAIN 3648                
POS_LOGIN 3934                
POS_ROBOT 4089                
POS_WORMS 5728                
POS_EMAILSENDER 5859                
POS_EMAILRECEIVER 6002                
POS_SESSION 73327               
POS_SIDER 73541               
POS_FILETYPES 6137                
POS_DOWNLOADS 6384                
POS_OS 6432                
POS_BROWSER 6833                
POS_SCREENSIZE 9548                
POS_UNKNOWNREFERER 9622                
POS_UNKNOWNREFERERBROWSER 11508               
POS_ORIGIN 12030               
POS_SEREFERRALS 12176               
POS_PAGEREFS 12668               
POS_SEARCHWORDS 13153               
POS_KEYWORDS 13317               
POS_MISC 2379                
POS_ERRORS 13388               
POS_CLUSTER 3790                
POS_SIDER_404 13482               
END_MAP

# LastLine    = Date of last record processed - Last record line number in last log - Last record offset in last log - Last record signature value
# FirstTime   = Date of first visit for history file
# LastTime    = Date of last visit for history file
# LastUpdate  = Date of last update - Nb of parsed records - Nb of parsed old records - Nb of parsed new records - Nb of parsed corrupted - Nb of parsed dropped
# TotalVisits = Number of visits
# TotalUnique = Number of unique visitors
# MonthHostsKnown   = Number of hosts known
# MonthHostsUnKnown = Number of hosts unknown
BEGIN_GENERAL 8
LastLine 20180601001456 47 10490 10597343130253
FirstTime 20180501025104
LastTime 20180531233639
LastUpdate 20180601174417 47 0 46 0 0
TotalVisits 1161                
TotalUnique 664                 
MonthHostsKnown 0                   
MonthHostsUnknown 1931                
END_GENERAL

# Misc ID - Pages - Hits - Bandwidth
BEGIN_MISC 10
TotalMisc 0 0 0
JavascriptDisabled 0 0 0
WindowsMediaPlayerSupport 0 0 0
DirectorSupport 0 0 0
PDFSupport 0 0 0
FlashSupport 0 0 0
JavaEnabled 0 0 0
RealPlayerSupport 0 0 0
QuickTimeSupport 0 0 0
AddToFavourites 0 243 0
END_MISC

# Hour - Pages - Hits - Bandwidth - Not viewed Pages - Not viewed Hits - Not viewed Bandwidth
BEGIN_TIME 24
0 37 86 2277229 78 153 3828360
1 72 215 9048358 98 198 6044745
2 25 152 7889942 74 198 6650106
3 49 165 7443784 79 141 3059724
4 29 101 4312658 65 156 4366038
5 30 138 7357985 55 141 3126166
6 29 126 5428799 57 144 3595925
7 36 154 8336292 51 196 6191716
8 49 135 4934626 59 141 4762158
9 103 209 7545190 67 146 3587414
10 103 337 13352525 46 145 3904106
11 162 319 11988858 51 155 3395346
12 136 341 15571433 111 281 6111602
13 165 360 17150714 108 233 6894119
14 152 346 12541921 66 191 3983959
15 130 365 14741242 52 218 6048909
16 78 222 10910911 73 182 4651810
17 81 159 5268886 104 177 4366264
18 38 178 8732128 78 171 4781840
19 55 198 10017902 102 246 7406919
20 138 415 14606567 105 183 4197723
21 57 121 5151082 57 130 2999210
22 50 113 5256651 69 192 6072338
23 47 139 3898015 103 244 7859440
END_TIME

# Domain - Pages - Hits - Bandwidth
# The 25 first Pages must be first (order not required for others)
BEGIN_DOMAIN 4
us 1663 4543 184337013
eu 181 480 23998826
sc 6 49 2884623
hk 1 22 2543236
END_DOMAIN

# Cluster ID - Pages - Hits - Bandwidth
BEGIN_CLUSTER 0
END_CLUSTER

# Login - Pages - Hits - Bandwidth - Last visit
# The 10 first Pages must be first (order not required for others)
BEGIN_LOGIN 0
END_LOGIN

# Robot ID - Hits - Bandwidth - Last visit - Hits on robots.txt
# The 25 first Hits must be first (order not required for others)
BEGIN_ROBOT 37
Googlebot/ 499 16386955 20180531214146 0
bingbot/ 385 17347422 20180531233018 0
bingpreview 153 4411501 20180531194040 0
YandexBot/ 150 4295001 20180530194405 0
Baiduspider/ 120 3535699 20180531122950 0
no_user_agent 118 3224780 20180530092651 0
AhrefsBot/ 85 2589034 20180530193543 0
[\s_+:,\.\;\/\\-]bot 69 4286078 20180513154635 0
BLEXBot/ 43 1122141 20180523012625 0
SeznamBot/ 39 1611625 20180529165823 0
CCBot/ 32 866547 20180528024037 0
crawl 31 853451 20180511012009 0
HubSpot[\x20]Webcrawler 31 523039 20180528033240 0
Apache\-HttpClient/ 30 930735 20180505191200 0
YandexMobileBot/ 29 359528 20180512112318 0
MegaIndex\.ru/ 29 790814 20180504174442 0
fetcher 25 775356 20180524222708 0
Sogou[\x20]web[\x20]spider/ 24 744545 20180531045221 0
SemrushBot/ 23 624000 20180531065506 0
curl 19 589288 20180525183134 0
PhantomJS 12 91817 20180528170503 0
Google[\x20]Web[\x20]Preview 11 1052901 20180526192303 0
Applebot/ 8 221698 20180531204714 0
YandexImages/ 8 532220 20180519112244 0
Exabot/ 8 233190 20180529035144 0
MJ12bot/ 6 186088 20180508094451 0
Googlebot\-Image/ 7 185003 20180510175737 0
facebookexternalhit/ 7 273378 20180530213024 0
oBot/ 4 124052 20180505035839 0
Wget/ 3 93099 20180528032700 0
Mail\.RU_Bot/ 5 149692 20180521045100 0
bot[\s_+:,\.\;\/\\-] 2 62032 20180502204158 0
SafeDNSBot 4 114202 20180514181828 0
MojeekBot/ 2 51078 20180506103801 0
DotBot/ 7 189996 20180529070446 0
archive\.org_bot 1 31033 20180503191416 0
(firefox/)([0-9]\.|[0-1][0]\.) 8 228940 20180516052601 0
END_ROBOT

# Worm ID - Hits - Bandwidth - Last visit
# The 5 first Hits must be first (order not required for others)
BEGIN_WORMS 0
END_WORMS

# EMail - Hits - Bandwidth - Last visit
# The 20 first Hits must be first (order not required for others)
BEGIN_EMAILSENDER 0
END_EMAILSENDER

# EMail - Hits - Bandwidth - Last visit
# The 20 first hits must be first (order not required for others)
BEGIN_EMAILRECEIVER 0
END_EMAILRECEIVER

# Files type - Hits - Bandwidth - Bandwidth without compression - Bandwidth after compression
BEGIN_FILETYPES 9
html 1242 36867761 0 0
xml 2 3918 0 0
jpg 695 86774022 0 0
js 1458 51773395 0 0
php 120 3802603 0 0
gif 27 46899 0 0
png 456 9833695 0 0
css 607 10846900 0 0
Unknown 487 13814505 0 0
END_FILETYPES

# Downloads - Hits - Bandwidth
BEGIN_DOWNLOADS 0
END_DOWNLOADS

# OS ID - Hits
BEGIN_OS ID - Hits - Pages 24
Unknown 873 322
macosx8 4 1
winunknown 1 1
ios_iphone 185 52
macosx7 3 2
winxp 83 58
unix 1 1
win8.1 199 97
winlong 8 8
winnt 13 13
macosx 160 25
win10 1323 472
win7 832 374
macosx11 130 76
linuxubuntu 11 9
macosx10 118 28
linux 123 69
linuxandroid 582 133
win2003 1 1
ios_ipad 282 43
macosx9 3 2
macosx12 133 54
macosx6 3 2
win8 23 8
END_OS

# Browser ID - Hits - Pages
BEGIN_BROWSER 132
opera12.14 1 1
firefox33.1 3 3
chrome49.0.2623.75 43 43
msie6.0 60 35
firefox18.0 1 1
chrome55.0.2883.87 45 11
chrome57.0.2987.133 11 5
opera52.0.2871.64 2 2
firefox35.0 4 4
chrome45.0.2454.101 3 3
chrome35.0.1916.114 12 12
firefox56.0 30 30
chrome66.0.3359.170 17 15
chrome52.0.2743.116 70 6
opera49.0.2725.47 4 4
firefox53.0 2 2
firefox44.0 1 1
chrome65.0.3325.109 59 14
chrome63.0.3223.8 5 5
opera46.0.2597.57 1 1
firefox26.0 6 1
chrome66.0.3359.139 667 251
chrome26.0.1410.63 8 8
chrome57.4.9719.4447 1 1
safari9.0 12 10
chrome66.0.3359.158 150 41
cloudflare 619 97
chrome34.0.1847.76 7 1
chrome38.0.1025.166 44 2
firefox52.0 7 7
chrome60.0.3112.101 10 10
chrome62.0.3250.0 1 1
safari8.0 3 3
chrome19.0.1084.5409 1 1
firefox45.0 12 12
chrome64.0.3282.186 3 3
msie9.0 2 1
firefox33.0 4 4
safari 140 24
chrome51.0.2704.106 1 1
opera53.0.2907.37 1 1
lg\- 1 1
chrome41.0.2226.0 1 1
firefox60.0 23 19
safari11.0 245 44
chrome63.0.3239.83 2 2
msie11.0 148 42
firefox62.0 1 1
msie8.0 4 4
chrome58.0.3029.96 1 1
chrome58.0.3029.110 9 9
firefox40.0 10 10
opera8.01 1 1
chrome63.0.3205.0 1 1
safari11.0.2 53 4
chrome45.0.2454.94 2 2
chrome50.0.2661.102 46 46
chrome65.0.3325.181 190 45
netscape 10 10
chrome14.0.802.30 2 2
chrome58.0.2988.0 2 2
chrome62.0.3202.94 23 23
safari5.1.9 1 0
chrome64.0.3282.137 16 3
safari10.0 84 17
chrome42.0.2311.152 2 2
firefox49.0 1 1
chrome63.0.3239.111 1 1
chrome63.0.3239.132 19 16
edge16 98 8
mozilla 81 73
opera11.2.3.102637 16 2
chrome56.0.2924.87 15 4
chrome40.0.2214.115 1 1
chrome31.0.1650.63 5 1
firefox43.0 15 5
opera36.0.2130.32 3 3
msie7.0 6 6
chrome63.0.3239.84 19 18
android 3 3
firefox59.0 394 100
chrome49.0.2623.112 9 9
chrome60.0.3112.116 37 1
chrome45.0.2454.93 1 1
firefox42.0 4 4
chrome59.0.3071.125 16 8
chrome31.0.1650.57 1 1
wap 5 1
chrome36.0.1985.143 70 4
chrome12.0.742.112 1 1
safari5.1.3 1 1
firefox28.0 2 1
chrome34.0.1847.137 2 2
chrome32.0.1664.3 1 1
firefox25.0 2 1
firefox57.0 14 12
firefox50.0 41 4
msie10.0 1 0
chrome66.0.3359.126 177 21
chrome44.0.2403.89 2 2
firefox21.0 10 10
chrome62.0.3202.62 3 3
firefox31.0 1 1
lynx 4 4
firefox29.0 1 0
opera8.50 5 5
firefox18.0.1 1 1
netscape5.0 9 9
chrome61.0.3163.100 38 38
opera51.0.2830.40 28 1
chrome41.0.2228.0 10 9
chrome64.0.3282.119 6 3
safari10.0.2 1 1
firefox36.0 1 0
Unknown 158 134
safari10.1.2 92 15
chrome66.0.3359.181 433 149
safari10.1 1 1
chrome53.0.2785.143 2 2
chrome23.0.1271.64 1 1
chrome57.0.2987.110 2 2
safari11.1 70 9
firefox47.0 3 3
chrome34.0.1847.114 31 22
chrome40.0.2214.93 2 2
chrome40.0.2214.85 29 18
firefox40.1 108 108
chrome66.0.3359.117 25 11
safari6.0.5 1 0
firefox15.0 1 1
chrome32.0.1700.41 1 0
chrome40.0.2214.89 1 1
END_BROWSER

# Screen size - Hits
BEGIN_SCREENSIZE 0
END_SCREENSIZE

# Unknown referer OS - Last visit date
BEGIN_UNKNOWNREFERER 30
Mozilla/5.0_(compatible;_Dataprovider.com;) 20180508190015
Magic_Browser 20180531144911
the_beast 20180515035532
Mozilla_5.0 20180518182920
redback/v0-570-g26f8c96 20180524142503
Ruby 20180519090747
Mozilla/5.0_zgrab/0.x_(compatible;_Researchscan/t13rl;__http://researchscan.comsys.rwth-aachen.de) 20180516014201
Mozilla/5.0_zgrab/0.x_(compatible;_Researchscan/t12sns;__http://researchscan.comsys.rwth-aachen.de) 20180523091958
WhatsApp/2.18.41_i 20180510143425
python-requests/2.18.4 20180513124133
Lynx/2.8.9dev.8_libwww-FM/2.14_SSL-MM/1.4.1_GNUTLS/3.4.9 20180509043506
Mozilla/5.0_zgrab/0.x_(compatible;_Researchscan/t12ca;__http://researchscan.comsys.rwth-aachen.de) 20180516014201
Mozilla/5.0_(compatible;_CloudFlare-AlwaysOnline/1.0;__http://www.cloudflare.com/always-online) 20180529174842
python-requests/2.18.1 20180528194818
WhatsApp/2.18.51_i 20180513125745
Mozilla/5.0_(compatible;_NetcraftSurveyAgent/1.0;__info@netcraft.com) 20180510122433
WhatsApp/2.18.142_A 20180515005820
WhatsApp/2.18.122_A 20180505230211
Mozilla/5.0_(compatible;_Daum/4.1;__http://cs.daum.net/faq/15/4118.html?faqId=28966) 20180507093351
Mozilla/5.0 20180526134946
Chromeless_1.3.0 20180516113234
Mozilla/4.0_(compatible;_Netcraft_Web_Server_Survey) 20180502222613
python-requests/2.14.2 20180530052809
Mozilla/5.0_(compatible;_Qwantify/2.4w;__https://www.qwant.com/)/2.4w 20180531233639
Mozilla/5.0_(compatible;_CloudFlare-AlwaysOnline/1.0;__http://www.cloudflare.com/always-online)_AppleWebKit/534.34 20180531215318
Mozilla/5.0_(compatible;_Google-Site-Verification/1.0) 20180514103249
Mozilla/5.0_(compatible) 20180509175735
Mozilla/5.0_(compatible;_ips-agent) 20180516015304
Lynx/2.8.5rel.1_libwww-FM/2.15FC_SSL-MM/1.4.1c_OpenSSL/0.9.7e-dev 20180501160152
Mozilla/5.0_(compatible;_Wappalyzer) 20180521161448
END_UNKNOWNREFERER

# Unknown referer Browser - Last visit date
BEGIN_UNKNOWNREFERERBROWSER 13
Ruby 20180519090747
Chromeless_1.3.0 20180516113234
python-requests/2.14.2 20180530052809
python-requests/2.18.4 20180513124133
WhatsApp/2.18.41_i 20180510143425
Microsoft_Office_Word_2013 20180502212643
python-requests/2.18.1 20180528194818
WhatsApp/2.18.51_i 20180513125745
WhatsApp/2.18.142_A 20180515005820
Magic_Browser 20180531144911
WhatsApp/2.18.122_A 20180505230211
the_beast 20180515035532
redback/v0-570-g26f8c96 20180524142503
END_UNKNOWNREFERERBROWSER

# Origin - Pages - Hits 
BEGIN_ORIGIN 6
From0 968 1061
From1 4 4
From2 343 344
From3 13 13
From4 523 3672
From5 0 0
END_ORIGIN

# Search engine referers ID - Pages - Hits
BEGIN_SEREFERRALS 19
www_google_mv 1 1
www_google_nl 1 1
www_google_com_sa 1 1
qwant_com 1 1
www_google_es 1 1
baidu 2 2
www_google_fr 2 2
www_google_com_sg 2 2
www_google_com_au 6 6
www_google_co_nz 2 2
www_google_lk 226 226
www_google_co_in 6 6
www_google_co_jp 1 1
www_google_co_uk 4 4
yandexru 2 2
www_google_de 4 4
www_google_ae 1 1
bing 2 2
www_google_com 78 79
END_SEREFERRALS

# External page referers - Pages - Hits
# The 25 first Pages must be first (order not required for others)
BEGIN_PAGEREFS 8
http://www.boosthotels.com 4 4
http://ellens-place.com.seocheckupx.net 3 3
http://live.ipms247.com/booking/book-rooms-018704-lt 1 1
http://www.srilankafoodtour.com/accommodations.php 1 1
http://www.netcraft.com/survey/ 1 1
http://l.facebook.com/l.php 1 1
https://live.ipms247.com/booking/bookingstatus.php 1 1
http://bestbookclub.ru 1 1
END_PAGEREFS

# Search keyphrases - Number of search
# The 10 first number of search must be first (order not required for others)
BEGIN_SEARCHWORDS 2
ll3 1
8hp 1
END_SEARCHWORDS

# Search keywords - Number of search
# The 25 first number of search must be first (order not required for others)
BEGIN_KEYWORDS 2
ll3 1
8hp 1
END_KEYWORDS

# Errors - Hits - Bandwidth
BEGIN_ERRORS 1
302 2082 43489972
END_ERRORS

# URL with 404 errors - Hits - Last URL referrer
BEGIN_SIDER_404 0
END_SIDER_404

# Host - Pages - Hits - Bandwidth - Last visit date - [Start date of last visit] - [Last page of last visit]
# [Start date of last visit] and [Last page of last visit] are saved only if session is not finished
# The 25 first Hits must be first (order not required for others)
BEGIN_VISITOR 1931
172.68.202.17 69 88 4228776 20180518111756
172.68.202.5 66 129 3668398 20180518201208
172.68.202.11 64 78 3105964 20180518150248
172.68.202.23 61 80 2414833 20180518203549
172.68.202.35 51 60 2214692 20180518111751
172.68.202.41 51 116 2579656 20180518225748
172.68.142.132 38 38 528322 20180514204501
172.68.202.29 36 80 2079649 20180518111502
108.162.221.82 32 32 1051272 20180501152923
162.158.91.238 22 22 864681 20180525100550
172.68.254.187 20 20 544385 20180505091926
172.68.202.39 19 19 584510 20180530151707
172.68.202.21 18 18 580925 20180528155632
172.68.142.198 18 19 783832 20180519112147
141.101.76.251 18 18 488706 20180511155244
172.68.141.179 16 16 496232 20180518111914
172.68.174.59 15 19 569229 20180511120051
172.68.202.33 15 22 459752 20180530145332
172.68.238.23 14 14 434168 20180515195635
162.158.88.75 14 14 380374 20180518153035
172.68.142.162 14 16 703730 20180519121904
172.68.132.126 14 14 434175 20180517135103
172.68.202.27 13 16 407872 20180531180842
172.68.202.9 13 22 732795 20180531193350
141.101.69.202 13 13 403208 20180518083210
172.68.51.231 0 1 278 
108.162.245.65 0 5 96260 
141.101.99.52 0 1 12409 
172.68.189.104 1 1 0 20180505011345
162.158.22.41 0 1 31900 
162.158.93.110 0 1 19252 
162.158.126.29 0 2 33447 
162.158.89.234 0 1 77890 
108.162.238.78 0 1 7269 
108.162.249.113 0 2 155322 
172.68.146.105 2 2 62049 20180515125427
162.158.74.232 0 1 153585 
162.158.179.83 0 1 91334 
172.68.141.29 0 1 71028 
162.158.178.88 0 1 1547 
162.158.106.89 0 2 53470 
172.69.134.16 2 2 0 20180514111517
162.158.126.41 0 2 501032 
162.158.92.3 1 2 63510 20180522195254
141.101.105.235 0 1 32494 
172.68.202.45 10 18 308115 20180531093923
162.158.111.86 0 3 2472 
172.68.253.204 0 1 91334 
108.162.229.173 0 1 1737 
162.158.74.82 0 2 29954 
197.234.242.143 0 2 168752 
172.68.86.59 0 1 13962 
162.158.178.140 0 1 5267 
162.158.91.130 0 1 66064 
172.68.132.108 1 1 31014 20180502141003
108.162.245.101 0 2 335856 
172.69.69.47 0 2 3094 
108.162.221.220 0 3 198728 
172.68.186.65 1 1 31016 20180519122753
162.158.111.230 0 2 134830 
172.68.58.238 1 1 31014 20180525103158
162.158.75.23 0 1 3352 
162.158.126.47 0 4 126402 
172.68.65.71 0 1 7322 
172.68.146.13 0 3 25483 
162.158.88.57 0 2 6176 
172.69.62.119 0 2 24818 
162.158.119.90 0 6 61455 
141.101.107.19 0 2 14538 
162.158.154.168 0 1 153585 
108.162.229.71 1 1 31016 20180510125640
162.158.167.29 1 1 31016 20180524112938
141.101.69.44 1 1 31033 20180522081652
172.68.62.89 0 1 110755 
162.158.39.24 0 1 457047 
172.68.146.165 2 2 62032 20180510143611
172.68.141.197 1 1 31019 20180504173224
172.68.46.36 1 1 31014 20180505183520
172.68.63.18 0 2 6440 
172.68.51.119 0 1 1743 
141.101.107.55 4 4 124064 20180514120031
162.158.92.225 1 1 31019 20180523140310
173.245.54.32 5 5 155082 20180516015156
162.158.93.112 0 2 16147 
108.162.249.137 0 1 13962 
141.101.98.89 1 1 31016 20180516043923
172.68.2.71 0 1 1847 
172.68.215.34 0 2 168562 
172.68.141.107 0 1 7269 
172.68.47.73 1 1 31014 20180519004930
141.101.107.23 0 1 457047 
108.162.229.15 3 3 117072 20180526031729
197.234.242.53 0 1 31900 
172.68.189.248 1 1 0 20180509031031
162.158.88.177 0 1 117098 
141.101.98.101 1 1 31016 20180508061224
162.158.90.149 1 2 38285 20180521211452
172.69.226.78 0 4 461676 
162.158.111.158 0 3 274002 
141.101.104.78 1 1 31033 20180505171357
162.158.118.23 0 3 5267 
172.68.34.27 0 2 154028 
172.68.254.139 0 2 6440 
172.69.22.211 0 1 0 
162.158.166.120 1 3 71454 20180509200921
141.101.77.111 0 4 321562 
141.101.69.100 0 2 1712 
141.101.76.81 0 1 19252 
162.158.166.198 12 12 372192 20180519170523
162.158.134.185 0 1 5267 
141.101.98.215 1 1 31016 20180513172237
108.162.226.96 3 3 93048 20180506173620
162.158.118.77 0 2 63800 
172.68.133.85 1 1 31014 20180516113230
162.158.111.182 0 1 79866 
172.68.246.181 2 2 62024 20180528051640
172.68.189.242 0 1 153585 
108.162.219.215 1 1 0 20180502183826
172.68.65.217 0 2 3486 
172.68.141.21 1 3 31033 20180526233846
172.69.130.11 0 2 6704 
172.68.133.17 1 1 31033 20180522163248
141.101.104.132 0 8 1551005 
141.101.88.143 0 2 63800 
108.162.246.150 0 1 7322 
197.234.242.167 0 2 59094 
162.158.166.228 0 1 109190 
172.68.144.140 1 1 0 20180503201439
172.68.11.36 0 1 0 
141.101.107.17 0 1 95933 
162.158.102.17 1 1 31014 20180515035532
172.68.62.71 0 1 8878 
172.68.144.210 0 1 110755 
108.162.246.138 0 5 4280 
172.69.62.41 0 4 443020 
162.158.222.21 0 2 25783 
162.158.106.109 0 1 1743 
162.158.92.99 0 1 1743 
172.68.65.25 0 2 53818 
162.158.38.227 0 1 23936 
162.158.2.53 0 4 319239 
162.158.92.147 1 1 31016 20180521133038
141.101.104.58 8 8 328736 20180528215925
108.162.238.76 0 1 1847 
108.162.226.12 0 2 14644 
141.101.77.217 0 1 0 
141.101.99.42 0 2 17756 
141.101.99.78 0 4 360674 
172.68.189.126 0 2 35957 
162.158.165.75 0 1 153585 
172.68.141.125 1 2 62933 20180503151611
108.162.246.192 0 7 172420 
173.245.52.150 0 2 2968 
162.158.59.59 0 2 269552 
108.162.226.108 0 3 27924 
162.158.167.25 1 1 31016 20180512061126
162.158.59.65 0 4 18352 
162.158.89.162 1 3 33446 20180522090709
173.245.48.178 1 1 31016 20180504120035
172.68.51.149 0 1 856 
172.68.51.179 0 1 7269 
162.158.167.245 0 2 29113 
162.158.187.48 0 1 225571 
172.68.144.132 1 3 496091 20180520235201
172.68.254.91 0 1 225571 
162.158.155.45 0 2 191866 
162.158.63.237 0 1 5267 
162.158.186.55 0 1 19252 
172.68.146.213 0 1 31900 
162.158.118.35 0 2 427378 
141.101.105.119 0 1 0 
162.158.134.143 0 3 217234 
172.68.142.16 0 2 0 
173.245.52.132 0 3 223137 
108.162.226.168 0 1 134776 
162.158.78.183 0 1 87940 
198.41.238.65 0 7 644876 
197.234.242.45 1 1 31016 20180525060435
162.158.78.213 1 1 27022 20180525204214
172.68.58.222 0 1 856 
162.158.78.209 3 3 85056 20180517015743
108.162.221.76 1 2 38302 20180509140212
162.158.92.233 0 1 108139 
162.158.63.123 0 1 1547 
172.68.86.47 0 1 856 
162.158.50.111 1 1 31016 20180523101622
162.158.222.51 0 1 167928 
162.158.134.113 0 3 14430 
162.158.255.21 0 5 29113 
162.158.134.219 1 1 31012 20180529161743
162.158.89.104 1 1 31016 20180519161630
162.158.2.17 0 1 3007 
141.101.69.22 1 3 89240 20180516141614
108.162.238.100 0 1 0 
162.158.39.48 0 1 1547 
172.68.46.138 0 2 53818 
162.158.38.245 0 2 58172 
162.158.63.167 1 1 31013 20180510122433
162.158.90.145 1 3 50218 20180514200714
162.158.158.28 0 1 7269 
172.68.94.125 0 2 103202 
162.158.38.239 0 1 95933 
108.162.249.41 0 1 824 
172.68.143.247 0 1 105067 
172.69.62.125 4 4 124058 20180512195918
172.69.33.24 3 5 275750 20180506102030
162.158.224.107 2 2 62032 20180516092744
172.69.226.96 1 1 31016 20180503124536
172.69.22.129 0 1 1737 
108.162.245.41 0 8 406236 
172.68.51.173 0 2 1712 
108.162.229.95 0 1 278 
172.69.226.16 0 1 8878 
108.162.215.95 3 3 93048 20180515124056
162.158.155.103 0 1 278 
108.162.219.149 4 4 127237 20180510121311
172.68.58.246 0 2 0 
173.245.52.120 0 1 26909 
162.158.154.26 2 4 331582 20180503170446
162.158.114.95 2 2 0 20180502192330
172.69.22.243 0 7 465075 
162.158.92.47 1 1 31016 20180514200706
108.162.226.240 0 2 6176 
141.101.88.251 1 4 455284 20180511000623
162.158.178.136 0 2 10534 
162.158.88.25 0 1 53470 
162.158.90.65 0 4 470342 
172.68.94.101 0 2 9734 
162.158.255.165 1 1 0 20180529174842
108.162.215.101 1 1 31016 20180515110046
172.69.69.185 0 9 2728255 
162.158.167.125 1 3 37030 20180526174343
108.162.249.233 0 6 149151 
162.158.50.47 1 1 31016 20180516015235
141.101.107.149 0 1 1547 
162.158.88.237 0 2 307170 
172.68.146.45 0 2 146495 
108.162.249.119 0 1 465075 
162.158.166.130 0 1 1743 
172.68.215.65 0 1 2471 
162.158.119.54 0 3 47872 
108.162.226.198 0 1 7269 
172.68.141.117 0 5 12409 
172.68.2.29 0 3 686033 
108.162.245.17 0 1 55742 
172.68.255.105 0 2 23936 
172.69.69.239 1 2 31836 20180518134937
172.68.94.137 0 9 501354 
108.162.249.221 7 10 205103 20180509113355
162.158.63.135 0 1 465075 
162.158.126.35 0 1 167928 
108.162.216.225 0 1 32494 
172.69.134.94 0 1 3352 
108.162.246.204 0 2 182668 
108.162.238.148 0 1 0 
172.68.51.227 0 5 33280 
172.68.142.102 1 1 31012 20180514204443
162.158.167.31 1 3 32664 20180504093956
162.158.165.119 1 1 31016 20180504165353
162.158.154.68 0 2 3094 
172.68.62.125 0 1 26909 
162.158.126.45 0 2 43226 
172.68.211.161 0 1 3088 
141.101.88.5 5 5 155081 20180515210237
162.158.74.22 0 1 457047 
172.69.130.77 0 4 41990 
172.69.22.141 0 1 87940 
172.68.34.51 0 1 5267 
162.158.134.71 0 1 167928 
141.101.98.245 1 1 31016 20180506072626
141.101.77.213 9 15 237016 20180510202514
108.162.245.21 0 2 54935 
172.69.134.254 2 2 48614 20180524120202
172.68.94.155 0 3 103255 
172.68.51.69 0 2 110586 
162.158.89.120 0 2 1847 
162.158.106.55 0 3 1395225 
172.68.2.5 0 3 187805 
162.158.89.14 0 1 16060 
172.68.86.35 0 1 29113 
172.68.65.227 1 1 39041 20180525204222
162.158.165.29 0 2 159732 
172.68.65.245 0 1 29113 
103.22.200.163 0 3 12409 
108.162.237.129 0 1 538 
172.69.69.155 0 3 1395225 
141.101.105.217 0 4 13408 
162.158.88.241 0 1 153585 
162.158.179.65 0 2 58226 
172.68.65.61 2 2 48112 20180517015745
162.158.90.179 1 1 31016 20180528220956
162.158.106.197 0 2 7629 
172.68.245.254 0 1 278 
108.162.246.78 0 4 30516 
162.158.90.199 5 5 0 20180519032339
141.101.107.211 2 4 89952 20180503091647
172.68.10.233 0 1 0 
141.101.88.237 1 1 31016 20180526013658
172.68.94.89 2 2 66696 20180515000244
172.68.133.67 1 1 31012 20180504123148
172.69.54.136 0 2 6176 
172.69.134.76 2 5 340628 20180517144905
172.68.253.150 0 2 219649 
162.158.89.170 0 1 91334 
162.158.178.5 0 1 54741 
108.162.226.72 9 9 242991 20180506173630
172.69.226.82 0 1 225571 
141.101.69.76 2 2 62024 20180503164538
162.158.155.229 0 1 14977 
172.68.65.115 2 2 52414 20180517015721
141.101.98.107 0 1 1743 
197.234.242.75 1 1 31016 20180528230618
141.101.69.64 0 2 27924 
108.162.245.83 0 4 287308 
172.68.146.237 0 3 249226 
108.162.216.227 0 1 225571 
162.158.58.52 1 1 31012 20180519141248
141.101.105.25 1 2 38281 20180503224404
108.162.215.197 0 1 7269 
172.69.126.113 1 1 31016 20180503221532
162.158.75.173 4 4 95013 20180508190018
141.101.88.147 1 1 39026 20180526134946
162.158.166.192 0 1 73812 
172.68.10.89 0 1 0 
172.69.134.4 2 4 80541 20180514090821
162.158.78.117 0 4 381036 
162.158.78.27 0 1 95933 
141.101.107.125 0 1 3088 
108.162.221.160 0 2 3486 
172.69.70.174 1 4 148303 20180514103249
172.68.10.83 1 1 31012 20180510192255
108.162.226.186 0 3 15258 
172.68.246.213 0 1 457047 
141.101.77.129 0 1 213689 
108.162.229.27 0 1 26909 
172.68.142.168 1 1 31018 20180510095037
173.245.48.104 1 1 31033 20180522163204
172.68.94.23 0 5 77825 
172.68.141.9 0 2 23936 
172.68.144.68 0 3 12504 
108.162.245.113 0 7 318806 
162.158.2.77 0 2 305023 
108.162.249.101 0 1 7629 
162.158.89.218 0 2 12409 
103.22.200.175 0 1 457047 
162.158.89.90 1 1 31016 20180523012320
162.158.155.21 0 2 10534 
172.68.174.47 1 3 50542 20180502155901
162.158.39.12 0 1 1847 
172.69.68.244 0 1 194 
108.162.249.251 0 1 1743 
172.68.26.240 1 1 31016 20180506063027
172.68.144.248 1 1 31016 20180515061140
162.158.92.165 0 1 54741 
162.158.22.11 1 1 31012 20180510201353
108.162.216.167 1 1 31012 20180505155357
141.101.104.42 0 2 32120 
162.158.166.126 0 2 107494 
172.68.94.227 0 1 87940 
162.158.50.135 1 1 31016 20180521210833
108.162.249.143 0 1 12409 
172.69.70.66 0 3 287799 
172.68.47.55 0 4 51566 
162.158.38.47 0 1 2471 
172.68.146.15 0 2 109482 
141.101.99.210 2 2 62024 20180516141225
162.158.186.59 0 1 0 
162.158.59.47 0 2 307170 
172.68.2.23 0 1 856 
172.69.33.18 1 1 31033 20180503215918
197.234.242.29 0 2 324444 
172.68.146.39 1 2 122350 20180519094242
172.69.71.17 1 1 31012 20180521211105
172.68.146.63 0 9 5267 
162.158.255.117 1 1 31016 20180527041835
162.158.91.196 1 1 24444 20180522130855
162.158.107.18 0 1 0 
173.245.54.44 2 2 44952 20180517015705
162.158.222.111 0 2 118077 
141.101.107.103 4 4 110050 20180502192131
108.162.246.148 0 3 245320 
197.234.242.89 0 3 633125 
172.69.186.65 0 4 183627 
162.158.89.26 0 1 3352 
141.101.77.169 0 1 0 
172.68.215.55 0 1 3352 
172.68.58.96 0 1 91334 
141.101.76.71 0 2 232 
141.101.69.142 2 2 78374 20180504193040
172.68.245.176 6 6 155071 20180519090747
172.68.246.63 0 2 118077 
172.69.226.52 3 3 85994 20180526180846
162.158.134.167 0 2 118077 
172.68.47.37 0 2 191866 
108.162.241.119 1 1 31016 20180519153559
162.158.134.5 0 1 35957 
162.158.90.169 1 1 0 20180519132736
162.158.166.162 2 2 62032 20180518222224
172.68.146.177 0 1 19252 
172.69.68.35 1 1 31013 20180531223107
162.158.75.137 0 1 0 
172.68.65.221 0 1 1743 
162.158.93.2 0 1 95933 
172.68.142.84 0 2 6176 
172.68.226.29 0 2 33447 
172.68.144.44 3 3 93048 20180514125945
162.158.58.98 0 1 0 
173.245.52.116 1 1 31013 20180510120426
108.162.250.36 0 4 232924 
162.158.92.195 1 1 31012 20180528175317
108.162.246.232 0 2 3486 
172.68.253.168 0 1 1737 
162.158.79.198 0 2 3694 
162.158.50.195 1 1 31016 20180524201815
172.68.51.23 0 8 1672067 
141.101.77.37 0 1 0 
141.101.69.146 3 3 91415 20180531233639
162.158.2.161 0 2 110910 
172.69.186.29 0 4 339011 
108.162.216.155 0 1 35957 
172.68.226.11 0 1 1743 
172.68.133.95 1 1 31033 20180523120801
172.68.65.103 0 2 930150 
172.69.54.100 0 1 84511 
162.158.59.183 1 1 31033 20180530082657
108.162.226.246 0 1 194 
172.68.254.137 0 1 14977 
108.162.245.125 0 2 17756 
162.158.222.57 0 2 501032 
108.162.249.17 0 2 30660 
162.158.92.65 2 2 0 20180519015303
172.68.50.167 0 9 109938 
162.158.89.60 0 1 213689 
172.68.253.118 0 1 465075 
162.158.126.33 0 1 31900 
173.245.52.104 2 2 50376 20180504151108
141.101.104.220 0 1 0 
162.158.2.119 0 1 824 
162.158.22.47 0 3 47017 
162.158.88.249 6 8 294838 20180511042504
108.162.249.53 0 7 1257546 
172.69.62.71 0 2 29954 
162.158.126.87 1 2 25126 20180527142533
108.162.249.107 0 3 125887 
162.158.155.199 0 1 35957 
172.69.34.13 0 1 110755 
172.68.46.48 0 2 63800 
108.162.245.53 0 1 31900 
162.158.78.35 0 2 8336 
172.68.47.199 1 1 31016 20180504234341
172.68.245.116 0 1 0 
162.158.111.170 0 6 7290 
108.162.229.201 1 1 31012 20180521145612
162.158.165.95 0 9 1847 
173.245.48.100 1 1 31012 20180513045509
197.234.242.155 0 1 91334 
172.68.65.139 4 6 195964 20180512005231
172.68.143.163 0 8 22246 
172.68.51.219 0 2 14256 
172.69.226.18 0 2 15258 
108.162.216.119 1 1 31014 20180501164313
172.68.50.135 0 1 1547 
172.69.33.222 1 1 31016 20180511195411
172.68.238.155 0 1 7269 
162.158.246.33 1 1 31014 20180525143059
172.68.132.168 10 10 310125 20180518133104
162.158.93.32 1 4 70061 20180528183634
162.158.222.9 0 3 97774 
172.68.146.69 9 9 268742 20180501200336
172.68.65.107 0 1 465075 
172.68.133.215 1 1 31033 20180529093230
162.158.92.101 0 2 3474 
162.158.2.149 0 1 1547 
172.68.146.123 1 2 86758 20180516120453
162.158.111.146 0 2 210134 
162.158.93.76 0 1 3007 
141.101.98.123 0 1 2471 
172.68.244.49 1 1 27001 20180505043705
162.158.165.245 0 4 175880 
162.158.88.253 0 2 108742 
172.69.69.173 0 2 32076 
141.101.69.50 5 5 128079 20180531170805
162.158.88.15 10 10 284980 20180519093726
162.158.93.152 0 1 0 
162.158.2.83 0 3 18618 
162.158.63.221 1 1 31015 20180510114847
162.158.155.253 0 1 225571 
172.68.189.50 2 2 62038 20180516165507
162.158.126.83 0 1 2471 
172.68.245.92 1 1 31012 20180505152844
172.68.62.41 0 1 91334 
162.158.222.81 0 4 224503 
172.68.27.149 1 1 31016 20180531051847
172.68.65.29 0 1 26909 
162.158.167.235 3 4 97793 20180504112714
197.234.242.35 0 2 103202 
172.69.70.18 0 8 51584 
172.68.51.63 0 1 153585 
172.68.133.229 0 1 26909 
172.68.2.11 0 3 142013 
108.162.249.209 0 3 170409 
162.158.90.41 0 1 2430 
162.158.62.44 0 1 13962 
162.158.78.39 0 1 4168 
162.158.106.43 0 2 58226 
162.158.154.72 0 1 3007 
162.158.106.209 0 1 35957 
162.158.158.8 0 1 17682 
162.158.154.30 1 2 244705 20180531180800
108.162.245.45 0 1 538 
162.158.186.47 0 1 0 
162.158.88.243 1 1 0 20180511152329
108.162.221.94 0 3 13973 
172.68.65.229 2 2 55318 20180517015734
172.68.86.53 0 2 472344 
108.162.216.65 7 7 217112 20180518083227
172.69.226.4 0 1 153585 
108.162.229.179 0 2 6014 
141.101.76.101 0 2 8336 
197.234.242.95 0 2 462314 
162.158.63.29 1 1 31018 20180504174643
162.158.118.41 0 2 53818 
108.162.238.220 0 1 0 
172.68.51.185 0 7 181226 
172.68.253.222 0 1 2471 
141.101.88.9 2 2 62024 20180529081707
162.158.126.107 0 1 153585 
173.245.54.36 1 1 31017 20180528211537
172.68.10.203 1 2 31014 20180507124132
108.162.229.141 0 1 55742 
162.158.89.180 8 8 199356 20180523202708
162.158.165.225 1 1 31016 20180525083546
172.68.146.9 0 10 25483 
141.101.77.43 0 1 0 
172.68.51.87 0 1 167928 
172.68.245.182 0 1 538 
173.245.52.170 10 10 266399 20180516015304
173.245.52.66 0 1 856 
197.234.242.59 0 1 278 
162.158.126.111 0 2 153779 
162.158.155.127 1 1 31016 20180523152329
162.158.79.106 0 1 538 
172.68.253.144 0 1 134776 
172.68.141.153 1 1 31016 20180528095802
162.158.134.11 0 3 161297 
172.68.253.148 0 1 19252 
172.68.215.57 0 2 4554 
162.158.178.76 0 1 105067 
141.101.88.227 1 1 31014 20180512222415
172.68.2.53 0 2 34907 
141.101.104.208 1 1 31014 20180521235032
162.158.166.240 1 1 31016 20180519141523
172.69.62.131 2 2 71360 20180517015708
162.158.202.5 0 1 7269 
141.101.77.21 1 1 31016 20180502195805
162.158.78.153 0 1 278 
141.101.105.163 0 7 447460 
162.158.92.207 0 1 465075 
172.68.255.135 0 2 13962 
162.158.2.99 1 1 31016 20180525021957
108.162.246.66 0 4 7388 
173.245.48.64 1 2 488080 20180505120412
172.68.94.41 1 4 54952 20180509205645
162.158.79.76 1 1 24594 20180525204158
141.101.76.107 1 1 31016 20180501175152
162.158.126.113 0 2 281313 
162.158.78.113 0 8 762072 
172.68.189.206 1 1 0 20180512195917
103.22.200.169 0 1 2471 
141.101.107.251 0 1 7269 
162.158.126.89 0 1 29113 
198.41.238.69 0 2 23307 
172.68.86.11 0 1 1847 
162.158.167.11 2 2 70074 20180526145022
162.158.92.105 0 2 3474 
172.68.144.128 0 9 465075 
197.234.242.131 0 1 194 
162.158.166.96 6 6 169693 20180510212955
162.158.58.70 1 1 31033 20180501230130
172.69.186.17 0 3 489141 
108.162.246.60 1 4 37227 20180505011358
162.158.91.172 0 1 14977 
172.69.134.74 1 1 31016 20180530132146
162.158.91.28 0 3 32288 
172.68.226.35 0 1 7322 
141.101.98.113 0 4 76856 
141.101.107.97 1 5 488334 20180507150742
162.158.89.116 0 2 3694 
172.68.94.11 1 1 31016 20180511223209
162.158.106.67 0 2 6176 
172.68.146.195 0 2 14538 
162.158.179.113 0 2 1712 
172.69.62.123 0 1 12409 
172.68.65.83 1 1 31033 20180525204219
198.41.238.71 0 1 7322 
162.158.89.140 0 2 1712 
108.162.246.90 0 4 35512 
172.68.174.53 0 1 2430 
162.158.186.71 0 1 29113 
162.158.167.37 1 10 43425 20180518215942
172.68.58.186 1 1 31012 20180516171339
162.158.75.227 0 1 278 
162.158.22.215 0 1 3352 
141.101.77.57 1 1 31018 20180512213751
172.68.246.177 4 5 124048 20180514220702
197.234.242.23 0 4 166274 
162.158.155.63 0 2 58226 
162.158.63.225 0 2 4935 
162.158.22.113 0 1 3088 
141.101.104.178 0 1 2471 
172.69.33.216 0 1 856 
172.68.253.102 0 2 191866 
108.162.249.191 0 2 24214 
162.158.224.131 0 1 7269 
162.158.88.73 0 3 111033 
162.158.90.197 1 1 31014 20180526224018
108.162.215.227 1 1 31016 20180505065706
172.68.47.41 0 1 0 
141.101.96.198 1 2 32861 20180501224149
173.245.54.24 0 1 17682 
172.68.2.35 0 3 174368 
162.158.222.15 0 2 33447 
172.69.54.8 0 1 14977 
141.101.76.221 0 3 80727 
172.68.59.19 0 1 110755 
172.69.70.192 1 1 31033 20180516202014
162.158.165.41 1 1 31016 20180511092442
108.162.238.46 0 1 8878 
172.69.33.54 0 1 1737 
162.158.111.126 0 1 0 
141.101.99.24 0 2 7629 
172.68.215.66 0 1 538 
172.68.65.65 1 1 24056 20180525204217
172.69.62.105 0 1 7629 
141.101.88.93 1 1 31016 20180531165922
172.69.70.36 0 4 9884 
172.68.141.119 1 1 0 20180513070559
172.68.246.99 1 1 31012 20180514115246
141.101.99.18 0 2 930150 
162.158.106.85 0 1 13962 
172.68.174.35 1 2 66973 20180511063553
172.68.65.79 2 2 62066 20180517015747
141.101.77.165 0 6 15258 
172.68.133.223 1 1 31014 20180506123602
162.158.78.143 0 8 226282 
162.158.111.122 0 6 37227 
162.158.186.29 0 1 0 
162.158.154.212 1 1 31016 20180510081020
172.68.174.101 5 5 146255 20180511120748
172.68.215.58 0 2 682618 
172.68.253.138 0 1 457047 
172.68.189.212 0 1 824 
108.162.237.105 0 1 55742 
108.162.245.77 1 2 110755 20180512195917
108.162.219.77 1 1 31017 20180510121432
172.68.51.195 0 1 31900 
108.162.215.203 2 2 62032 20180515095415
162.158.38.203 0 1 29113 
172.69.62.101 0 2 15258 
162.158.118.11 2 2 62024 20180506213836
108.162.237.173 0 1 3007 
162.158.74.242 1 1 31014 20180530191015
172.68.51.209 0 4 910660 
172.68.65.143 2 3 97983 20180528211537
172.68.86.5 0 2 16524 
162.158.78.129 0 1 856 
162.158.154.24 1 2 94783 20180526104443
108.162.245.209 0 3 40438 
172.68.226.23 1 1 31016 20180515023004
162.158.2.71 0 5 105450 
172.68.86.65 0 2 34907 
162.158.59.251 1 2 47074 20180502030028
108.162.216.47 0 2 9176 
162.158.255.89 0 7 5267 
162.158.165.77 2 5 215733 20180512170146
172.68.174.95 0 4 61059 
162.158.179.231 1 1 39041 20180530122453
108.162.245.9 0 1 1737 
162.158.62.242 0 1 213689 
108.162.219.143 2 2 70060 20180516044957
162.158.78.225 0 1 194 
172.68.50.131 0 2 3094 
172.68.239.172 2 2 62032 20180527113931
172.68.245.174 1 1 31016 20180528170452
162.158.222.105 0 1 29113 
162.158.165.179 0 1 457047 
172.68.211.11 1 3 32109 20180512041204
172.69.70.54 0 1 77890 
108.162.237.41 1 1 31016 20180507101418
172.68.34.39 0 1 7322 
172.68.198.69 1 1 31019 20180524142503
141.101.77.93 0 1 194 
172.68.25.113 1 1 31016 20180504232308
141.101.88.161 0 2 6704 
162.158.106.175 0 1 1547 
162.158.79.72 2 2 49188 20180517015724
172.68.245.164 2 2 62026 20180514042118
173.245.52.110 1 1 31015 20180510112059
172.68.144.230 3 3 91414 20180519150649
141.101.88.239 0 3 44931 
172.68.34.33 0 1 29113 
172.69.62.81 1 1 24307 20180525204148
162.158.165.167 0 3 315201 
172.69.22.207 1 2 28615 20180505065537
108.162.221.100 2 2 62025 20180511225458
162.158.134.197 0 1 1547 
172.68.51.45 0 2 109895 
172.68.189.54 2 2 62038 20180527030245
162.158.91.214 0 1 29113 
172.68.143.167 1 3 31012 20180526021624
172.68.226.59 0 1 856 
108.162.249.95 0 1 26909 
162.158.134.173 0 1 2471 
141.101.99.66 2 2 62032 20180508100901
172.68.141.149 0 1 194 
162.158.91.142 0 1 35957 
162.158.62.14 0 1 14977 
172.68.10.41 0 1 0 
103.22.200.235 0 1 3352 
141.101.105.115 0 7 179785 
172.69.134.196 2 2 62032 20180517051741
172.68.189.98 0 1 538 
162.158.92.111 1 1 31016 20180522113254
162.158.126.117 1 3 119250 20180526091743
162.158.59.69 1 2 31016 20180525115408
172.68.245.80 4 4 124064 20180519020633
172.68.174.89 0 2 108159 
162.158.78.119 2 6 135812 20180517015727
172.68.253.210 0 5 134931 
172.68.65.193 6 8 234666 20180517015716
162.158.167.211 0 11 3506 
172.68.238.179 1 1 31014 20180509100213
141.101.98.221 0 1 110755 
162.158.111.210 1 1 31014 20180530040035
162.158.134.119 0 2 6440 
141.101.77.75 0 7 9235 
162.158.106.169 1 1 0 20180517015654
172.68.94.59 0 1 153585 
172.69.186.47 0 8 419471 
162.158.62.170 0 1 134776 
162.158.114.45 1 1 31012 20180530040046
162.158.246.17 1 1 31012 20180515142920
141.101.107.163 1 1 31016 20180510163748
108.162.226.126 0 2 6014 
108.162.245.123 0 1 465075 
172.69.70.72 0 4 9720 
172.68.146.67 0 3 0 
172.68.2.101 0 3 155771 
141.101.99.84 1 1 31016 20180518151507
162.158.167.121 0 5 15035 
141.101.76.89 0 1 7269 
162.158.134.215 0 2 16507 
172.68.255.165 0 1 26909 
141.101.69.166 0 2 138215 
162.158.222.117 0 3 313807 
162.158.186.19 0 1 1847 
172.68.239.30 4 4 124048 20180514201140
172.68.146.117 1 1 31016 20180502151138
162.158.179.71 0 1 79866 
108.162.249.239 0 2 223670 
172.68.34.99 0 3 117524 
172.68.253.112 0 1 2430 
173.245.48.74 0 1 0 
141.101.98.207 0 2 10059 
141.101.107.101 1 2 50268 20180525113805
162.158.22.191 0 1 2471 
172.69.22.55 1 1 31016 20180524133415
172.69.70.102 0 4 902284 
172.68.47.29 1 1 31033 20180525144232
162.158.255.179 1 2 91334 20180505200714
162.158.179.239 0 2 1076 
162.158.26.59 1 1 31016 20180502170124
172.68.47.145 0 1 7269 
162.158.88.223 1 2 115527 20180521143851
172.68.142.178 0 1 0 
162.158.167.107 1 1 39041 20180521191416
108.162.219.131 1 1 31018 20180513165851
162.158.186.37 0 1 5267 
103.22.200.193 0 2 1076 
162.158.222.99 0 1 153585 
172.68.146.147 1 1 31016 20180516120454
108.162.249.59 0 2 10725 
103.22.200.145 0 1 167928 
172.68.11.120 0 1 213689 
172.68.46.198 0 3 65495 
162.158.63.245 2 2 62033 20180513234542
162.158.134.21 1 1 31016 20180528153348
162.158.179.99 0 1 1743 
162.158.90.205 0 3 106446 
162.158.155.241 0 1 856 
108.162.246.228 0 8 7919 
162.158.88.247 1 1 0 20180526123847
172.68.174.41 0 3 492363 
141.101.76.77 0 5 96260 
108.162.229.209 0 1 105751 
162.158.91.106 0 1 134776 
141.101.99.30 0 2 307170 
162.158.92.159 0 1 457047 
172.68.146.51 1 2 38285 20180512083818
162.158.111.174 0 1 0 
172.69.69.197 1 1 31012 20180511225457
198.41.238.83 0 2 99285 
172.68.239.54 1 1 27638 20180504200834
172.69.22.201 2 9 64466 20180505162829
172.68.94.185 0 1 7269 
172.69.134.46 2 2 55477 20180514134404
172.68.189.140 0 2 133632 
162.158.39.36 0 2 180494 
172.68.11.12 2 2 62025 20180519090747
162.158.134.221 0 2 109895 
172.68.142.10 0 1 0 
162.158.179.33 0 1 32494 
172.69.54.64 2 2 62028 20180510161513
172.68.253.130 0 1 1847 
172.69.33.84 1 1 31033 20180512041241
172.69.126.59 1 1 31016 20180509001550
172.69.134.130 2 2 62032 20180503085955
172.68.25.65 1 1 31016 20180519000854
108.162.246.180 0 9 99944 
141.101.104.162 3 3 91307 20180511145923
162.158.50.51 1 1 31016 20180527183611
162.158.186.137 1 1 39041 20180524134436
173.245.52.72 0 1 29113 
172.68.58.102 0 1 31900 
141.101.105.247 1 3 148164 20180507072757
162.158.92.51 7 7 217112 20180525100528
172.68.51.89 0 1 457047 
162.158.58.94 0 2 71914 
162.158.38.59 0 1 12409 
141.101.88.203 0 2 14644 
172.68.46.114 0 2 10534 
173.245.48.76 0 2 27924 
141.101.99.120 0 2 3694 
162.158.88.21 0 1 53470 
141.101.107.115 1 1 31033 20180503083324
141.101.69.52 1 1 31016 20180505205036
162.158.88.175 1 1 31016 20180522112046
141.101.96.221 0 1 856 
172.68.51.59 0 2 307170 
172.68.255.129 0 1 194 
172.69.186.35 0 4 216451 
172.68.46.144 2 2 62028 20180518171843
141.101.98.41 1 1 31016 20180510143425
172.69.69.83 2 2 62066 20180509140213
108.162.216.69 5 5 155080 20180531133543
172.68.146.159 1 2 115527 20180508172410
162.158.166.202 2 2 62032 20180529082738
162.158.187.36 0 1 0 
162.158.63.93 0 1 23936 
172.68.254.248 0 3 207567 
108.162.226.120 0 4 107871 
198.41.238.77 0 2 29969 
162.158.155.81 0 2 53818 
172.69.130.39 0 1 91334 
162.158.18.245 1 1 31012 20180510224431
172.68.174.29 0 2 8178 
172.68.239.192 1 1 31016 20180516200413
162.158.134.191 0 1 225571 
172.68.110.77 1 1 0 20180502192810
162.158.38.137 0 1 538 
162.158.22.185 0 2 7547 
172.68.174.51 1 1 31012 20180526130442
141.101.88.213 0 2 183988 
172.68.143.157 1 1 31012 20180514204436
162.158.18.179 1 1 31016 20180505134221
172.69.54.130 11 12 441298 20180516110045
141.101.104.136 0 1 465075 
162.158.89.174 0 3 94924 
162.158.234.41 1 1 31016 20180502144155
172.68.143.25 0 1 457047 
172.68.46.156 0 1 213689 
162.158.167.229 1 1 31016 20180501194238
108.162.237.111 0 1 0 
172.68.63.22 1 1 31016 20180529024042
172.68.47.115 0 2 4860 
162.158.89.132 0 1 824 
172.68.34.111 0 2 501032 
172.68.239.198 1 1 31033 20180511090655
172.69.62.135 1 1 35680 20180525204142
162.158.166.214 0 1 17682 
172.69.54.76 0 4 671712 
162.158.74.110 2 2 62066 20180531133545
162.158.22.59 0 1 7629 
172.68.132.54 4 4 124072 20180518113952
141.101.88.89 0 2 930150 
172.68.86.89 0 2 6440 
108.162.229.231 2 3 94090 20180526031714
172.69.62.21 0 1 7269 
172.69.22.175 1 1 0 20180522040945
162.158.89.144 1 2 31872 20180524173549
173.245.48.148 1 1 31016 20180504214919
172.68.189.122 1 1 31018 20180508113439
172.68.254.127 0 1 73812 
172.68.254.85 0 1 67415 
141.101.69.20 0 1 457047 
162.158.179.147 0 1 1547 
162.158.182.161 0 1 7269 
172.68.94.203 0 6 340757 
162.158.93.28 0 2 71914 
108.162.245.167 0 7 68929 
172.68.254.157 0 3 7825 
162.158.106.17 1 1 0 20180522040945
162.158.92.77 0 2 191866 
172.68.34.117 0 1 856 
162.158.255.35 0 5 40438 
173.245.54.48 1 1 22476 20180525204140
108.162.245.183 0 2 4899 
141.101.69.58 2 2 62032 20180510202051
141.101.96.197 1 1 31016 20180510053248
173.245.48.70 0 2 24818 
162.158.88.145 0 1 23936 
172.68.142.30 1 1 31016 20180512080031
162.158.78.125 0 2 1712 
172.68.174.23 3 4 91507 20180511113550
108.162.238.154 0 1 153585 
108.162.237.83 0 1 13962 
198.41.238.47 1 4 172269 20180510083600
172.69.134.100 0 1 106414 
162.158.134.59 0 1 856 
172.69.62.167 0 2 10534 
172.68.211.9 1 1 31016 20180522153451
172.68.65.191 0 1 1737 
162.158.75.83 0 1 13962 
172.69.62.57 0 1 109190 
162.158.22.167 0 1 1743 
172.69.69.245 1 1 31014 20180501153906
162.158.91.204 1 1 31016 20180514212207
108.162.245.195 0 1 465075 
162.158.126.21 0 3 15117 
162.158.75.203 0 1 55742 
162.158.74.124 0 1 538 
197.234.242.11 0 1 26909 
172.69.130.101 2 2 62024 20180518235715
108.162.219.195 0 1 3007 
141.101.69.196 0 1 824 
172.68.65.127 0 2 14538 
172.69.130.5 0 2 1712 
141.101.76.197 2 2 58101 20180509000742
162.158.246.75 0 1 7269 
172.69.68.38 1 1 31016 20180524193410
172.68.215.46 0 1 12409 
162.158.90.185 0 1 5267 
172.68.141.183 1 1 31014 20180527104123
162.158.126.11 0 2 25783 
162.158.183.6 1 1 31012 20180519084007
172.69.54.4 0 7 59908 
108.162.229.59 0 1 7269 
108.162.229.149 0 3 112676 
172.69.70.240 0 3 41886 
172.68.253.30 0 1 824 
162.158.63.201 0 1 95933 
108.162.212.238 1 1 31016 20180524013355
162.158.91.180 0 1 109190 
172.69.186.41 0 4 650307 
162.158.88.69 2 6 284098 20180508171059
162.158.255.23 1 1 31016 20180506090322
162.158.38.173 0 1 87940 
162.158.186.67 0 1 91334 
172.68.142.18 0 1 19252 
108.162.250.12 0 3 92909 
172.69.70.204 0 3 21807 
162.158.222.33 1 5 55901 20180523205646
172.68.254.7 0 1 167928 
141.101.96.196 0 2 37700 
162.158.63.57 0 1 225571 
197.234.242.77 0 3 31218 
162.158.118.113 0 3 29113 
162.158.187.6 0 1 134776 
172.68.51.237 0 1 3088 
162.158.179.95 0 1 1743 
162.158.202.119 2 2 62032 20180511145856
172.68.244.55 1 1 31012 20180513081940
172.69.62.89 0 2 321562 
172.68.253.208 0 1 91334 
141.101.104.174 0 4 9884 
162.158.106.19 1 17 488606 20180512195917
162.158.178.170 0 1 12409 
172.69.69.29 2 15 1259941 20180501153202
162.158.79.228 0 2 3094 
162.158.79.202 0 1 1847 
172.69.206.113 1 1 31016 20180508135943
162.158.62.80 0 3 101074 
198.41.238.89 0 2 7907 
172.68.254.133 0 5 74885 
172.68.142.12 0 9 80422 
172.68.189.164 1 1 31033 20180503215835
108.162.246.52 0 1 66064 
162.158.78.21 0 1 3007 
162.158.134.83 1 1 31014 20180515021728
141.101.69.16 1 3 941732 20180513103730
141.101.96.219 0 1 7322 
162.158.91.178 0 2 169475 
197.234.242.47 0 1 23936 
172.69.69.167 0 4 7388 
162.158.155.115 0 1 26909 
162.158.222.87 0 3 161297 
197.234.242.137 0 2 22299 
162.158.126.9 3 7 163263 20180526091805
162.158.92.29 0 2 451142 
162.158.255.53 3 3 93048 20180504094855
108.162.245.203 0 1 26909 
162.158.93.22 0 1 117582 
162.158.39.30 0 3 155771 
162.158.89.48 0 1 73812 
162.158.2.95 0 1 12409 
172.68.51.215 0 7 45239 
172.68.133.73 0 1 856 
173.245.52.186 3 3 101056 20180528173704
162.158.92.173 1 1 0 20180503220651
172.69.70.228 0 1 105067 
162.158.38.35 0 1 91334 
162.158.165.65 1 1 31016 20180503185900
141.101.98.233 1 1 31016 20180506223016
172.69.69.77 2 5 99252 20180516135341
172.68.146.129 0 2 388 
162.158.134.53 0 1 55742 
108.162.215.35 0 2 111484 
172.68.65.131 0 1 7269 
172.68.245.140 0 1 0 
162.158.142.65 2 2 62024 20180515151909
172.69.69.11 0 4 671712 
162.158.90.209 0 3 82510 
172.68.34.21 0 4 16860 
162.158.134.23 0 1 153585 
162.158.91.70 0 7 51950 
172.69.62.51 2 4 391333 20180525204204
108.162.229.53 0 2 4942 
162.158.111.74 0 3 60657 
162.158.222.75 1 2 31872 20180523205559
108.162.221.166 0 1 66064 
141.101.107.31 0 2 1712 
162.158.119.12 0 1 856 
162.158.179.173 0 1 84511 
172.68.146.189 1 1 31016 20180502173714
162.158.78.17 0 2 6014 
162.158.118.191 2 2 48614 20180512033035
172.68.246.237 1 1 31014 20180517021458
141.101.88.243 0 1 14977 
162.158.59.179 0 2 930150 
162.158.38.125 0 2 118077 
108.162.249.11 1 2 34023 20180502161736
162.158.39.6 0 1 13962 
141.101.76.149 0 11 1800996 
162.158.90.143 0 1 7269 
162.158.92.81 0 2 95933 
162.158.59.185 0 1 16038 
162.158.38.77 1 1 35680 20180514192245
141.101.96.220 0 1 19252 
141.101.104.18 1 1 31014 20180504195153
162.158.2.137 0 2 28104 
162.158.154.230 0 2 6014 
108.162.245.221 0 4 1860300 
162.158.167.41 0 2 0 
108.162.246.208 1 1 0 20180525204128
108.162.246.226 0 1 58574 
162.158.186.109 3 3 101056 20180517232745
172.68.94.191 0 7 157256 
173.245.54.8 0 4 29076 
172.68.34.75 0 1 14977 
162.158.78.15 0 1 32494 
108.162.246.156 0 2 48365 
172.68.244.175 0 1 0 
162.158.106.95 0 2 32178 
162.158.179.143 0 2 2403 
172.68.133.121 1 1 31014 20180509033551
141.101.76.137 1 4 33582 20180508024104
162.158.90.245 1 1 31019 20180523091958
162.158.63.141 0 1 153585 
172.68.94.143 0 2 63064 
108.162.250.24 0 2 464369 
197.234.242.65 0 1 7629 
172.69.69.23 1 1 31012 20180516135342
141.101.104.114 4 4 156164 20180512215212
172.68.141.129 0 1 0 
141.101.88.189 0 1 110755 
108.162.215.147 1 1 31033 20180527000524
108.162.229.165 0 1 7269 
198.41.238.57 1 1 31016 20180528072845
141.101.99.46 0 1 5267 
172.68.51.41 0 6 329685 
172.68.146.87 0 9 278 
172.69.23.106 0 1 7322 
162.158.89.176 2 2 62028 20180513124133
172.68.211.125 0 2 6014 
172.68.211.191 0 1 824 
172.69.134.64 0 1 67415 
162.158.111.152 1 1 35680 20180508213147
172.68.215.67 0 1 465075 
172.68.141.17 0 7 13962 
172.68.50.149 0 4 113300 
162.158.179.237 0 1 8878 
162.158.93.94 0 1 71028 
162.158.126.99 0 3 10814 
162.158.75.233 4 4 95013 20180506112224
108.162.245.189 0 2 17756 
141.101.76.153 0 1 0 
162.158.90.109 0 1 2471 
172.68.133.193 2 2 62032 20180511021114
162.158.50.125 1 1 31016 20180519082350
162.158.255.161 0 1 160781 
197.234.242.41 0 1 87940 
172.68.255.21 0 1 19252 
172.68.144.206 0 2 221510 
162.158.106.37 1 4 12409 20180512005230
162.158.22.89 0 1 8878 
172.68.51.71 1 2 38285 20180501194026
172.69.33.94 1 1 31033 20180528032032
172.68.143.7 1 1 0 20180505200625
162.158.19.24 1 1 31014 20180519054055
162.158.88.39 1 1 31012 20180513081811
173.245.52.162 1 1 31016 20180526222957
162.158.167.47 0 3 13962 
162.158.255.137 1 3 458390 20180502153411
172.69.158.5 1 1 31012 20180504220454
141.101.76.59 0 3 4641 
162.158.38.89 0 1 160781 
162.158.106.179 0 3 81377 
162.158.78.75 1 1 22655 20180525204225
162.158.30.47 1 1 31016 20180505164007
197.234.242.17 0 1 2471 
162.158.126.39 0 1 167928 
108.162.237.143 0 1 29113 
172.68.174.71 4 5 101790 20180511115035
108.162.238.90 0 1 12409 
172.68.27.73 1 1 31016 20180504034804
162.158.166.204 1 3 173089 20180514074201
172.68.86.41 0 1 12409 
162.158.126.5 0 3 56863 
162.158.255.41 4 4 93048 20180515100924
108.162.246.198 0 3 10056 
108.162.245.173 0 9 164315 
172.68.253.214 0 1 7629 
162.158.62.104 0 1 7269 
162.158.7.48 1 1 31016 20180508142015
172.69.70.82 1 1 31033 20180526072159
162.158.166.168 0 1 3088 
172.68.253.216 0 1 213689 
162.158.74.4 0 1 0 
162.158.22.95 1 2 29861 20180510201419
172.68.215.68 0 1 91334 
172.68.94.173 0 2 192681 
172.68.94.77 0 4 15761 
172.68.254.181 0 1 31900 
162.158.186.221 0 1 0 
108.162.229.243 2 2 46234 20180530180957
162.158.2.125 0 3 36973 
162.158.126.51 0 2 16507 
172.68.47.119 0 1 0 
172.69.33.120 0 2 38504 
141.101.69.34 0 2 427378 
162.158.63.45 1 1 31012 20180527142530
162.158.92.87 0 1 17682 
172.68.142.166 1 2 165788 20180531144911
108.162.249.149 0 2 37700 
162.158.38.11 0 2 12896 
162.158.106.215 0 2 96757 
172.69.70.180 0 4 854756 
162.158.2.41 0 1 160781 
172.68.2.107 0 1 225571 
172.69.69.107 1 1 31016 20180516015156
162.158.89.18 3 3 84308 20180528183731
162.158.134.203 0 1 465075 
162.158.79.102 0 2 1076 
108.162.249.161 0 3 255203 
108.162.245.141 0 1 35957 
172.68.142.202 4 4 124058 20180531014426
172.68.62.23 0 1 19252 
172.68.86.29 1 3 62274 20180502044346
108.162.238.144 1 1 39041 20180512125722
108.162.238.84 0 1 7322 
108.162.246.252 0 2 1076 
162.158.255.17 0 8 58226 
108.162.221.226 0 5 118482 
172.68.144.156 1 1 31016 20180521171448
108.162.245.191 0 2 618660 
162.158.186.149 0 1 110755 
162.158.90.137 0 1 116 
162.158.166.210 0 2 35364 
162.158.155.223 0 1 31900 
141.101.107.73 1 1 31016 20180509144439
172.69.130.89 0 3 66807 
162.158.92.59 1 1 31016 20180517104025
162.158.78.131 2 2 56134 20180517015744
172.68.34.57 0 2 33447 
108.162.246.94 0 1 12409 
108.162.249.29 1 4 37998 20180509113143
172.68.94.5 0 1 3088 
162.158.107.24 0 1 19252 
172.68.215.42 0 1 95933 
108.162.246.130 0 1 26909 
172.69.186.23 0 7 237271 
141.101.107.253 1 1 31016 20180510113743
172.69.70.252 0 3 107871 
162.158.166.52 0 5 44931 
198.41.238.5 0 1 1847 
172.69.23.28 1 1 0 20180505011313
172.68.63.48 0 1 134776 
172.68.246.111 1 1 31014 20180519084006
162.158.91.126 0 1 66064 
172.68.51.83 0 4 503978 
141.101.88.119 0 4 4770 
141.101.107.241 0 2 2430 
172.68.132.210 1 1 31014 20180515233347
141.101.88.123 1 2 36218 20180521135704
141.101.76.131 0 3 21807 
172.69.134.224 0 4 0 
108.162.249.65 0 1 2471 
172.69.134.106 0 1 213689 
162.158.91.174 0 4 338950 
172.68.253.174 0 1 71028 
172.69.22.249 1 1 0 20180512195943
162.158.88.163 0 1 134776 
172.68.253.226 0 1 2471 
172.69.69.53 0 1 71028 
162.158.166.124 0 1 20219 
172.68.65.241 0 2 58226 
162.158.155.37 0 1 29113 
172.68.142.246 1 1 31033 20180503215830
172.69.70.78 2 2 62066 20180516202011
172.68.141.113 0 15 120751 
162.158.90.133 1 1 31019 20180516014201
162.158.224.159 1 1 31016 20180523152332
172.68.146.201 1 1 31016 20180505101935
108.162.245.69 0 1 71028 
172.68.174.111 2 2 62032 20180530231358
162.158.78.149 0 2 556 
172.68.141.239 0 1 2471 
172.68.215.31 0 3 247961 
172.68.189.222 0 3 0 
162.158.22.23 0 1 225571 
108.162.229.69 1 1 31016 20180526012009
172.69.22.247 0 3 0 
172.68.58.126 0 1 5267 
172.68.142.150 1 1 31033 20180509074133
141.101.104.216 0 9 405162 
162.158.74.40 0 1 0 
162.158.134.107 0 1 31900 
162.158.63.99 0 1 12409 
162.158.155.61 0 1 23936 
172.69.23.46 0 1 110755 
172.68.86.23 0 3 15326 
173.245.54.18 0 1 3088 
141.101.77.45 1 1 31014 20180513131101
162.158.92.95 0 1 1743 
162.158.255.39 1 2 51252 20180525144159
197.234.242.83 1 2 31872 20180517162325
162.158.58.142 1 1 31033 20180503215915
172.68.141.71 0 1 4168 
108.162.216.113 0 1 7322 
108.162.237.161 0 1 278 
172.68.27.59 1 1 31016 20180522101632
172.69.186.59 0 6 341438 
172.68.174.107 0 1 91334 
172.68.51.77 0 1 134776 
172.69.22.183 1 1 0 20180505200618
172.68.46.184 1 1 31016 20180522162927
172.68.132.234 1 2 120523 20180514124316
108.162.237.65 0 1 2430 
141.101.99.148 0 1 134776 
172.69.22.171 0 1 8878 
162.158.118.137 3 3 93048 20180507093351
172.68.174.83 1 2 191814 20180511140332
172.68.254.43 0 1 77890 
162.158.90.61 0 4 935417 
162.158.111.20 0 3 26634 
141.101.69.40 4 8 196426 20180519013249
141.101.99.252 1 1 31016 20180511154956
162.158.166.48 1 12 90924 20180507141112
162.158.166.172 0 1 3088 
141.101.105.127 6 6 178362 20180509144539
162.158.102.167 1 1 31012 20180515031422
172.69.226.24 1 1 31016 20180515185524
162.158.119.6 0 3 3694 
162.158.90.47 0 1 67415 
172.68.142.210 2 9 97989 20180506213820
172.69.186.11 0 3 182561 
162.158.91.52 0 1 3007 
172.68.144.218 0 3 290559 
141.101.105.223 0 3 167226 
172.69.62.5 0 2 17756 
172.68.144.74 0 3 233670 
172.68.211.89 0 1 194 
108.162.226.36 0 2 17756 
172.68.215.35 0 1 13962 
162.158.2.185 0 1 1737 
172.68.94.149 0 1 3088 
103.22.200.199 0 4 7290 
172.68.65.17 0 2 14538 
172.68.245.158 1 1 31014 20180503224348
108.162.246.174 1 1 0 20180512005230
162.158.167.163 2 2 66713 20180511092754
172.68.245.84 3 3 93048 20180526190456
108.162.237.251 0 2 110910 
172.68.25.167 1 1 31014 20180513120957
172.69.226.30 0 2 24818 
108.162.245.197 1 1 0 20180512005300
108.162.246.154 0 10 436075 
162.158.126.23 0 1 856 
172.69.62.173 0 2 4860 
108.162.229.161 1 5 228239 20180512104131
141.101.69.74 1 1 31016 20180529175626
172.69.134.214 0 1 117582 
108.162.219.87 0 1 7629 
162.158.22.17 0 5 521248 
197.234.242.101 0 2 16392 
162.158.155.181 0 1 465075 
172.68.144.62 1 2 31872 20180503153504
141.101.104.228 0 5 36610 
141.101.98.161 1 1 31016 20180515052723
172.68.255.147 0 2 35957 
162.158.22.233 0 1 2430 
172.68.253.132 0 1 7322 
162.158.182.95 1 1 31012 20180507124133
172.68.58.120 3 3 93036 20180507131402
141.101.105.139 0 3 48114 
162.158.106.31 0 8 19676 
141.101.99.240 0 2 14977 
172.69.62.171 0 2 79079 
162.158.178.166 0 2 24818 
162.158.106.41 0 1 14977 
172.68.51.233 0 2 6176 
162.158.63.177 0 1 7322 
108.162.246.166 0 1 7269 
172.68.215.56 0 1 7629 
172.69.130.35 0 2 182668 
162.158.62.166 1 1 0 20180502183802
108.162.215.65 0 2 14644 
108.162.229.57 0 1 2471 
162.158.38.251 0 1 465075 
172.68.144.222 0 2 258065 
162.158.90.17 0 1 7322 
172.68.27.125 1 1 31016 20180526012253
162.158.150.111 1 1 31016 20180523131558
172.68.65.233 1 1 27659 20180525204208
173.245.54.20 0 2 35364 
162.158.134.41 0 1 457047 
173.245.54.14 0 2 6176 
172.68.50.155 0 8 476899 
172.68.46.4 1 1 31033 20180523120752
172.68.144.236 0 19 590856 
141.101.98.197 1 1 31016 20180516105256
172.68.239.66 3 3 82914 20180517200451
141.101.77.39 0 6 47872 
141.101.98.237 0 2 118077 
172.68.62.47 0 1 167928 
162.158.255.93 0 2 0 
141.101.104.54 0 2 109482 
108.162.219.165 0 1 110755 
108.162.246.126 1 6 129670 20180512005230
172.68.51.177 0 1 856 
172.68.51.27 0 3 602281 
162.158.88.225 1 3 87940 20180517232041
162.158.58.124 0 3 44931 
162.158.74.106 3 3 93099 20180518083232
172.68.50.119 0 1 3352 
162.158.88.61 0 2 17050 
162.158.166.246 1 1 27068 20180515061151
172.68.141.131 0 3 9021 
141.101.88.209 0 2 335856 
108.162.229.81 1 1 31033 20180527225440
172.69.186.53 7 13 347904 20180515205921
162.158.92.71 1 1 31016 20180515071543
162.158.111.38 0 3 5229 
172.68.50.177 0 1 29113 
172.68.62.143 0 1 7322 
172.68.94.53 0 5 166952 
162.158.93.14 0 1 12409 
162.158.22.65 0 3 805512 
108.162.216.203 4 4 124064 20180507233325
172.68.215.41 0 1 26909 
172.68.47.101 1 1 31033 20180520035235
108.162.246.216 0 3 71808 
108.162.237.221 0 1 31900 
172.68.50.203 0 1 3088 
172.68.174.17 0 1 1547 
141.101.104.168 0 1 55742 
172.68.86.101 0 3 155771 
172.68.132.130 6 6 186076 20180531020000
162.158.222.27 0 1 2471 
172.68.51.221 2 2 62032 20180501162749
108.162.238.184 0 1 856 
198.41.238.23 0 3 40460 
162.158.92.155 0 2 914094 
172.68.132.48 1 1 31033 20180505191320
108.162.250.18 0 4 57764 
172.68.2.17 0 2 180494 
172.68.50.137 0 3 10056 
162.158.78.95 1 1 31014 20180502140858
162.158.2.101 0 1 1847 
141.101.105.7 0 5 137339 
172.68.51.125 3 8 254243 20180502212645
141.101.98.251 0 2 6704 
172.68.65.11 1 1 31016 20180521050010
162.158.91.120 1 1 35680 20180519093757
172.68.94.113 2 3 519079 20180515010730
141.101.107.235 1 1 31016 20180501175418
108.162.221.190 0 2 1712 
172.68.62.245 0 2 2085 
172.68.94.29 0 4 9176 
141.101.105.79 4 4 110050 20180510065337
172.69.130.81 0 1 1743 
108.162.221.106 0 5 163159 
172.68.133.113 1 1 39041 20180520105359
162.158.91.24 0 4 64188 
197.234.242.5 1 2 32753 20180517140515
162.158.167.127 1 1 31016 20180518232001
172.68.94.107 0 4 607730 
141.101.76.185 1 1 23396 20180506112035
162.158.90.43 1 2 98431 20180519100342
108.162.249.245 0 3 185098 
141.101.104.84 1 1 35610 20180501025104
172.68.189.138 1 1 31033 20180523115406
197.234.242.113 0 1 1743 
162.158.255.101 0 1 7269 
141.101.88.129 1 1 31016 20180525053334
162.158.75.95 1 1 31018 20180505135138
108.162.246.100 0 2 6014 
162.158.88.133 2 2 62032 20180521115810
108.162.250.42 0 2 50845 
172.68.226.107 0 2 94686 
173.245.54.12 0 2 14538 
172.69.62.17 0 4 29076 
172.69.62.47 4 8 782666 20180517015731
141.101.98.137 0 2 14644 
108.162.245.179 0 7 23464 
162.158.90.53 1 1 31016 20180522115059
162.158.167.157 0 1 8878 
162.158.166.180 1 1 35680 20180514120040
108.162.229.23 0 3 141739 
172.68.246.105 1 1 31018 20180508220437
141.101.104.202 0 1 17682 
172.69.62.33 0 2 23571 
108.162.245.119 0 4 6188 
162.158.89.242 0 1 137937 
108.162.249.125 1 2 44978 20180514060814
172.68.246.69 0 1 8878 
108.162.237.95 0 1 3352 
162.158.134.65 0 1 29113 
172.68.143.49 2 3 128093 20180513114644
162.158.179.233 0 1 8878 
108.162.237.81 0 1 0 
162.158.78.135 1 1 28067 20180525204216
162.158.2.65 0 3 147312 
141.101.77.225 0 1 73812 
162.158.126.77 0 3 97774 
172.68.10.63 3 3 93042 20180524065323
172.68.132.96 4 4 111362 20180504094930
162.158.93.160 0 2 20219 
172.68.253.58 0 1 3007 
172.68.132.18 1 1 31014 20180504110327
162.158.167.205 2 2 51662 20180509010031
162.158.186.83 0 1 457047 
172.69.71.19 0 4 107636 
172.68.62.5 0 1 7269 
162.158.92.33 0 2 228923 
162.158.90.35 0 1 31900 
141.101.77.69 0 2 307170 
162.158.22.83 0 2 170935 
141.101.77.219 0 2 221510 
108.162.238.130 0 1 14977 
162.158.255.143 1 1 31016 20180505065500
172.68.65.67 0 2 14644 
172.68.94.209 0 3 13962 
172.69.68.238 0 5 278710 
162.158.22.107 0 1 95933 
108.162.229.227 1 1 31016 20180507074137
162.158.92.5 1 1 31014 20180519100546
172.68.253.180 1 2 34385 20180505091859
108.162.246.106 0 1 73812 
198.41.238.11 0 2 37167 
172.69.62.129 1 2 102042 20180529174720
162.158.2.173 0 1 2430 
162.158.91.192 2 2 62032 20180516125221
172.68.255.123 0 1 55742 
162.158.155.97 2 2 62032 20180529205359
162.158.22.173 0 2 112602 
162.158.92.197 0 1 26909 
162.158.58.160 1 1 31033 20180505191411
172.68.10.161 1 1 31012 20180510091251
172.68.51.167 0 3 5229 
141.101.69.106 0 2 6176 
141.101.76.125 3 4 146512 20180506144331
162.158.93.148 0 2 321562 
172.68.142.156 1 1 31033 20180514125325
172.69.130.27 0 1 7322 
172.69.130.23 0 2 14644 
172.68.34.69 0 1 3007 
108.162.246.58 0 2 3694 
162.158.90.157 0 2 8336 
172.68.2.83 0 2 36235 
162.158.90.223 1 1 0 20180510053616
162.158.78.11 0 2 64988 
141.101.98.53 1 1 31016 20180512170057
162.158.75.239 0 1 3088 
172.68.58.156 1 1 31014 20180509073156
172.69.70.120 0 3 1614 
108.162.250.30 0 1 465075 
162.158.22.179 0 1 1737 
141.101.98.9 1 1 31016 20180528222108
172.68.253.106 0 1 95933 
162.158.38.131 0 1 8878 
162.158.134.137 0 1 91334 
172.68.215.47 0 1 3088 
162.158.158.44 0 1 1847 
162.158.118.5 0 1 153585 
172.68.2.59 0 4 71068 
172.69.54.16 3 4 318607 20180502010815
172.69.130.95 0 2 3094 
162.158.165.71 0 1 153585 
141.101.99.102 0 2 63800 
162.158.22.137 0 1 23936 
172.68.141.135 0 2 6014 
162.158.126.95 0 3 217234 
162.158.92.161 0 1 54741 
162.158.179.117 0 1 856 
172.69.135.5 1 5 513359 20180502100218
172.68.10.5 0 1 167928 
172.68.143.85 1 1 31016 20180508161647
162.158.38.197 0 1 14977 
162.158.62.224 0 1 55742 
172.69.62.77 2 2 48614 20180517015714
108.162.237.107 0 1 35957 
141.101.104.204 3 3 93042 20180517042518
162.158.93.4 4 4 124048 20180506132054
162.158.167.85 1 1 31016 20180510155510
162.158.92.17 0 4 119113 
172.68.255.109 0 1 0 
172.68.51.17 0 6 10635 
197.234.242.173 0 1 35957 
172.68.143.73 1 1 31033 20180503151642
162.158.89.194 0 2 27924 
162.158.2.155 0 2 468163 
172.68.144.50 0 1 134776 
162.158.93.98 2 3 133060 20180525204545
172.68.226.47 0 2 26521 
172.69.69.89 0 2 6014 
108.162.249.35 0 1 167928 
172.68.255.139 0 1 0 
172.69.22.205 0 1 0 
172.68.211.245 2 2 47249 20180509074726
172.68.142.252 0 1 73812 
108.162.249.215 0 3 142849 
141.101.104.198 0 1 17682 
172.68.182.5 1 1 31016 20180513113905
172.69.22.85 1 1 0 20180529174719
162.158.126.59 1 3 185046 20180512164030
108.162.245.5 0 6 132552 
162.158.22.209 0 1 14977 
108.162.229.113 0 1 108139 
172.69.62.83 0 4 614340 
108.162.250.54 0 1 7322 
141.101.107.185 0 1 3352 
162.158.92.21 0 3 63371 
162.158.126.71 0 3 138296 
172.68.34.63 0 3 97774 
172.68.132.172 4 4 124050 20180527124027
162.158.179.243 0 1 538 
162.158.90.151 0 1 16038 
172.68.2.89 0 2 16524 
141.101.98.65 0 4 1632 
162.158.74.86 0 1 17682 
172.69.62.9 9 11 373471 20180525215939
141.101.69.38 0 1 213689 
141.101.77.97 0 1 194 
141.101.77.5 0 6 685734 
162.158.75.197 1 1 31012 20180504091645
162.158.134.161 0 2 25783 
162.158.165.53 1 1 31016 20180514085113
162.158.89.222 0 2 12409 
108.162.226.222 0 5 1658 
162.158.106.11 0 1 89490 
172.68.226.65 0 1 3007 
172.69.226.84 0 3 12129 
162.158.22.125 0 2 155132 
108.162.238.186 0 1 7629 
162.158.78.221 0 2 388 
172.68.50.125 0 2 14538 
172.69.158.23 1 1 31012 20180503122442
172.68.253.48 0 1 31900 
172.68.65.13 0 4 29076 
108.162.219.93 0 1 8878 
172.68.146.91 0 3 0 
162.158.92.143 3 4 180969 20180508213433
172.68.50.173 4 8 198212 20180502085945
162.158.154.198 0 1 167928 
108.162.237.167 0 1 1743 
108.162.215.167 0 2 3486 
108.162.250.6 0 2 39471 
172.69.134.190 1 1 39041 20180509145112
162.158.222.63 0 2 462314 
162.158.22.203 0 1 824 
172.69.62.63 1 1 23758 20180525204153
173.245.52.174 0 1 31900 
162.158.88.97 0 1 7629 
162.158.63.249 0 2 10621 
162.158.118.233 0 2 111484 
172.69.69.191 0 2 38504 
162.158.118.197 1 8 445988 20180513125330
172.68.144.188 0 2 32120 
172.69.62.59 2 2 47516 20180517015719
172.68.198.51 1 1 31014 20180524142503
172.69.134.238 0 1 26909 
162.158.63.35 1 1 31033 20180510113457
172.69.226.60 0 1 106414 
162.158.88.219 0 1 84511 
162.158.38.191 0 2 34907 
172.68.2.41 0 2 16433 
162.158.91.154 1 1 31016 20180530000804
108.162.221.178 0 1 73812 
162.158.2.11 8 9 363530 20180513102242
172.68.246.27 1 1 31014 20180503075054
162.158.167.241 0 9 29113 
172.68.144.84 0 1 167928 
108.162.246.6 0 9 49995 
172.68.47.89 1 1 31033 20180525145340
103.22.200.67 0 1 19252 
172.68.133.169 0 1 53470 
141.101.99.238 2 2 78374 20180524155103
172.68.58.124 3 3 93036 20180528131601
172.69.68.232 0 3 99049 
172.68.254.161 0 2 7547 
162.158.89.158 0 2 4860 
162.158.78.33 1 2 89586 20180528194818
172.68.143.169 0 8 3694 
172.68.65.197 3 4 117333 20180525204150
172.68.47.169 0 3 243327 
108.162.245.245 0 6 40129 
172.68.239.180 0 1 7269 
162.158.106.13 0 2 4860 
162.158.186.5 0 2 381617 
172.68.253.108 1 3 31928 20180514131132
162.158.39.18 0 1 35957 
172.68.58.162 0 1 213689 
162.158.126.101 0 2 462314 
172.68.2.65 1 3 52303 20180516062923
172.68.62.107 0 2 57485 
162.158.88.211 4 4 136238 20180522115126
172.68.146.171 3 3 93048 20180519145632
172.68.65.119 1 1 26207 20180525204155
172.68.47.13 1 1 31033 20180512041207
172.68.244.97 0 1 0 
141.101.88.185 0 2 221510 
173.245.48.226 1 1 31033 20180509073211
162.158.38.65 0 2 7547 
141.101.77.33 0 6 27924 
172.68.58.24 0 1 1743 
172.68.174.11 0 1 1743 
172.69.70.48 0 3 834 
162.158.154.114 0 1 8878 
162.158.22.149 0 2 98656 
108.162.216.11 1 1 31012 20180506194627
172.68.142.240 2 2 62034 20180516033119
172.68.215.53 0 2 24214 
172.68.142.244 1 1 31017 20180529230009
162.158.238.113 1 1 31012 20180510192256
162.158.59.197 1 1 31014 20180518215455
162.158.38.71 0 1 856 
172.68.86.95 0 2 36235 
172.68.58.204 0 1 2471 
162.158.93.136 0 1 105751 
172.68.144.194 1 1 31016 20180506084022
172.68.94.221 1 6 355738 20180509000559
172.68.51.171 0 1 1743 
162.158.154.222 0 1 538 
172.68.189.218 0 7 7629 
162.158.38.119 0 2 229739 
162.158.167.43 0 9 13962 
162.158.118.239 0 1 7269 
162.158.78.71 2 2 45310 20180517015753
162.158.88.91 0 2 184933 
162.158.79.232 0 1 1547 
172.68.254.143 0 1 3352 
172.68.11.198 0 1 225571 
172.68.143.121 1 1 31033 20180514125457
162.158.167.49 1 1 31016 20180514134238
172.68.146.43 0 1 91334 
172.68.11.102 0 1 0 
172.68.50.159 0 3 230196 
172.68.50.141 0 1 3352 
162.158.111.26 0 7 174678 
141.101.104.118 1 1 39041 20180520210611
141.101.98.87 0 2 46456 
172.68.63.6 1 2 31870 20180502100259
162.158.22.143 0 2 55936 
162.158.38.215 0 2 6440 
108.162.246.16 0 2 7697 
172.69.62.87 0 2 307170 
141.101.104.184 1 1 31014 20180528215917
172.69.33.174 0 1 167928 
172.68.2.77 0 1 29113 
172.68.51.57 0 1 110755 
103.22.200.223 0 4 1395225 
162.158.89.66 1 2 32563 20180523032339
162.158.91.100 5 5 171852 20180526224024
172.68.202.15 13 14 419805 20180531224734
108.162.246.24 0 2 221510 
162.158.222.93 0 4 74545 
162.158.78.231 0 1 13962 
162.158.91.66 0 12 163808 
172.69.158.35 3 3 93058 20180503122443
108.162.219.219 0 1 278 
108.162.249.203 0 3 42672 
141.101.99.246 4 4 156748 20180514235539
172.68.51.131 0 1 225571 
108.162.245.137 0 4 36791 
162.158.166.150 1 1 31016 20180505011929
162.158.90.221 0 1 856 
108.162.246.10 1 2 54948 20180521161447
172.68.142.6 0 1 3352 
141.101.98.185 0 2 182668 
162.158.90.251 0 1 91334 
172.68.255.151 0 1 0 
162.158.2.47 0 4 143127 
162.158.2.167 0 1 26909 
162.158.63.143 2 2 62034 20180507174008
108.162.221.172 2 2 62025 20180518134938
172.68.254.109 0 1 3007 
172.69.70.198 0 4 12352 
108.162.238.112 0 1 3088 
198.41.231.30 1 1 31016 20180508143638
162.158.167.239 0 1 7322 
162.158.19.28 1 1 31014 20180522164859
162.158.89.56 0 2 320103 
172.68.86.107 0 2 187267 
162.158.89.44 0 1 73812 
172.68.143.19 0 1 167928 
108.162.237.183 0 1 26909 
162.158.78.227 0 2 27924 
141.101.105.169 1 2 198942 20180513193732
162.158.91.102 0 1 134776 
162.158.165.137 0 2 3474 
172.69.62.29 0 4 47142 
172.68.34.87 0 2 25783 
172.68.142.48 0 1 7269 
162.158.126.105 0 1 5267 
197.234.242.179 2 4 215406 20180517140543
162.158.165.149 1 1 39024 20180508142235
162.158.119.66 0 1 110755 
173.245.52.152 1 1 0 20180502222613
162.158.150.107 1 1 31016 20180501194946
162.158.78.23 0 2 191866 
172.68.215.63 0 2 222567 
172.68.110.53 2 2 62032 20180507051657
108.162.249.197 1 2 33487 20180506123346
172.68.50.179 0 1 7322 
172.69.22.87 1 1 31016 20180512080056
108.162.249.23 0 2 1712 
108.162.221.154 0 2 14644 
172.69.62.45 0 2 221510 
141.101.88.59 0 1 117582 
162.158.202.155 1 1 31012 20180508024112
172.68.11.216 1 1 31012 20180517182717
172.68.65.223 2 2 78082 20180517015750
108.162.226.210 1 1 31016 20180518214955
108.162.238.156 0 1 23936 
172.68.10.71 0 1 55742 
172.68.141.143 1 1 31033 20180501230107
172.68.215.70 0 3 92909 
108.162.221.52 0 1 116 
172.68.144.240 0 7 199495 
162.158.111.92 0 8 1313417 
172.69.70.108 0 1 89490 
172.68.255.63 0 1 1743 
172.69.62.177 0 1 2430 
162.158.90.161 1 1 31016 20180522084232
108.162.229.137 0 4 381036 
172.68.143.53 6 6 186088 20180531135700
162.158.89.230 0 1 77890 
162.158.2.5 0 2 228923 
162.158.88.87 0 2 184933 
162.158.88.207 1 1 31016 20180514125353
172.68.11.34 4 4 157743 20180526140834
162.158.126.81 1 3 125436 20180526092657
172.68.50.153 0 1 7322 
172.68.215.30 1 2 38285 20180510222750
172.68.50.171 0 2 20244 
172.68.142.222 0 1 58574 
108.162.229.107 3 3 93042 20180518182920
172.68.50.185 1 1 31019 20180502085945
172.68.211.47 0 1 7269 
162.158.111.104 0 1 26909 
141.101.88.191 9 11 351043 20180518083212
172.68.189.36 1 1 31033 20180523120859
162.158.89.128 0 1 824 
172.68.246.225 0 2 180494 
172.69.33.156 1 1 31016 20180509074633
162.158.222.45 0 4 126402 
162.158.202.101 1 1 31016 20180516205818
141.101.99.12 1 1 31016 20180507205858
172.69.22.19 1 1 31016 20180522071713
172.68.244.109 1 2 173796 20180505052234
172.68.58.150 0 1 26909 
172.68.51.53 0 3 332265 
162.158.155.87 0 2 47872 
141.101.69.88 2 2 62032 20180510182052
162.158.134.101 2 4 103918 20180510150614
141.101.107.109 0 1 213689 
162.158.91.112 1 1 31014 20180524135222
172.68.239.10 1 1 31012 20180525235934
172.68.238.101 1 1 31014 20180511090645
172.68.253.114 1 3 961166 20180514080859
141.101.96.208 0 1 167928 
162.158.78.147 0 4 190383 
108.162.246.40 4 5 191331 20180528074812
172.68.141.233 1 1 31033 20180514073643
162.158.6.17 1 1 31016 20180518121100
162.158.154.224 2 2 60714 20180502152359
108.162.249.185 0 2 309622 
172.68.133.109 2 2 31033 20180514125619
162.158.118.17 0 1 1743 
172.69.134.118 0 1 137937 
172.68.144.66 0 1 856 
172.68.51.143 1 1 31033 20180502212654
172.68.2.47 0 1 457047 
162.158.134.47 0 1 2430 
162.158.90.83 0 1 278 
162.158.62.184 1 1 31033 20180510120034
141.101.77.79 0 1 0 
141.101.107.217 0 2 914094 
108.162.229.77 1 3 215262 20180516200214
108.162.237.231 0 1 2471 
172.68.65.187 0 2 3474 
172.69.130.105 1 1 31012 20180528070049
108.162.249.71 0 3 36920 
172.68.51.21 0 2 3545 
162.158.126.75 0 1 110755 
162.158.166.216 1 1 31033 20180510060323
172.69.226.12 0 2 17756 
162.158.111.30 0 1 0 
173.245.48.118 0 2 6704 
162.158.2.143 0 1 856 
172.69.69.101 0 4 116452 
172.69.134.70 2 2 62032 20180517135748
172.68.51.213 0 1 2471 
172.69.186.5 0 2 98940 
108.162.229.119 1 1 25236 20180510182122
172.68.142.174 0 1 1743 
172.68.141.65 1 2 85774 20180512041243
162.158.88.229 1 2 0 20180531191139
172.68.253.154 3 3 93042 20180530052809
172.68.94.161 0 1 538 
172.68.238.185 3 3 93036 20180504045346
172.68.58.228 0 1 0 
141.101.107.169 1 3 69516 20180507233851
172.68.51.129 0 2 82651 
108.162.245.47 0 5 145565 
162.158.93.62 5 5 196782 20180525204551
172.68.62.251 0 1 153585 
162.158.50.171 1 1 31016 20180521023612
197.234.242.119 0 3 232746 
162.158.50.173 1 1 31016 20180519124110
172.68.62.173 0 1 31900 
103.22.200.73 1 4 477186 20180517061219
162.158.179.69 0 1 29113 
172.68.51.191 0 3 65537 
172.68.211.203 1 1 31033 20180509074320
108.162.229.239 2 2 53671 20180513201000
162.158.255.149 0 1 84511 
172.68.65.169 1 1 31016 20180513220314
141.101.98.165 0 1 91334 
172.68.50.143 1 1 31016 20180514203020
172.69.134.220 0 9 71914 
162.158.255.45 3 3 93048 20180529133811
141.101.107.49 1 1 31012 20180518234948
172.68.10.53 0 2 10357 
162.158.106.59 0 1 29113 
108.162.246.234 0 3 287799 
162.158.167.215 0 4 2968 
162.158.62.146 0 2 458790 
162.158.38.29 0 1 213689 
172.69.33.198 0 1 2471 
108.162.246.54 0 1 1847 
162.158.38.113 0 1 167928 
162.158.89.198 0 2 13962 
162.158.58.106 0 2 556 
141.101.104.180 1 1 31016 20180502085106
172.69.134.160 2 2 0 20180514111517
172.68.144.192 0 1 16060 
172.68.246.127 1 1 31014 20180524162700
108.162.249.89 4 9 412777 20180506123421
162.158.78.123 1 3 67906 20180525204201
172.68.189.188 0 1 67415 
141.101.107.127 0 2 111484 
172.68.62.209 0 1 3007 
172.68.141.53 2 2 62045 20180516152831
172.68.141.5 0 8 47872 
172.69.62.75 0 1 14977 
108.162.245.117 0 1 538 
108.162.245.35 0 1 19252 
141.101.104.252 0 3 289735 
162.158.165.57 1 1 31033 20180520024843
198.41.238.53 0 2 4173 
172.69.134.58 1 1 31016 20180506110420
162.158.155.13 0 1 1743 
172.69.134.10 1 1 31016 20180505175243
172.68.51.189 0 2 59893 
162.158.2.23 0 1 16038 
172.68.253.126 0 2 3694 
141.101.99.156 0 3 21807 
172.68.141.161 1 1 31033 20180514124252
162.158.2.107 0 2 458790 
162.158.78.179 0 2 175880 
162.158.111.236 1 1 31012 20180504153649
108.162.245.107 0 1 26909 
162.158.126.63 1 2 165790 20180528170105
172.68.51.65 0 6 256462 
173.245.48.80 0 1 0 
162.158.255.185 2 2 62034 20180506125158
172.68.239.90 10 10 310140 20180515195632
162.158.74.100 0 1 12409 
108.162.221.22 1 1 31012 20180510073219
172.68.144.80 0 1 167928 
172.69.62.93 0 1 160781 
141.101.88.131 0 2 3094 
108.162.245.249 0 1 23936 
162.158.106.131 0 1 2430 
172.68.211.33 1 1 31016 20180521124132
172.69.71.37 0 1 1737 
162.158.106.25 0 5 456670 
197.234.242.71 0 1 12409 
172.69.69.143 0 2 134607 
141.101.96.184 0 1 29113 
172.68.94.131 0 1 465075 
162.158.165.99 0 3 0 
172.69.158.29 4 4 124091 20180504220452
162.158.6.119 0 1 7269 
172.68.245.110 0 1 0 
172.69.54.14 1 1 22476 20180526145027
162.158.126.17 0 4 16860 
162.158.22.5 0 2 43075 
172.68.132.58 3 3 93054 20180529145334
END_VISITOR

# Date - Pages - Hits - Bandwidth - Visits
BEGIN_DAY 31
20180501 89 515 27855863 26
20180502 101 196 7915447 62
20180503 69 86 2249517 52
20180504 60 166 5920341 43
20180505 73 129 3469139 45
20180506 68 227 11618251 42
20180507 33 80 2912445 27
20180508 62 166 5338137 33
20180509 96 310 15024219 72
20180510 85 395 18880976 61
20180511 118 182 6860733 52
20180512 53 120 3058923 45
20180513 63 114 4613500 32
20180514 126 418 19528423 58
20180515 59 137 3633326 41
20180516 98 289 12883739 50
20180517 61 235 10099848 48
20180518 69 187 7259346 35
20180519 41 86 3310347 34
20180520 9 13 328962 8
20180521 25 81 3335600 21
20180522 37 56 1119485 30
20180523 32 137 6083696 23
20180524 39 102 2747309 27
20180525 77 132 5534340 48
20180526 62 185 8485894 37
20180527 17 25 659460 15
20180528 60 134 6398510 39
20180529 16 33 456475 16
20180530 26 94 3242299 19
20180531 27 64 2939148 20
END_DAY

# Session range - Number of visits
BEGIN_SESSION 7
30mn-1h 38
0s-30s 1002
15mn-30mn 21
2mn-5mn 21
1h+ 11
30s-2mn 38
5mn-15mn 30
END_SESSION

# URL - Pages - Bandwidth - Entry - Exit
# The 25 first Pages must be first (order not required for others)
BEGIN_SIDER 34
/ 1241 36840102 944 938
/contact-us 103 4010089 40 44
/gallery 67 2390380 31 31
/about-us 47 1042074 7 14
/accommodation/super-deluxe-rooms 35 828315 7 8
/contact-us.php 34 1289389 20 19
/accommodation/standard-rooms 31 736412 12 8
/accommodation 29 773044 9 3
/promotions 29 702180 11 12
/ipms247.php 25 841738 0 0
/accommodation/deluxe-rooms 24 568458 7 6
/suites.php 23 622686 11 9
/location 22 493084 6 10
/facilities 20 497852 5 8
/facilities/restaurant 19 426232 4 8
/facilities/swimming-pool 17 394967 7 6
/index.php 14 434356 11 13
/terms-and-conditions 11 280631 4 3
/privacy-policy 11 270143 4 6
/promotions.php 9 218744 6 2
/downloads 8 192429 7 3
/swimming-pool.php 7 176633 2 1
/accommodation.php 6 165849 5 6
/accommodation/about-us 3 45817 0 0
/sitemap.xml 2 3918 0 0
/privacy-policy.php 1 27001 1 1
/facilities.php 1 26207 0 1
/accommodation/ 1 27659 0 0
/accommodation/terms-and-conditions 2 28929 0 0
/facilities/terms-and-conditions 2 28929 0 0
/accommodation/accommodation 1 25995 0 0
/facilities/about-us 2 22907 0 0
/accommodation/privacy-policy 2 27819 0 0
/facilities/privacy-policy 2 27819 0 1
END_SIDER
