AWSTATS DATA FILE 7.7 (build 20180105)
# If you remove this file, all statistics for date 201905 will be lost/reset.
# Last config file used to build this data file was /home2/fyfxamvcmvss/tmp/awstats/awstats.randholeeresort.freudenbergleisure.lk.conf.

# Position (offset in bytes) in this file for beginning of each section for
# direct I/O access. If you made changes somewhere in this file, you should
# also remove completely the MAP section (AWStats will rewrite it at next
# update).
BEGIN_MAP 28
POS_GENERAL 2039                
POS_TIME 2699                
POS_VISITOR 6701                
POS_DAY 7379                
POS_DOMAIN 3360                
POS_LOGIN 3678                
POS_ROBOT 3833                
POS_WORMS 4300                
POS_EMAILSENDER 4431                
POS_EMAILRECEIVER 4574                
POS_SESSION 7648                
POS_SIDER 7795                
POS_FILETYPES 4709                
POS_DOWNLOADS 4809                
POS_OS 4857                
POS_BROWSER 4997                
POS_SCREENSIZE 5214                
POS_UNKNOWNREFERER 5288                
POS_UNKNOWNREFERERBROWSER 5570                
POS_ORIGIN 5652                
POS_SEREFERRALS 5784                
POS_PAGEREFS 5941                
POS_SEARCHWORDS 6089                
POS_KEYWORDS 6241                
POS_MISC 2363                
POS_ERRORS 6300                
POS_CLUSTER 3534                
POS_SIDER_404 6392                
END_MAP

# LastLine    = Date of last record processed - Last record line number in last log - Last record offset in last log - Last record signature value
# FirstTime   = Date of first visit for history file
# LastTime    = Date of last visit for history file
# LastUpdate  = Date of last update - Nb of parsed records - Nb of parsed old records - Nb of parsed new records - Nb of parsed corrupted - Nb of parsed dropped
# TotalVisits = Number of visits
# TotalUnique = Number of unique visitors
# MonthHostsKnown   = Number of hosts known
# MonthHostsUnKnown = Number of hosts unknown
BEGIN_GENERAL 8
LastLine 20190601045904 2 162 9887603672859
FirstTime 0
LastTime 20190527185728
LastUpdate 20190601174654 2 0 1 0 0
TotalVisits 14                  
TotalUnique 14                  
MonthHostsKnown 0                   
MonthHostsUnknown 14                  
END_GENERAL

# Misc ID - Pages - Hits - Bandwidth
BEGIN_MISC 10
JavaEnabled 0 0 0
PDFSupport 0 0 0
JavascriptDisabled 0 0 0
DirectorSupport 0 0 0
WindowsMediaPlayerSupport 0 0 0
TotalMisc 0 0 0
FlashSupport 0 0 0
RealPlayerSupport 0 0 0
QuickTimeSupport 0 0 0
AddToFavourites 0 0 0
END_MISC

# Hour - Pages - Hits - Bandwidth - Not viewed Pages - Not viewed Hits - Not viewed Bandwidth
BEGIN_TIME 24
0 0 0 0 3 18 417692
1 1 1 32478 6 16 399610
2 0 0 0 4 19 470442
3 0 0 0 4 13 334230
4 0 0 0 5 12 436138
5 0 0 0 2 9 201446
6 1 1 32478 4 21 911334
7 0 0 0 1 2 64574
8 0 0 0 3 7 188242
9 1 2 170014 7 38 1425550
10 1 2 170014 1 5 143837
11 0 0 0 3 8 210944
12 1 1 32478 8 12 291976
13 1 1 32478 6 11 279050
14 1 1 32478 1 1 32478
15 1 1 32478 1 2 47944
16 2 2 64956 2 10 246572
17 1 1 32478 2 4 110360
18 1 1 32478 3 10 256348
19 0 0 0 1 3 77882
20 1 1 32478 4 8 220720
21 1 1 32478 3 26 1012749
22 0 0 0 1 3 77882
23 0 0 0 3 10 256348
END_TIME

# Domain - Pages - Hits - Bandwidth
# The 25 first Pages must be first (order not required for others)
BEGIN_DOMAIN 8
ip 4 4 129912
ru 3 4 234970
us 2 2 64956
it 1 1 32478
eu 1 1 32478
lk 1 2 170014
gb 1 1 32478
ca 1 1 32478
END_DOMAIN

# Cluster ID - Pages - Hits - Bandwidth
BEGIN_CLUSTER 0
END_CLUSTER

# Login - Pages - Hits - Bandwidth - Last visit
# The 10 first Pages must be first (order not required for others)
BEGIN_LOGIN 0
END_LOGIN

# Robot ID - Hits - Bandwidth - Last visit - Hits on robots.txt
# The 25 first Hits must be first (order not required for others)
BEGIN_ROBOT 8
Googlebot/ 83 3381176 20190531130324 0
YandexBot/ 20 649560 20190530233622 0
bot[\s_+:,\.\;\/\\-] 6 194868 20190531204420 0
Mail\.RU_Bot/ 3 97434 20190515023705 0
(firefox/)([0-9]\.|[0-1][0]\.) 2 64956 20190525095638 0
bingbot/ 2 170014 20190503095214 0
SemrushBot/ 2 36206 20190517000805 0
Googlebot\-Image/ 1 137536 20190510041952 0
END_ROBOT

# Worm ID - Hits - Bandwidth - Last visit
# The 5 first Hits must be first (order not required for others)
BEGIN_WORMS 0
END_WORMS

# EMail - Hits - Bandwidth - Last visit
# The 20 first Hits must be first (order not required for others)
BEGIN_EMAILSENDER 0
END_EMAILSENDER

# EMail - Hits - Bandwidth - Last visit
# The 20 first hits must be first (order not required for others)
BEGIN_EMAILRECEIVER 0
END_EMAILRECEIVER

# Files type - Hits - Bandwidth - Bandwidth without compression - Bandwidth after compression
BEGIN_FILETYPES 2
png 2 275072 0 0
html 14 454692 0 0
END_FILETYPES

# Downloads - Hits - Bandwidth
BEGIN_DOWNLOADS 0
END_DOWNLOADS

# OS ID - Hits
BEGIN_OS ID - Hits - Pages 7
win10 3 2
winlong 1 1
win7 2 2
winxp 2 1
Unknown 6 6
win8 1 1
ios_ipad 1 1
END_OS

# Browser ID - Hits - Pages
BEGIN_BROWSER 9
mozilla 2 2
msie10.0 2 2
safari12.0 1 1
firefox65.0 1 1
chrome34.0.1847.116 1 1
chrome49.0.2623.112 2 1
chrome74.0.3729.169 2 1
cloudflare 4 4
chrome63.0.3239.132 1 1
END_BROWSER

# Screen size - Hits
BEGIN_SCREENSIZE 0
END_SCREENSIZE

# Unknown referer OS - Last visit date
BEGIN_UNKNOWNREFERER 2
Mozilla/5.0_(compatible;_NetcraftSurveyAgent/1.0;__info@netcraft.com) 20190507015402
Mozilla/5.0_(compatible;_CloudFlare-AlwaysOnline/1.0;_http://www.cloudflare.com/always-online) 20190527185728
END_UNKNOWNREFERER

# Unknown referer Browser - Last visit date
BEGIN_UNKNOWNREFERERBROWSER 0
END_UNKNOWNREFERERBROWSER

# Origin - Pages - Hits 
BEGIN_ORIGIN 6
From0 10 12
From1 0 0
From2 3 3
From3 0 0
From4 1 1
From5 0 0
END_ORIGIN

# Search engine referers ID - Pages - Hits
BEGIN_SEREFERRALS 1
yandexru 3 3
END_SEREFERRALS

# External page referers - Pages - Hits
# The 25 first Pages must be first (order not required for others)
BEGIN_PAGEREFS 0
END_PAGEREFS

# Search keyphrases - Number of search
# The 10 first number of search must be first (order not required for others)
BEGIN_SEARCHWORDS 0
END_SEARCHWORDS

# Search keywords - Number of search
# The 25 first number of search must be first (order not required for others)
BEGIN_KEYWORDS 0
END_KEYWORDS

# Errors - Hits - Bandwidth
BEGIN_ERRORS 1
302 149 3382598
END_ERRORS

# URL with 404 errors - Hits - Last URL referrer
BEGIN_SIDER_404 0
END_SIDER_404

# Host - Pages - Hits - Bandwidth - Last visit date - [Start date of last visit] - [Last page of last visit]
# [Start date of last visit] and [Last page of last visit] are saved only if session is not finished
# The 25 first Hits must be first (order not required for others)
BEGIN_VISITOR 14
124.43.17.1 1 2 170014 20190527103754
2400:cb00:36:1047::a29e:42c6 1 1 32478 20190527185728
2400:cb00:36:1002::a29e:402d 1 1 32478 20190505154959
165.227.217.109 1 1 32478 20190504160344
2400:cb00:36:1003::a29e:4042 1 1 32478 20190512165111
193.70.34.209 1 1 32478 20190519205445
37.204.19.102 1 2 170014 20190512090611
51.38.34.80 1 1 32478 20190520122207
5.228.124.110 1 1 32478 20190503170333
2400:cb00:36:1011::a29e:4684 1 1 32478 20190519214840
178.62.82.141 1 1 32478 20190502063115
142.93.187.104 1 1 32478 20190507015402
3.89.13.27 1 1 32478 20190502141911
128.69.144.156 1 1 32478 20190526133111
END_VISITOR

# Date - Pages - Hits - Bandwidth - Visits
BEGIN_DAY 10
20190502 2 2 64956 2
20190503 1 1 32478 1
20190504 1 1 32478 1
20190505 1 1 32478 1
20190507 1 1 32478 1
20190512 2 3 202492 2
20190519 2 2 64956 2
20190520 1 1 32478 1
20190526 1 1 32478 1
20190527 2 3 202492 2
END_DAY

# Session range - Number of visits
BEGIN_SESSION 1
0s-30s 14
END_SESSION

# URL - Pages - Bandwidth - Entry - Exit
# The 25 first Pages must be first (order not required for others)
BEGIN_SIDER 1
/ 14 454692 14 14
END_SIDER
