AWSTATS DATA FILE 7.4 (build 20140726)
# If you remove this file, all statistics for date 201606 will be lost/reset.
# Last config file used to build this data file was /home/fyfxamvcmvss/tmp/awstats/awstats.freudenbergleisure.com.conf.

# Position (offset in bytes) in this file for beginning of each section for
# direct I/O access. If you made changes somewhere in this file, you should
# also remove completely the MAP section (AWStats will rewrite it at next
# update).
BEGIN_MAP 28
POS_GENERAL 2023                
POS_TIME 2683                
POS_VISITOR 6308                
POS_DAY 6457                
POS_DOMAIN 3311                
POS_LOGIN 3543                
POS_ROBOT 3698                
POS_WORMS 3943                
POS_EMAILSENDER 4074                
POS_EMAILRECEIVER 4217                
POS_SESSION 6566                
POS_SIDER 6713                
POS_FILETYPES 4352                
POS_DOWNLOADS 4564                
POS_OS 4612                
POS_BROWSER 4801                
POS_SCREENSIZE 5030                
POS_UNKNOWNREFERER 5104                
POS_UNKNOWNREFERERBROWSER 5191                
POS_ORIGIN 5273                
POS_SEREFERRALS 5406                
POS_PAGEREFS 5550                
POS_SEARCHWORDS 5698                
POS_KEYWORDS 5850                
POS_MISC 2346                
POS_ERRORS 5909                
POS_CLUSTER 3399                
POS_SIDER_404 5999                
END_MAP

# LastLine    = Date of last record processed - Last record line number in last log - Last record offset in last log - Last record signature value
# FirstTime   = Date of first visit for history file
# LastTime    = Date of last visit for history file
# LastUpdate  = Date of last update - Nb of parsed records - Nb of parsed old records - Nb of parsed new records - Nb of parsed corrupted - Nb of parsed dropped
# TotalVisits = Number of visits
# TotalUnique = Number of unique visitors
# MonthHostsKnown   = Number of hosts known
# MonthHostsUnKnown = Number of hosts unknown
BEGIN_GENERAL 8
LastLine 20160824125855 1 0 13047774610824
FirstTime 0
LastTime 20160617122151
LastUpdate 20160824173420 1 0 0 0 0
TotalVisits 2                   
TotalUnique 1                   
MonthHostsKnown 0                   
MonthHostsUnknown 2                   
END_GENERAL

# Misc ID - Pages - Hits - Bandwidth
BEGIN_MISC 10
PDFSupport 0 0 0
DirectorSupport 0 0 0
RealPlayerSupport 0 0 0
AddToFavourites 0 40 0
FlashSupport 0 0 0
WindowsMediaPlayerSupport 0 0 0
QuickTimeSupport 0 0 0
JavascriptDisabled 0 0 0
JavaEnabled 0 0 0
TotalMisc 0 0 0
END_MISC

# Hour - Pages - Hits - Bandwidth - Not viewed Pages - Not viewed Hits - Not viewed Bandwidth
BEGIN_TIME 24
0 0 0 0 0 0 0
1 0 38 1462009 1 2 5630
2 0 0 0 1 1 6139
3 0 0 0 0 0 0
4 0 0 0 0 0 0
5 0 0 0 0 0 0
6 0 0 0 0 0 0
7 0 0 0 0 0 0
8 0 190 16731733 0 3 21193
9 0 276 19780896 1 11 151965
10 0 76 2924018 0 2 9424
11 0 70 5137509 0 0 0
12 8 245 18818986 0 14 193183
13 0 200 11567651 0 6 132585
14 0 364 25347376 0 7 33407
15 4 475 37900523 0 8 80418
16 0 172 9949124 0 5 30617
17 0 0 0 0 0 0
18 0 89 3650909 0 22 77234
19 0 0 0 0 0 0
20 0 58 2541036 0 2 9424
21 0 0 0 0 0 0
22 0 0 0 0 0 0
23 0 0 0 0 7 25999
END_TIME

# Domain - Pages - Hits - Bandwidth
# The 25 first Pages must be first (order not required for others)
BEGIN_DOMAIN 1
zz 12 2253 155811770
END_DOMAIN

# Cluster ID - Pages - Hits - Bandwidth
BEGIN_CLUSTER 0
END_CLUSTER

# Login - Pages - Hits - Bandwidth - Last visit
# The 10 first Pages must be first (order not required for others)
BEGIN_LOGIN 0
END_LOGIN

# Robot ID - Hits - Bandwidth - Last visit - Hits on robots.txt
# The 25 first Hits must be first (order not required for others)
BEGIN_ROBOT 3
bot[\s_+:,\.\;\/\\-] 22 80675 20160617093050 0
googlebot 17 312188 20160617132843 0
slurp 1 918 20160617010905 0
END_ROBOT

# Worm ID - Hits - Bandwidth - Last visit
# The 5 first Hits must be first (order not required for others)
BEGIN_WORMS 0
END_WORMS

# EMail - Hits - Bandwidth - Last visit
# The 20 first Hits must be first (order not required for others)
BEGIN_EMAILSENDER 0
END_EMAILSENDER

# EMail - Hits - Bandwidth - Last visit
# The 20 first hits must be first (order not required for others)
BEGIN_EMAILRECEIVER 0
END_EMAILRECEIVER

# Files type - Hits - Bandwidth - Bandwidth without compression - Bandwidth after compression
BEGIN_FILETYPES 8
jpg 993 137810204 0 0
html 8 18849 0 0
png 278 7455746 0 0
gif 8 12249 0 0
swf 4 479692 0 0
css 347 1528744 0 0
jpeg 4 76984 0 0
js 611 8429302 0 0
END_FILETYPES

# Downloads - Hits - Bandwidth
BEGIN_DOWNLOADS 0
END_DOWNLOADS

# OS ID - Hits
BEGIN_OS ID - Hits - Pages 9
win8.1 621 4
winxp 39 0
linuxubuntu 180 0
win7 277 0
linux 42 4
linuxandroid 38 0
ios_ipad 1 0
ios_iphone 12 0
winnt 1043 4
END_OS

# Browser ID - Hits - Pages
BEGIN_BROWSER 9
firefox44.0 4 4
chrome51.0.2704.84 1681 8
netscape5.0 13 0
chrome50.0.2661.102 180 0
safari 38 0
chrome51.0.2704.103 159 0
chrome27.0.1453 38 0
firefox47.0 101 0
firefox21.0 39 0
END_BROWSER

# Screen size - Hits
BEGIN_SCREENSIZE 0
END_SCREENSIZE

# Unknown referer OS - Last visit date
BEGIN_UNKNOWNREFERER 0
END_UNKNOWNREFERER

# Unknown referer Browser - Last visit date
BEGIN_UNKNOWNREFERERBROWSER 0
END_UNKNOWNREFERERBROWSER

# Origin - Pages - Hits 
BEGIN_ORIGIN 6
From0 4 4
From1 0 0
From2 0 0
From3 0 0
From4 8 2249
From5 0 0
END_ORIGIN

# Search engine referers ID - Pages - Hits
BEGIN_SEREFERRALS 0
END_SEREFERRALS

# External page referers - Pages - Hits
# The 25 first Pages must be first (order not required for others)
BEGIN_PAGEREFS 0
END_PAGEREFS

# Search keyphrases - Number of search
# The 10 first number of search must be first (order not required for others)
BEGIN_SEARCHWORDS 0
END_SEARCHWORDS

# Search keywords - Number of search
# The 25 first number of search must be first (order not required for others)
BEGIN_KEYWORDS 0
END_KEYWORDS

# Errors - Hits - Bandwidth
BEGIN_ERRORS 1
206 10 177652
END_ERRORS

# URL with 404 errors - Hits - Last URL referrer
BEGIN_SIDER_404 0
END_SIDER_404

# Host - Pages - Hits - Bandwidth - Last visit date - [Start date of last visit] - [Last page of last visit]
# [Start date of last visit] and [Last page of last visit] are saved only if session is not finished
# The 25 first Hits must be first (order not required for others)
BEGIN_VISITOR 2
10.183.252.102 12 2053 144244119 20160617122151
10.189.245.6 0 200 11567651 
END_VISITOR

# Date - Pages - Hits - Bandwidth - Visits
BEGIN_DAY 2
20160616 4 1358 90956619 1
20160617 8 895 64855151 1
END_DAY

# Session range - Number of visits
BEGIN_SESSION 1
30s-2mn 2
END_SESSION

# URL - Pages - Bandwidth - Entry - Exit
# The 25 first Pages must be first (order not required for others)
BEGIN_SIDER 8
/hotels/firs/assets/360/reinhart_room-home.html 3 8159 0 1
/hotels/firs/assets/360/lobby-home.html 3 8155 1 0
/hotels/randholee/assets/360/poolview.swf 1 120745 0 0
/hotels/randholee/assets/360/lobbyview.swf 1 120824 0 1
/hotels/firs/assets/360/lobby/Output.swf 1 119031 0 0
/hotels/randholee/assets/360/poolview.html 1 1265 1 0
/hotels/firs/assets/360/reinhart_room/build.swf 1 119092 0 0
/hotels/randholee/assets/360/lobbyview.html 1 1270 0 0
END_SIDER
