AWSTATS DATA FILE 7.7 (build 20180105)
# If you remove this file, all statistics for date 201904 will be lost/reset.
# Last config file used to build this data file was /home2/fyfxamvcmvss/tmp/awstats/awstats.ellensplace.freudenbergleisure.com.conf.

# Position (offset in bytes) in this file for beginning of each section for
# direct I/O access. If you made changes somewhere in this file, you should
# also remove completely the MAP section (AWStats will rewrite it at next
# update).
BEGIN_MAP 28
POS_GENERAL 2036                
POS_TIME 2715                
POS_VISITOR 13531               
POS_DAY 37596               
POS_DOMAIN 3633                
POS_LOGIN 4496                
POS_ROBOT 4651                
POS_WORMS 6156                
POS_EMAILSENDER 6287                
POS_EMAILRECEIVER 6430                
POS_SESSION 38443               
POS_SIDER 38649               
POS_FILETYPES 6565                
POS_DOWNLOADS 6809                
POS_OS 6857                
POS_BROWSER 7197                
POS_SCREENSIZE 9858                
POS_UNKNOWNREFERER 9932                
POS_UNKNOWNREFERERBROWSER 11372               
POS_ORIGIN 11940               
POS_SEREFERRALS 12085               
POS_PAGEREFS 12460               
POS_SEARCHWORDS 12917               
POS_KEYWORDS 13069               
POS_MISC 2378                
POS_ERRORS 13128               
POS_CLUSTER 4352                
POS_SIDER_404 13222               
END_MAP

# LastLine    = Date of last record processed - Last record line number in last log - Last record offset in last log - Last record signature value
# FirstTime   = Date of first visit for history file
# LastTime    = Date of last visit for history file
# LastUpdate  = Date of last update - Nb of parsed records - Nb of parsed old records - Nb of parsed new records - Nb of parsed corrupted - Nb of parsed dropped
# TotalVisits = Number of visits
# TotalUnique = Number of unique visitors
# MonthHostsKnown   = Number of hosts known
# MonthHostsUnKnown = Number of hosts unknown
BEGIN_GENERAL 8
LastLine 20190501001916 41 8537 10475551360475
FirstTime 20190401001445
LastTime 20190430202649
LastUpdate 20190501174754 41 0 40 0 0
TotalVisits 663                 
TotalUnique 524                 
MonthHostsKnown 0                   
MonthHostsUnknown 590                 
END_GENERAL

# Misc ID - Pages - Hits - Bandwidth
BEGIN_MISC 10
FlashSupport 0 0 0
AddToFavourites 0 94 0
JavaEnabled 0 0 0
JavascriptDisabled 0 0 0
WindowsMediaPlayerSupport 0 0 0
QuickTimeSupport 0 0 0
TotalMisc 0 0 0
RealPlayerSupport 0 0 0
DirectorSupport 0 0 0
PDFSupport 0 0 0
END_MISC

# Hour - Pages - Hits - Bandwidth - Not viewed Pages - Not viewed Hits - Not viewed Bandwidth
BEGIN_TIME 24
0 50 123 5626943 113 235 5427119
1 43 110 4720117 136 222 5644355
2 105 144 4952808 118 271 6331624
3 26 57 1762582 111 186 4811558
4 22 26 918926 143 224 5361032
5 26 42 2141629 71 175 4939817
6 21 73 2746982 131 215 6058663
7 29 60 1987075 62 212 5149838
8 55 120 5083391 102 179 4426555
9 178 279 12529284 338 632 14937239
10 51 137 6229774 84 193 5068509
11 141 231 10001072 130 219 5343826
12 96 203 8382641 81 175 5222588
13 85 133 4686973 89 190 5408999
14 91 124 4731274 107 182 5030692
15 69 82 3258593 53 145 4007921
16 81 134 6543947 173 233 5635853
17 74 176 8806548 146 231 6015880
18 31 112 5053430 94 173 4683533
19 56 116 5087308 63 187 5307165
20 31 69 3579846 126 207 4844554
21 61 105 4817293 92 221 5917926
22 27 50 2430911 98 198 5058457
23 30 86 5568741 97 180 5223382
END_TIME

# Domain - Pages - Hits - Bandwidth
# The 25 first Pages must be first (order not required for others)
BEGIN_DOMAIN 43
us 671 1062 39367513
lk 189 401 16805517
ru 132 163 7508246
ip 84 388 19350697
cn 47 69 2209780
in 45 89 4163501
pt 38 38 1506381
au 38 124 6349863
de 34 35 1023282
ca 33 56 3316051
gb 33 48 1340834
fr 22 52 3775349
nl 20 45 3126783
dk 16 38 2405693
kr 8 11 277889
jp 7 15 1115910
ua 6 6 188296
gr 5 11 1074134
id 5 41 3124698
it 4 5 132797
ro 4 4 125570
ph 4 32 1443823
cl 3 3 94148
es 3 4 101423
zz 3 3 118864
hn 1 1 39394
il 1 1 31386
th 2 14 393898
pl 2 2 62768
kh 1 1 31384
al 1 3 231214
dm 2 2 62784
hr 2 2 67438
se 2 2 62784
hu 1 1 28028
lv 1 1 28750
eg 1 1 31382
hk 2 10 333385
ma 1 1 31384
kz 2 3 63624
ch 1 2 38671
ae 1 1 31386
co 1 1 31386
END_DOMAIN

# Cluster ID - Pages - Hits - Bandwidth
BEGIN_CLUSTER 0
END_CLUSTER

# Login - Pages - Hits - Bandwidth - Last visit
# The 10 first Pages must be first (order not required for others)
BEGIN_LOGIN 0
END_LOGIN

# Robot ID - Hits - Bandwidth - Last visit - Hits on robots.txt
# The 25 first Hits must be first (order not required for others)
BEGIN_ROBOT 34
Googlebot/ 498 16199827 20190430102710 0
bingbot/ 347 12431172 20190430181700 0
bot[\s_+:,\.\;\/\\-] 122 3829084 20190430230102 0
(firefox/)([0-9]\.|[0-1][0]\.) 106 3627415 20190430231042 0
bingpreview 99 5338715 20190430125838 0
YandexBot/ 82 2505519 20190430104237 0
Baiduspider/ 62 1914720 20190430221618 0
Applebot/ 55 1580180 20190430194340 0
SeznamBot/ 48 2092173 20190428222550 0
Uptimebot/ 48 1506386 20190430184245 0
Sogou[\x20]web[\x20]spider/ 42 1318458 20190428235047 0
no_user_agent 41 1138933 20190429020559 0
SemrushBot/ 30 876927 20190421185359 0
MegaIndex\.ru/ 28 782543 20190411133022 0
oBot/ 26 719238 20190423031314 0
DotBot/ 26 725798 20190423231611 0
aiHitBot/ 21 584009 20190428095644 0
CCBot/ 19 539933 20190424231852 0
AhrefsBot/ 16 464313 20190417201530 0
Mail\.RU_Bot/ 13 408106 20190430184542 0
Exabot/ 12 364330 20190424041421 0
facebookexternalhit/ 12 328398 20190430163636 0
spider 10 191697 20190416104448 0
YandexImages/ 10 777927 20190420195152 0
PhantomJS 9 178167 20190413224045 0
SafeDNSBot 2 62770 20190410184152 0
HubSpot[\x20]Webcrawler 6 692921 20190416051916 0
crawl 5 156930 20190430234816 0
Google[\x20]Web[\x20]Preview 4 96946 20190427143036 0
curl 1 31382 20190427085624 0
MojeekBot/ 3 86915 20190430145719 0
Cliqzbot/ 1 31402 20190415115402 0
YisouSpider 6 169126 20190420193301 0
Googlebot\-Image/ 5 291359 20190419013424 0
END_ROBOT

# Worm ID - Hits - Bandwidth - Last visit
# The 5 first Hits must be first (order not required for others)
BEGIN_WORMS 0
END_WORMS

# EMail - Hits - Bandwidth - Last visit
# The 20 first Hits must be first (order not required for others)
BEGIN_EMAILSENDER 0
END_EMAILSENDER

# EMail - Hits - Bandwidth - Last visit
# The 20 first hits must be first (order not required for others)
BEGIN_EMAILRECEIVER 0
END_EMAILRECEIVER

# Files type - Hits - Bandwidth - Bandwidth without compression - Bandwidth after compression
BEGIN_FILETYPES 9
gif 18 31266 0 0
css 256 4567565 0 0
php 213 7113039 0 0
xml 2 3918 0 0
Unknown 599 17243282 0 0
jpg 337 43466794 0 0
png 297 5732438 0 0
html 665 20939271 0 0
js 405 22550515 0 0
END_FILETYPES

# Downloads - Hits - Bandwidth
BEGIN_DOWNLOADS 0
END_DOWNLOADS

# OS ID - Hits
BEGIN_OS ID - Hits - Pages 20
win10 573 362
linux 274 195
winxp 20 20
macosx10 16 13
macosx 192 53
macosx8 4 4
ios_iphone 248 66
linuxandroid 180 48
win8 5 5
win2000 1 1
winnt 1 1
macosx12 81 56
Unknown 356 147
winlong 30 9
ios_ipad 90 18
unix 22 7
win8.1 86 71
macosx11 246 164
win7 366 238
win2003 1 1
END_OS

# Browser ID - Hits - Pages
BEGIN_BROWSER 128
chrome63.0.3239.132 32 32
firefox52.65.18 1 1
safari11.1.2 41 18
chrome74.0.3729.112 11 1
chrome58.0.3029.276 1 1
firefox15.0 59 59
msie6.0 5 5
opera54.0.2952.64 8 8
chrome51.0.2704.106 1 1
chrome42.0.2311.90 1 1
opera54.0.2952.51 5 5
chrome73.0.3683.103 224 71
safari11.1 1 0
opera36.0.2130.32 4 4
chrome70.0.3538.102 14 6
chrome70.0.3538.67 5 2
Unknown 60 56
chrome73.0.3683.86 207 117
chrome68.0.3440.84 8 8
chrome60.0.3112.113 28 25
firefox34.0 4 4
safari 101 22
firefox64.0 13 13
firefox53.0 3 3
chrome71.0.3578.98 2 2
chrome66.0.3359.117 8 8
firefox66.0 21 10
chrome2.0.172.0 1 1
firefox50.0 1 1
chrome68.0.3440.106 15 15
safari11.0.3 27 3
opera56.0.3051.104 1 1
chrome44.0.2403.107 1 1
safari12.0 97 27
chrome67.0.3396.99 18 17
netscape5.8 2 2
chrome65.0.3325.209 22 7
chrome61.0.3163.100 34 34
opera53.0.2907.68 2 2
chrome60.0.3112.50 1 1
chrome66.0.3359.181 57 57
firefox52.0 134 103
chrome49.0.2623.75 13 13
firefox55.0 6 6
chrome59.0.3071.115 1 1
chrome58.0.3029.110 7 6
firefox24.0 1 1
firefox45.0 2 2
firefox42.0 1 1
chrome61.0.3163.98 11 4
chrome66.0.3359.139 12 10
edge16 2 2
android 4 4
chrome67.0.3396.62 2 2
chrome53.0.2785.143 1 1
netscape 1 1
firefox40.1 3 3
netscape5.9 4 4
opera53.0.2907.99 12 12
chrome73.0.3683.90 88 25
chrome65.0.3325.146 2 2
chrome44.0.2403.89 2 2
chrome40.0.2214.85 3 3
chrome65.0.3325.181 237 164
firefox46.0 1 1
firefox56.0 14 14
msie8.0 12 3
chrome72.0.3626.119 8 3
chrome62.0.3202.94 1 1
msie9.0 28 14
chrome5.0.375.99 1 1
mozilla 22 22
chrome55.0.2883.75 1 1
chrome69.0.3497.100 20 9
chrome26.0.1410.63 1 1
safari10.0 1 1
safari12.0.3 5 2
chrome50.0.2661.102 2 2
chrome70.0.3538.110 2 2
cloudflare 267 62
opera41.9.4623.9351 1 1
firefox62.0 7 7
chrome34.0.1847.131 2 2
opera55.0.2994.44 6 6
safari11.0 52 7
chrome60.0.3112.101 4 4
chrome61.0.3163.128 10 2
chrome49.0.2623.112 9 9
chrome72.0.3626.121 56 23
firefox35.0 1 1
firefox65.0 9 5
chrome71.0.3578.80 7 5
firefox59.0 2 2
safari5.4.8 1 1
firefox57.0 1 1
chrome64.0.3282.140 2 2
chrome52.0.2763.1 1 1
safari12.1 201 50
chrome62.0.3202.75 2 2
opera54.0.2952.71 2 2
chrome70.0.3538.77 12 11
chrome45.0.2454.93 2 2
chrome67.0.3396.87 30 25
chrome63.0.3239.84 25 4
chrome34.0.1847.116 6 6
netscape5.0 1 1
chrome38.0.1025.166 32 1
firefox47.0 18 18
chrome41.0.2228.0 5 5
safari6.0 1 1
chrome52.0.2743.116 3 3
msie7.0 15 7
chrome34.0.1847.137 1 1
chrome70.0.3538.80 3 3
safari6.0.2 2 2
firefox58.0 6 6
firefox63.0 33 7
firefox54.0 4 4
msie10.0 4 4
chrome72.0.3626.69 1 1
msie11.0 74 41
edge17 34 12
opera53.0.2907.106 3 3
chrome67.0.3396.79 9 9
firefox44.0 1 1
iphone 5 1
firefox48.0 1 1
chrome64.0.3282.119 3 3
END_BROWSER

# Screen size - Hits
BEGIN_SCREENSIZE 0
END_SCREENSIZE

# Unknown referer OS - Last visit date
BEGIN_UNKNOWNREFERER 26
Mozilla/5.9'];print(238947899389478923-34567343546345);// 20190419055614
Mozilla/5.8 20190419055611
Mozilla/5.0_(compatible;_Dataprovider.com) 20190429223906
Ruby 20190411015847
WhatsApp/2.19.31_i 20190403120333
python-requests/2.21.0 20190429163025
Mozilla/5.0_(compatible;_Google-Site-Verification/1.0) 20190423192911
Go-http-client/1.1 20190430150143
Mozilla/5.0_(compatible;_ips-agent) 20190430075612
Mozilla/5.9\ 20190419055614
Version-4.1-IV-Smart-Agent/7.5.0 20190425014536
MixnodeCache/1.8(_https://cache.mixnode.com/) 20190426163024
Version-2.1-IV-Smart-Agent/6.1.0 20190419142942
SEMrushBot 20190426114628
Mozilla/5.0_(compatible;_WbSrch/1.1__https://wbsrch.com) 20190416152304
Python/3.6_aiohttp/3.5.4 20190423094823
Go-http-client/2.0 20190427171140
Mozilla/5.0_(compatible;_CloudFlare-AlwaysOnline/1.0;__http://www.cloudflare.com/always-online)_AppleWebKit/534.34 20190429033235
Mozilla/5.0_(compatible;_CloudFlare-AlwaysOnline/1.0;_http://www.cloudflare.com/always-online) 20190429033205
Version-3.1-IV-Smart-Agent/7.1.0 20190421033944
Mozilla 20190412213403
WWW-Mechanize/1.73 20190405002005
Mozilla/5.0_Firefox/35.0 20190426030431
Mozilla/5.0_(compatible;_Daum/4.1;__http://cs.daum.net/faq/15/4118.html?faqId=28966) 20190417115829
Mozilla/5.0_(compatible;_NetcraftSurveyAgent/1.0;__info@netcraft.com) 20190404150716
WISE 20190410132533
END_UNKNOWNREFERER

# Unknown referer Browser - Last visit date
BEGIN_UNKNOWNREFERERBROWSER 13
Ruby 20190411015847
WhatsApp/2.19.31_i 20190403120333
Go-http-client/2.0 20190427171140
Python/3.6_aiohttp/3.5.4 20190423094823
Version-2.1-IV-Smart-Agent/6.1.0 20190419142942
SEMrushBot 20190426114628
WISE 20190410132533
MixnodeCache/1.8(_https://cache.mixnode.com/) 20190426163024
Version-4.1-IV-Smart-Agent/7.5.0 20190425014536
WWW-Mechanize/1.73 20190405002005
Go-http-client/1.1 20190430150143
python-requests/2.21.0 20190429163025
Version-3.1-IV-Smart-Agent/7.1.0 20190421033944
END_UNKNOWNREFERERBROWSER

# Origin - Pages - Hits 
BEGIN_ORIGIN 6
From0 774 919
From1 3 3
From2 139 139
From3 15 15
From4 548 1716
From5 0 0
END_ORIGIN

# Search engine referers ID - Pages - Hits
BEGIN_SEREFERRALS 12
www_google_com 116 116
www_google_co_uk 3 3
www_google_co_jp 1 1
www_google_co_in 1 1
bing 1 1
yandexru 2 2
www_google_nl 2 2
www_google_fr 1 1
au_search_yahoo_com 1 1
www_google_com_hk 1 1
www_google_lk 9 9
www_google_com_au 1 1
END_SEREFERRALS

# External page referers - Pages - Hits
# The 25 first Pages must be first (order not required for others)
BEGIN_PAGEREFS 7
http://%20www.ellens-place.com 6 6
http://shanti.toogo.in/public/yourtrip/FamilleDAPVRIL2 2 2
https://www.facebook.com 2 2
http://instagram.com 2 2
http://127.0.0.1:2372/blockpage 1 1
https://www.glotels.com/LK/Colombo/496435530450359/Ellen's--Place 1 1
https://live.ipms247.com/booking/bookingstatus.php 1 1
END_PAGEREFS

# Search keyphrases - Number of search
# The 10 first number of search must be first (order not required for others)
BEGIN_SEARCHWORDS 0
END_SEARCHWORDS

# Search keywords - Number of search
# The 25 first number of search must be first (order not required for others)
BEGIN_KEYWORDS 0
END_KEYWORDS

# Errors - Hits - Bandwidth
BEGIN_ERRORS 1
302 3376 72048520
END_ERRORS

# URL with 404 errors - Hits - Last URL referrer
BEGIN_SIDER_404 0
END_SIDER_404

# Host - Pages - Hits - Bandwidth - Last visit date - [Start date of last visit] - [Last page of last visit]
# [Start date of last visit] and [Last page of last visit] are saved only if session is not finished
# The 25 first Hits must be first (order not required for others)
BEGIN_VISITOR 590
35.195.229.75 105 136 4819391 20190423094823
174.127.135.130 61 61 1663635 20190412023350
188.131.166.57 27 27 776284 20190414160639
43.242.116.58 21 34 1441903 20190402173300
5.9.17.118 21 21 594601 20190421170948
34.208.134.139 20 22 680288 20190412114351
138.197.0.219 19 37 1358031 20190404214549
138.197.64.79 19 19 531417 20190419110642
159.203.81.33 19 37 1358031 20190424023933
138.197.77.125 19 37 1358031 20190414124421
159.65.36.233 19 19 531417 20190428213938
138.197.7.43 19 19 531417 20190426133938
52.53.201.78 18 18 564968 20190429024844
60.191.38.77 18 18 564914 20190428120433
165.227.216.184 18 36 1326649 20190419083354
138.197.3.255 18 19 529148 20190407144818
52.70.146.155 17 17 533546 20190430192135
31.184.194.114 16 16 502128 20190411015847
162.158.66.145 15 39 1550677 20190424110913
162.158.65.153 15 33 791834 20190407093858
162.158.64.77 15 23 874841 20190415195303
193.88.111.170 15 37 2374291 20190407144004
13.57.233.99 15 15 470808 20190428232318
158.69.247.45 14 14 439468 20190430015442
211.26.171.84 11 45 2351028 20190421115924
92.240.205.2 1 1 31384 20190404055700
50.112.85.12 1 1 31388 20190404203113
80.101.222.95 6 21 1460476 20190414215608
185.17.149.160 1 1 39718 20190411055112
123.231.12.179 1 1 31386 20190405091939
2400:cb00:36:1003::a29e:4056 1 1 31384 20190404042837
171.61.207.137 0 8 276016 
54.39.191.226 3 3 94206 20190416110503
185.189.113.38 2 2 79146 20190407160723
2001:44b8:4111:1300:ecc0:1f5e:4ab5:d486 1 2 25669 20190419054919
139.99.220.177 4 4 125528 20190407165530
112.134.128.23 1 6 587902 20190426121046
23.100.232.233 0 13 1233845 
180.163.220.5 1 2 38671 20190425103106
104.131.178.32 1 1 31382 20190416035259
2400:cb00:36:1028::a29e:434e 0 1 1847 
34.214.26.120 1 1 31382 20190419164525
2402:4000:1180:43df:500e:1589:8453:53e5 3 7 329192 20190406203217
198.185.24.226 1 1 31384 20190420052454
120.21.72.147 4 11 1188201 20190405153905
175.157.2.251 1 1 31386 20190412085108
2400:cb00:36:1033::a29e:4496 1 2 34734 20190411100937
112.134.87.21 6 6 196340 20190401154234
195.181.169.104 1 1 31402 20190405025925
2402:4000:1180:b519:dc02:7c30:9ca2:fa87 2 2 47196 20190408135520
82.102.18.148 6 6 237761 20190428105506
54.189.133.88 1 1 31384 20190417114706
66.102.6.58 1 1 31386 20190401085605
34.221.94.0 1 1 31384 20190415122438
142.167.169.20 7 22 1534662 20190416051426
54.185.194.245 1 1 31382 20190424164039
185.130.184.243 4 4 158260 20190413160748
185.130.184.252 6 6 237370 20190423123155
119.235.7.158 3 8 105701 20190408113427
96.44.172.77 1 1 31384 20190406152902
151.80.246.221 2 2 62764 20190410080255
58.96.84.85 5 15 723353 20190416163221
185.136.116.91 2 26 2336533 20190429231517
52.20.206.232 7 7 219716 20190425014536
184.94.240.92 1 1 24337 20190413012520
91.132.136.163 3 3 111750 20190414213957
124.43.13.169 1 14 740199 20190424105711
34.211.39.171 1 1 31384 20190421134805
112.134.143.231 3 6 343169 20190408143552
97.76.242.18 0 23 1163663 
107.6.183.162 1 1 31386 20190407070423
46.183.223.109 1 1 28750 20190422135828
3.16.50.198 1 1 31382 20190430173655
66.102.8.199 0 7 1031979 
43.250.240.71 6 11 225299 20190410000726
222.94.212.248 1 1 31384 20190430202649
2001:4ca0:108:42::5 2 2 62766 20190426220113
222.167.148.141 2 10 333385 20190407173525
123.231.13.70 2 2 67435 20190403134304
124.43.104.35 3 3 102182 20190429132259
2607:5300:203:1877:: 3 3 95107 20190413151613
123.231.16.202 1 1 31402 20190405090031
185.130.184.202 1 1 39718 20190402014027
43.250.240.143 2 2 62772 20190403070132
162.158.70.134 0 1 7269 
2400:cb00:36:1034::a29e:44d2 0 1 20219 
2400:cb00:36:1003::a29e:404b 1 1 31388 20190404042852
175.157.88.82 1 47 3189551 20190423182605
2400:cb00:36:1034::a29e:44dc 1 6 216213 20190403092906
2400:cb00:36:1002::a29e:403b 0 12 445003 
89.238.176.110 3 3 112349 20190408165144
175.157.108.91 1 1 31386 20190408162158
91.207.102.163 4 4 125570 20190412070155
52.40.225.198 1 1 31384 20190407151240
110.143.80.195 4 27 1541277 20190410120548
5.188.210.39 5 6 164209 20190405072705
82.102.18.139 1 1 39736 20190407160723
204.236.251.155 2 2 62784 20190402172905
86.176.72.116 2 2 62772 20190401212904
2400:cb00:36:1046::a29e:4291 1 1 31402 20190424110831
112.5.248.239 2 2 62764 20190418091106
138.246.253.5 1 1 31384 20190424154424
175.157.35.124 1 1 31386 20190407152330
62.210.83.78 4 4 125532 20190429174018
191.96.181.126 1 1 31384 20190418074555
54.202.135.139 1 1 31384 20190419142615
159.89.189.103 1 1 31386 20190402000037
112.134.84.128 1 8 992155 20190425171548
123.231.108.13 2 2 67435 20190405191523
124.43.77.219 1 1 31386 20190410131258
34.216.71.67 6 6 186100 20190407045448
106.38.241.178 0 8 125707 
112.134.87.247 1 1 31386 20190408132357
3.84.240.190 1 1 31388 20190412173422
51.15.57.239 4 6 142264 20190411004801
159.203.94.162 1 1 31388 20190404140559
35.165.244.190 1 1 31384 20190425153703
2400:cb00:36:1001::a29e:4515 0 1 19252 
2402:4000:2181:35e1:be:eb64:c095:fd65 1 1 31386 20190408155846
206.180.165.147 1 1 31384 20190418220916
34.217.66.209 1 1 31382 20190416142203
2400:cb00:36:1016::a29e:41f1 1 5 135296 20190420141404
2400:cb00:36:1001::a29e:451a 0 2 20757 
2001:983:eff:1:d12f:2a33:82c2:c8ec 4 6 224579 20190412185808
112.134.138.103 1 1 31386 20190405095337
68.183.147.245 1 1 31384 20190404150410
54.70.36.156 1 1 31382 20190410161600
34.221.133.215 1 1 31382 20190423150517
2400:cb00:36:1009::a29e:4105 0 4 480187 
82.102.18.144 1 1 39718 20190408145929
54.191.121.28 1 1 31382 20190421161433
112.135.196.155 1 1 31386 20190416000540
52.13.48.93 1 1 31382 20190401132326
35.247.80.163 2 2 62784 20190422174057
49.193.160.152 1 1 31386 20190405111736
112.134.160.119 4 5 214904 20190406193653
5.188.62.5 1 1 31384 20190421132036
168.91.72.37 1 22 893188 20190412010648
52.34.86.140 1 1 31384 20190416134241
2400:cb00:36:1003::a29e:404d 1 1 31402 20190415195221
18.228.223.49 1 1 31402 20190419080331
2402:4000:1080:ec91:89c4:6430:3c9e:c2f9 1 1 31402 20190419124734
2400:cb00:36:1008::a29e:40e8 1 2 31924 20190411100936
111.196.83.182 1 1 31388 20190415024722
66.102.6.56 1 1 31386 20190402093724
124.206.180.180 1 1 31384 20190426030431
2402:d000:a000:dc7b:1:50ca:8bd:9cc9 2 3 155375 20190420103924
78.46.94.83 3 3 107586 20190406121457
2400:cb00:36:1001::a29e:4504 1 10 703124 20190429033204
153.153.61.253 0 5 906047 
2620:101:2002:11a5:10:8:141:62 2 2 55725 20190421204247
14.139.185.18 1 3 61014 20190406162811
216.151.3.108 1 1 31382 20190416152304
123.231.105.53 1 1 31386 20190411111352
88.198.39.184 2 2 62766 20190412065015
144.217.99.65 1 18 637208 20190416160705
175.157.43.195 4 4 125560 20190408170453
2.51.131.91 1 1 31386 20190411211438
139.162.73.218 1 1 31384 20190402025016
112.135.224.177 6 8 200938 20190422125130
185.130.184.219 2 2 79146 20190426120059
34.222.145.157 1 1 31384 20190407142756
156.209.204.130 1 1 31382 20190407142446
54.202.231.32 1 1 31382 20190406154629
175.157.64.26 1 1 28028 20190418155114
138.68.180.18 6 6 173308 20190420230822
124.43.76.91 1 1 31386 20190429114104
2400:cb00:36:1031::a29e:441d 1 11 389423 20190428014716
3.81.42.223 1 1 31386 20190414132226
66.102.6.47 1 1 31386 20190411130814
192.243.53.51 2 2 62784 20190426114628
112.134.105.11 1 1 31386 20190401220714
91.77.20.219 2 2 113261 20190420222320
2400:cb00:36:1016::a29e:41f4 0 4 41829 
52.10.111.94 1 1 31382 20190404165424
123.206.225.17 1 1 31382 20190430190623
54.190.130.174 1 1 31384 20190415135220
2400:cb00:36:1001::a29e:451e 1 8 104417 20190429033205
185.189.113.34 2 2 79110 20190401101425
162.158.64.100 0 2 14538 
54.244.10.13 1 1 31384 20190402133834
103.212.20.243 1 2 38655 20190424142804
54.214.207.147 1 1 31382 20190422205201
37.17.172.132 1 1 28028 20190419021343
2402:4000:10c4:c409:5df2:ba5d:6fcd:4367 1 2 40264 20190418212510
168.91.90.51 1 1 39392 20190412010657
34.221.147.16 1 1 31384 20190412144250
112.134.29.82 3 4 79884 20190405130257
2001:983:eff:1:f9ba:caba:a854:d699 1 2 31502 20190412125332
112.134.87.200 2 2 70796 20190411095930
185.130.184.209 6 6 237370 20190404140420
2402:4000:1380:6222:681a:d696:1d14:22fe 3 4 83439 20190406230352
111.92.243.146 1 1 31384 20190423025722
119.82.83.161 7 13 429386 20190403123853
46.118.155.222 1 1 31382 20190403094746
112.134.210.48 2 2 49926 20190411123543
88.191.126.61 1 14 1271292 20190406144907
142.105.201.38 1 5 69441 20190416075623
2001:983:eff:1:f090:e767:dc0f:42c8 1 1 39410 20190414225256
204.13.201.140 0 4 42512 
123.231.85.175 2 2 62772 20190412095551
175.157.43.237 1 1 31386 20190408121129
142.93.180.91 1 1 31382 20190424003621
107.6.169.250 3 3 94150 20190430092858
62.210.111.56 1 1 31382 20190403144606
212.112.93.80 1 1 31382 20190416101100
2400:cb00:36:1031::a29e:4411 0 1 1547 
66.102.8.201 0 2 261528 
185.130.184.236 1 1 39736 20190413114335
123.231.39.17 1 1 31386 20190404131847
2001:983:eff:1:bc34:bb9b:f29b:bebd 4 29 1392088 20190404014422
112.135.74.79 3 3 94158 20190402122155
69.12.72.171 1 1 31384 20190422123053
185.17.149.135 2 2 79110 20190429140940
162.158.68.213 0 1 7269 
66.102.8.206 0 7 336342 
112.134.81.236 1 2 46363 20190403091502
54.186.68.242 1 1 31382 20190405183449
2400:cb00:36:1028::a29e:4357 0 1 1743 
123.231.107.73 1 4 63600 20190407180312
66.102.8.204 0 7 775210 
112.134.144.23 2 5 320324 20190415140913
54.183.22.245 1 1 31388 20190401192215
54.185.148.30 1 1 31382 20190430142211
112.134.103.71 1 1 31386 20190405053600
123.231.73.178 0 5 142393 
38.88.208.2 7 39 2014599 20190420001155
95.211.209.158 1 1 31402 20190402134021
2.220.14.217 1 1 31386 20190421194852
18.209.22.158 1 1 31382 20190419083215
54.202.149.85 1 1 31384 20190429145553
2400:cb00:36:1043::a29e:4316 1 8 409684 20190419121752
2402:4000:2082:c1d8:1cb6:881c:5e7e:2f73 1 11 198968 20190417102422
64.233.173.147 1 1 31386 20190417105738
119.235.0.196 1 1 31386 20190404095422
2400:cb00:36:1046::a29e:4287 0 6 108305 
2400:cb00:36:1012::a29e:4177 0 4 242774 
66.102.6.235 1 1 28028 20190425003028
66.102.8.21 1 1 31386 20190426210048
144.217.171.225 0 1 2430 
123.231.106.240 2 2 54247 20190418221447
72.80.29.181 1 1 31384 20190408105046
61.245.169.48 2 2 55737 20190425173749
207.148.248.199 1 1 31388 20190407213651
36.5.179.131 1 1 31402 20190429201449
120.188.73.35 1 16 1356882 20190403123314
2400:cb00:36:1009::a29e:4115 0 1 26540 
165.227.39.237 1 1 31386 20190429102422
103.251.215.4 2 2 62804 20190402121405
181.214.200.140 1 1 31382 20190404073208
185.17.149.136 2 2 79114 20190410113938
124.43.19.183 4 4 120766 20190412121129
34.211.52.246 1 1 31384 20190430150143
82.102.18.61 2 2 79146 20190412034608
49.83.17.101 1 1 39410 20190428213739
2400:cb00:36:1005::a29e:4087 0 1 8878 
104.199.114.206 1 1 31382 20190413071050
54.36.165.146 1 1 31386 20190422141543
34.220.42.102 1 1 31382 20190429180640
123.231.18.132 1 1 31402 20190412092155
2604:9980:0:12a:225:90ff:fe7c:41cc 2 2 62766 20190404142843
54.202.133.85 1 1 31384 20190418134120
112.134.105.70 1 1 31386 20190403152636
81.98.43.190 2 12 156204 20190407121828
35.247.112.79 1 1 31382 20190405193937
159.65.175.53 1 1 31388 20190402071457
72.14.199.200 1 1 31402 20190423192911
203.133.168.243 1 1 29811 20190417115829
64.246.165.170 1 1 31388 20190426133118
167.99.132.120 6 6 188292 20190430045205
185.234.217.209 2 2 62768 20190407012703
108.62.96.36 1 1 31382 20190417114442
207.189.0.73 2 2 79146 20190425090036
203.81.102.186 2 3 55629 20190411171537
2a02:1811:441b:7100:2432:aa6a:a90:183b 3 6 86061 20190402135243
185.130.184.237 3 3 118850 20190402191657
175.157.230.10 6 9 203415 20190417152718
69.197.162.90 1 1 31382 20190414171837
35.227.162.135 2 2 62784 20190407220709
194.99.105.26 5 6 164179 20190416001956
31.204.181.238 2 2 79837 20190405214158
95.24.11.174 1 7 566836 20190403024936
112.134.106.126 1 1 31386 20190422223032
116.206.246.163 1 1 24351 20190411133732
178.171.58.67 1 1 31384 20190425133822
34.220.169.103 1 1 31384 20190423165735
5.135.230.129 6 6 188298 20190419055614
124.43.94.33 1 1 31386 20190425112634
188.206.76.62 6 11 330295 20190411122053
144.76.72.104 1 1 31382 20190404031201
60.224.71.171 2 3 64515 20190405143157
2400:cb00:36:1003::a29e:4054 0 2 501032 
203.115.11.84 2 23 956363 20190421085705
35.162.211.148 1 1 31382 20190413143134
43.228.108.219 3 10 171525 20190413183942
203.133.168.51 7 10 248078 20190414032128
87.11.133.99 0 1 7269 
2001:983:eff:1:2dc8:5036:7a7c:9d00 2 2 56062 20190410004219
185.130.184.208 2 2 79114 20190407162427
104.227.246.106 1 1 31384 20190421170349
159.69.107.166 2 2 62764 20190425121513
151.106.10.137 2 2 80217 20190411131010
124.122.197.44 1 13 362516 20190430172219
185.189.113.39 2 2 79114 20190407225229
212.80.223.156 1 1 31382 20190425082236
61.245.170.23 2 26 1240644 20190427001819
34.218.240.205 1 1 31384 20190420151711
2400:cb00:36:1004::a29e:4064 1 4 280003 20190412084038
2405:205:c947:ada4:eb8e:9c79:3ac4:f326 2 8 491321 20190412233230
23.81.94.90 1 1 24333 20190412010654
124.43.87.225 6 7 227602 20190409195930
54.169.114.72 2 2 62768 20190404141307
1.126.109.201 8 15 307960 20190425184612
217.73.129.218 1 3 231214 20190423193037
109.184.218.58 2 2 80415 20190403103814
124.43.16.113 2 2 55737 20190429165450
49.249.232.98 2 2 62772 20190403143553
2601:346:404:2a60:cd50:77cd:a78e:126d 1 4 36839 20190407060216
2400:cb00:36:1008::a29e:40fa 0 3 479914 
40.77.167.131 0 1 465075 
222.165.139.98 2 2 62772 20190411083952
43.250.158.232 3 4 89354 20190406154310
185.130.184.218 2 2 79661 20190404112020
54.183.149.15 1 1 31402 20190430011039
87.98.241.175 1 1 31382 20190422175638
124.43.118.196 3 4 95488 20190414111543
194.93.59.17 2 2 62768 20190406104053
92.242.255.54 2 2 67438 20190425090313
119.235.6.98 1 1 31386 20190401165534
35.165.221.23 1 1 31384 20190401121637
142.93.176.133 1 1 31382 20190404040549
109.184.148.255 2 2 79146 20190423122441
35.227.154.147 1 1 31402 20190415174611
220.247.246.152 1 1 31402 20190417155755
5.61.36.87 1 1 31384 20190415221726
54.191.231.130 1 1 31384 20190413145608
34.213.119.213 1 1 31382 20190414142204
159.65.180.116 1 1 31402 20190404150716
31.184.238.251 1 1 28008 20190403063854
216.145.14.142 1 1 31386 20190426121738
2402:4000:13d0:12b8:c8b1:a4d9:b0c5:525 2 26 1664022 20190417191218
54.185.45.197 5 5 139880 20190412115358
66.240.236.119 3 3 94150 20190417083634
54.160.219.103 1 1 31384 20190416112406
182.253.63.6 4 25 1767816 20190417174828
198.100.148.23 2 2 62768 20190401001447
82.102.18.143 2 2 79666 20190403114436
95.211.148.102 1 1 31384 20190422080225
119.42.81.80 1 1 31382 20190420005752
2400:cb00:36:1043::a29e:4317 0 8 87737 
104.236.99.28 1 1 31382 20190412033244
142.93.145.173 1 1 31382 20190410175603
54.202.185.187 1 1 31382 20190428162010
2402:4000:2081:6745:5580:bcba:42d5:8f70 1 13 1590232 20190429092140
2400:cb00:36:1034::a29e:44cf 1 3 96002 20190419121752
45.250.226.8 1 1 31384 20190401180025
144.217.171.229 5 26 1084696 20190415191044
162.158.69.30 0 1 7269 
52.36.21.77 1 1 31384 20190414134548
52.11.146.224 1 1 31382 20190420144546
83.97.23.118 3 3 112348 20190422002441
49.176.62.176 1 2 38655 20190418023206
2001:44b8:4111:1300:591f:3695:46b6:e0d9 5 12 448788 20190418100358
66.102.6.150 2 2 62804 20190403111320
112.134.96.14 1 1 31386 20190419055055
149.202.86.127 2 2 62764 20190420085044
207.189.0.85 1 1 39718 20190429140940
112.134.81.154 5 11 223992 20190429085058
112.134.86.226 1 1 31386 20190402085118
110.167.88.137 1 1 31402 20190429213502
93.72.93.35 1 1 31382 20190418082400
13.52.74.140 1 1 31382 20190402134716
54.218.56.45 1 1 31384 20190406141910
210.16.84.34 2 2 62772 20190410112217
203.143.12.26 1 2 40217 20190405091956
82.102.18.131 4 4 158260 20190412041819
112.135.210.4 1 1 31386 20190410134246
50.112.79.47 1 1 31384 20190426133838
107.151.137.215 2 2 70772 20190412111918
162.158.69.4 0 1 7269 
59.56.241.218 1 1 31382 20190404053604
175.157.149.89 1 1 31402 20190409154337
123.231.91.102 1 3 27374 20190402143913
162.158.68.150 0 1 7269 
34.212.174.21 1 1 31384 20190408134105
2400:cb00:36:1011::a29e:4686 1 3 66806 20190412084038
43.250.243.195 1 1 31386 20190410170558
34.219.125.224 0 1 160781 
192.99.150.97 3 3 64735 20190429223906
54.185.93.43 1 1 31384 20190422140913
66.102.6.131 1 1 31402 20190411130812
119.235.0.197 1 1 31386 20190402141426
220.243.136.100 0 4 61826 
2402:4000:1181:6859:39c1:fbea:3f6f:9acb 1 1 22845 20190407121150
212.112.93.48 1 1 31382 20190413120156
124.43.100.246 1 4 561531 20190418223127
202.46.51.34 1 1 31384 20190420094150
54.212.139.41 1 1 31384 20190410132456
123.231.44.231 2 3 70057 20190404171419
86.85.32.111 2 7 1129494 20190426132414
148.252.128.103 2 2 58823 20190418072143
34.216.63.75 1 1 31382 20190418160449
134.209.38.169 1 1 31386 20190404144845
82.102.18.58 4 4 158220 20190406040604
117.120.16.134 2 5 103488 20190401082834
66.102.6.211 1 1 31402 20190401085604
66.102.6.151 1 1 31402 20190412113745
112.134.96.88 2 2 62772 20190404184226
114.231.129.211 1 1 31386 20190416213627
34.217.13.220 1 1 31384 20190403160532
200.118.248.132 1 1 31386 20190429002255
2605:3e80:1200:10::6eca 1 11 206976 20190429091506
112.134.66.15 1 2 31664 20190407140339
172.104.182.103 1 1 31386 20190402014557
128.125.148.62 1 26 1071907 20190425064329
82.208.101.166 2 2 79146 20190405071822
204.13.201.138 1 6 149183 20190428135231
66.102.8.25 0 1 7269 
66.102.6.135 1 1 31402 20190410101916
2400:cb00:36:1001::a29e:4529 0 4 87205 
67.166.2.82 1 22 1096598 20190415084058
72.13.36.80 3 3 78550 20190430075612
2400:cb00:36:1005::a29e:4090 0 4 275159 
158.69.26.125 3 3 64735 20190415020031
203.143.40.107 2 4 65205 20190418180125
112.135.225.110 5 5 172978 20190429133758
193.106.30.98 4 4 125532 20190402085120
162.158.64.144 0 1 7269 
103.249.233.212 3 3 98837 20190408172450
180.163.220.66 1 2 38653 20190425103021
54.149.175.127 1 1 31382 20190425175700
138.197.96.243 1 1 31382 20190408031150
42.236.10.75 0 3 189372 
180.163.220.4 0 4 334963 
112.135.105.158 1 1 39410 20190403160622
221.229.204.71 10 10 313830 20190424093137
203.81.96.5 2 8 656711 20190416101117
162.158.64.76 0 1 7269 
61.245.170.105 2 2 62772 20190405220422
2604:1380:2000:e800::1 1 1 31386 20190416221142
3.81.96.220 2 2 62768 20190426163024
122.255.29.26 4 7 115465 20190416135219
113.59.203.50 2 2 56199 20190420113055
52.53.223.163 1 1 31386 20190402153520
2400:cb00:36:1016::a29e:41f0 0 13 635634 
34.222.236.234 1 1 31384 20190422155246
52.43.179.152 1 1 31384 20190427150421
2400:cb00:36:1011::a29e:468e 0 2 20244 
123.231.94.187 1 5 65511 20190409232928
89.249.65.21 2 2 79110 20190402014027
112.134.85.225 1 1 31386 20190418085313
112.134.97.0 2 2 62772 20190401055843
64.202.160.250 9 9 240145 20190404121255
82.208.100.204 2 2 79146 20190406014148
46.246.43.85 1 1 31382 20190404063541
38.100.21.61 1 1 31388 20190407194632
112.134.16.131 1 1 31386 20190418185714
61.245.161.151 1 2 38655 20190425143058
82.102.18.146 1 1 39736 20190407160723
193.144.12.133 2 3 70041 20190423114704
175.157.67.19 3 23 1282396 20190411080111
199.116.169.254 1 1 31402 20190410120408
82.102.18.62 6 6 237330 20190407012101
185.17.149.137 2 2 79454 20190419135624
185.189.113.46 5 5 197976 20190402191658
31.184.238.175 1 1 28008 20190401034221
134.209.175.229 1 1 31382 20190404150654
185.130.184.206 1 1 39736 20190425090241
2a01:e35:8bf7:e3d0:3c04:ad64:33d7:bb82 1 1 22845 20190407214212
54.244.43.71 1 1 31384 20190402115755
83.102.135.14 1 1 31382 20190403025002
54.213.8.104 1 1 31384 20190428143633
54.91.53.138 1 1 31386 20190405174244
2a01:e35:8bf7:e3d0:65ea:be83:c6cc:4a4e 1 1 31386 20190406144840
18.236.237.111 1 1 31384 20190405143808
2400:cb00:36:1010::a29e:4126 0 1 153585 
52.35.58.16 1 1 31384 20190417135117
167.114.181.145 0 8 1024151 
51.15.124.33 1 1 31382 20190406014922
64.233.173.146 2 2 62772 20190427001749
112.134.87.4 1 1 31386 20190405152856
198.211.100.23 1 1 31382 20190412213403
82.102.18.41 3 3 120002 20190404183543
18.236.162.120 1 1 31382 20190403184254
82.102.18.150 5 5 197978 20190425094659
51.68.91.9 2 2 62768 20190414230342
49.149.148.81 1 6 348944 20190410132441
2400:cb00:36:1009::a29e:4117 0 4 104790 
52.41.169.192 1 1 31384 20190405002005
54.184.13.106 1 1 31384 20190401135526
185.102.116.95 1 1 31382 20190408114026
51.83.77.15 1 1 31382 20190415073119
2402:4000:1180:9c1f:2:1:7a65:2681 3 3 85538 20190410155813
124.43.102.5 1 1 31386 20190422021641
104.199.114.234 1 1 31402 20190401230412
34.222.88.164 1 1 31382 20190412171215
34.219.152.136 1 1 31386 20190405035002
149.202.62.72 1 1 31384 20190419215432
112.134.82.15 1 2 38671 20190419192115
34.222.29.126 1 1 31384 20190408145845
2400:cb00:36:1003::a29e:404c 1 4 645199 20190428014719
2a02:c7d:a37c:4400:d192:93ff:2e30:b5b8 0 2 5545 
2400:cb00:36:1005::a29e:4091 0 1 23936 
185.17.149.170 1 1 40109 20190429140941
34.222.48.74 1 1 31384 20190404131451
116.252.0.129 1 1 31382 20190430193042
88.184.10.10 3 6 361036 20190407032011
35.233.253.178 3 3 94186 20190429174203
35.160.81.63 1 1 31384 20190429163025
35.233.193.173 2 2 62804 20190426001253
124.43.13.208 2 2 62788 20190405095848
79.76.5.6 1 2 80907 20190419153649
18.237.44.154 1 1 31382 20190419192052
112.135.97.93 1 2 38651 20190410143826
117.109.84.127 7 10 209863 20190430190659
5.35.19.247 1 1 39410 20190417110804
106.201.239.114 3 16 1539992 20190411112947
185.130.184.217 2 2 79146 20190419133713
34.222.222.191 1 1 31382 20190427170746
185.189.113.44 7 7 277088 20190406024153
185.189.113.42 2 2 79110 20190411061247
35.161.165.228 1 1 31382 20190417143344
162.158.68.29 0 1 7269 
2001:982:594d:1:98d2:1563:a82:7859 1 26 1815231 20190401203819
163.172.71.139 1 1 31386 20190403232405
220.247.244.116 1 2 34738 20190412204904
131.161.54.9 1 1 39394 20190427050941
178.128.24.102 2 8 962384 20190424162748
83.153.28.57 3 17 1672279 20190423102755
52.42.71.88 1 1 31384 20190428135815
185.130.184.227 2 2 79110 20190411022957
162.158.68.220 0 1 7269 
194.223.61.169 0 2 32098 
185.153.196.157 1 1 31384 20190403090955
116.252.0.139 1 1 31402 20190429213444
185.212.168.189 4 4 158568 20190403114545
162.158.68.216 0 1 7269 
2400:cb00:36:1018::a29e:4215 0 1 20219 
174.127.188.38 1 1 31386 20190427113629
185.189.113.40 1 1 39718 20190407014230
116.203.28.227 2 2 62768 20190413094038
104.192.74.197 0 1 7269 
113.59.213.163 0 1 7269 
54.214.88.53 1 1 31384 20190418114850
2400:cb00:36:1034::a29e:44d5 0 2 166497 
2601:346:404:2a60:c8bb:bde:f4ec:6384 1 12 157726 20190428033646
66.102.8.202 0 3 48008 
34.229.196.84 0 1 7269 
217.76.79.26 1 2 32242 20190426105350
18.237.157.107 1 1 31382 20190402163605
202.46.53.45 1 1 31384 20190421235739
136.144.220.62 1 1 31382 20190408034107
129.213.91.213 1 1 31384 20190417044633
2001:983:eff:1:e13c:34ca:3450:4cb9 1 3 714020 20190414223300
2400:cb00:36:1013::a29e:478e 1 1 31384 20190420141413
66.7.149.135 6 6 188298 20190407045115
138.201.249.86 1 1 31384 20190428200211
198.20.103.242 1 1 31386 20190430093709
82.102.18.145 1 1 39718 20190420104642
179.61.169.60 1 1 31382 20190411105005
2400:cb00:36:1018::a29e:4204 0 3 147932 
66.102.6.233 1 1 31402 20190417104404
54.188.123.162 1 1 31384 20190430134342
185.130.184.204 2 2 79146 20190410070226
2402:4000:2081:df54:48a0:1b6c:1d51:4bf 1 1 24351 20190403113915
54.213.227.156 1 1 31384 20190423152034
34.242.184.31 1 1 31384 20190419083213
108.178.61.58 1 1 31382 20190402195353
220.247.207.50 3 3 106845 20190403164553
66.249.91.150 1 1 31402 20190413145407
34.213.225.39 1 1 31384 20190427171140
162.158.64.50 0 1 7269 
112.135.225.17 1 1 31386 20190410095201
35.164.232.12 1 1 31382 20190422164619
203.177.87.51 1 24 1032107 20190405060714
167.160.71.64 1 1 39410 20190430063902
2401:4900:2e8b:d07c:4330:b107:307d:666 2 10 1482022 20190410091133
185.104.184.116 2 2 79114 20190421103355
175.157.42.64 4 4 125544 20190403120333
84.227.104.216 1 2 38671 20190409200455
220.247.240.203 1 1 31386 20190429122253
46.246.65.211 1 1 31402 20190405164141
93.173.53.107 1 1 31386 20190418012245
2400:cb00:36:1001::a29e:4526 0 1 1547 
66.102.8.197 0 4 339335 
42.236.10.78 1 2 38657 20190425103023
220.247.214.147 7 7 208431 20190405140117
54.202.25.59 1 1 31384 20190426125141
2001:983:eff:1:78c6:99a3:1cf9:3a7b 3 6 76570 20190414130847
82.102.18.48 2 2 79110 20190408145927
END_VISITOR

# Date - Pages - Hits - Bandwidth - Visits
BEGIN_DAY 30
20190401 44 74 3261581 32
20190402 73 98 4111269 41
20190403 48 86 4117509 31
20190404 81 129 4848997 39
20190405 55 104 4872734 29
20190406 48 87 4352690 25
20190407 83 145 5103921 34
20190408 32 40 1296870 20
20190409 10 51 2856455 5
20190410 48 94 4782519 26
20190411 44 92 4328887 23
20190412 128 170 5913785 30
20190413 24 48 1491706 16
20190414 72 106 4694234 17
20190415 35 88 3723694 14
20190416 41 80 3789683 22
20190417 30 103 4760997 19
20190418 31 58 2027741 23
20190419 68 110 4097200 25
20190420 31 70 3016140 17
20190421 48 94 4158282 14
20190422 25 27 829154 17
20190423 127 236 11093727 19
20190424 56 118 5214870 14
20190425 31 100 4819487 21
20190426 39 94 5567466 18
20190427 9 33 1468342 8
20190428 36 77 2541781 15
20190429 52 128 6607003 31
20190430 30 52 1899364 18
END_DAY

# Session range - Number of visits
BEGIN_SESSION 6
30s-2mn 39
0s-30s 566
30mn-1h 17
2mn-5mn 10
5mn-15mn 21
15mn-30mn 10
END_SESSION

# URL - Pages - Bandwidth - Entry - Exit
# The 25 first Pages must be first (order not required for others)
BEGIN_SIDER 47
/ 655 20558652 528 457
/contact-us 109 4353410 29 49
/contact-us.php 101 3995782 49 48
/location 50 1141956 9 11
/gallery 47 1694007 6 15
/accommodation/super-deluxe-rooms 43 1066645 5 7
/about-us 41 998051 5 14
/accommodation/standard-rooms 36 898372 3 3
/accommodation/deluxe-rooms 35 877731 3 5
/facilities/restaurant 33 795895 1 3
/promotions 33 813994 1 7
/accommodation 32 896634 4 4
/facilities/swimming-pool 30 712654 1 1
/index.php 30 941678 4 8
/suites.php 22 603386 1 6
/privacy-policy 22 632574 0 7
/terms-and-conditions 22 655578 1 4
/facilities 21 557852 0 0
/promotions.php 19 468580 1 1
/swimming-pool.php 18 460662 2 2
/contact-us/ 8 317853 4 4
/accommodation.php 6 168092 3 3
/facilities/location 4 91312 0 1
/accommodation/promotions 3 66494 0 0
/accommodation/location 3 68483 0 0
/gallery.php 3 108095 0 0
/facilities/accommodation 3 79103 0 0
/location.php 2 47218 0 0
/facilities/facilities 3 74777 0 0
/index.php/admin/ 2 62766 2 2
/standard_rooms.php 2 55390 0 0
/accommodation/privacy-policy 3 84572 0 0
/deluxe_rooms.php 2 55048 0 0
/index.php/Home/AppUpload/commentUpload 2 62766 0 0
/facilities/promotions 3 66494 0 0
/facilities/terms-and-conditions 3 87902 0 0
/facilities/about-us 3 69836 0 0
/facilities/privacy-policy 3 84572 0 0
/restaurant.php 2 52000 0 0
/sitemap.xml 2 3918 0 0
/accommodation/about-us 3 69836 0 0
/accommodation/terms-and-conditions 3 87902 0 0
/privacy-policy.php 1 28750 1 1
/accommodation/accommodation 3 79103 0 0
/accommodation/facilities 3 74777 0 0
/about-us.php 2 48666 0 0
/facilities.php 3 79692 0 0
END_SIDER
